<svg xmlns="http://www.w3.org/2000/svg" width="190.5" height="92.162" viewBox="0 0 190.5 92.162">
  <g id="Grupo_7048" data-name="Grupo 7048" transform="translate(-683.834 -234.611)">
    <path id="Trazado_51788" data-name="Trazado 51788" d="M776.993,323.478h86.18V237.857h-86.18Zm-3.246,3.247V234.612h92.671v92.113Z" transform="translate(7.916 0)" fill="#0060a7"/>
    <rect id="Rectángulo_826" data-name="Rectángulo 826" width="92.64" height="92.162" transform="translate(683.834 234.611)" fill="#ef8115"/>
    <path id="Trazado_51789" data-name="Trazado 51789" d="M699.054,293.943c0,1.046-.347,2.056-1.513,2.056-1.089,0-1.546-1.05-1.546-2.048,0-1.046.394-2.03,1.546-2.03s1.513.985,1.513,2.022m.024,3.2h1.672v-8.79h-1.759v3.2h-.011a2.242,2.242,0,0,0-1.909-.949c-1.881,0-2.836,1.589-2.836,3.3,0,1.763.939,3.412,2.872,3.412a2.134,2.134,0,0,0,1.947-.988h.024Z" transform="translate(0.916 4.732)" fill="#fff"/>
    <path id="Trazado_51790" data-name="Trazado 51790" d="M702.913,293.1a1.381,1.381,0,0,1,1.461-1.357c.853,0,1.238.469,1.4,1.357Zm4.619,1.107c.124-1.96-.928-3.78-3.109-3.78a3.2,3.2,0,0,0-3.271,3.36,3.119,3.119,0,0,0,3.271,3.351,2.883,2.883,0,0,0,3-2.143h-1.549a1.448,1.448,0,0,1-1.388.827c-.978,0-1.523-.507-1.571-1.615Z" transform="translate(1.525 4.914)" fill="#fff"/>
    <rect id="Rectángulo_827" data-name="Rectángulo 827" width="1.759" height="8.79" transform="translate(710.145 293.083)" fill="#fff"/>
    <path id="Trazado_51791" data-name="Trazado 51791" d="M714.239,297.142h1.82v-6.165h.024l2.17,6.165h1.5l2.168-6.231h.024v6.231h1.822v-8.79h-2.739l-1.958,6.047h-.024l-2.07-6.047h-2.737Z" transform="translate(2.677 4.732)" fill="#fff"/>
    <path id="Trazado_51792" data-name="Trazado 51792" d="M726.1,292.553c.062-.691.495-.957,1.164-.957.619,0,1.14.1,1.14.857,0,.717-1,.678-2.083.84-1.09.144-2.179.49-2.179,1.933,0,1.3.965,1.907,2.179,1.907a2.952,2.952,0,0,0,2.156-.788,2.477,2.477,0,0,0,.123.614h1.782a3.26,3.26,0,0,1-.221-1.413v-3.312c0-1.532-1.535-1.812-2.81-1.812-1.441,0-2.913.49-3.011,2.13Zm2.3,1.948a1.3,1.3,0,0,1-1.424,1.461c-.571,0-1.078-.158-1.078-.814,0-.639.494-.823,1.038-.932a3.632,3.632,0,0,0,1.465-.368Z" transform="translate(3.549 4.914)" fill="#fff"/>
    <path id="Trazado_51793" data-name="Trazado 51793" d="M730.927,296.96h1.758v-2.866c0-1.121.446-2.048,1.735-2.048a3.064,3.064,0,0,1,.632.065v-1.628a1.4,1.4,0,0,0-.385-.061,2.274,2.274,0,0,0-2.046,1.351H732.6v-1.181h-1.673Z" transform="translate(4.146 4.914)" fill="#fff"/>
    <path id="Trazado_51794" data-name="Trazado 51794" d="M694.655,286.1H696.6V282.3h3.581V286.1h1.945V277.3h-1.945v3.375H696.6V277.3h-1.945Z" transform="translate(0.953 3.759)" fill="#fff"/>
    <path id="Trazado_51795" data-name="Trazado 51795" d="M704.5,282.737c0-1.024.358-2.043,1.548-2.043s1.56,1.019,1.56,2.043-.359,2.03-1.56,2.03-1.548-1.019-1.548-2.03m-1.759,0a3.313,3.313,0,1,0,3.308-3.361,3.124,3.124,0,0,0-3.308,3.361" transform="translate(1.664 3.941)" fill="#fff"/>
    <path id="Trazado_51796" data-name="Trazado 51796" d="M709.588,283.843c.075,1.689,1.523,2.245,3.011,2.245,1.461,0,2.923-.547,2.923-2.219,0-1.181-1-1.553-2.033-1.784-1-.232-1.993-.32-1.993-.95,0-.516.582-.591.978-.591.632,0,1.151.184,1.2.862h1.674c-.136-1.562-1.424-2.03-2.825-2.03-1.375,0-2.786.418-2.786,2.043,0,1.121,1.015,1.48,2.03,1.7,1.264.271,1.994.455,1.994.985,0,.616-.643.813-1.152.813-.694,0-1.337-.31-1.35-1.072Z" transform="translate(2.267 3.941)" fill="#fff"/>
    <path id="Trazado_51797" data-name="Trazado 51797" d="M719.218,284.767c-1.14,0-1.536-.985-1.536-2.017s.372-2.056,1.522-2.056c1.129,0,1.538,1.046,1.538,2.056,0,1.033-.374,2.017-1.524,2.017m-3.234,3.386h1.758v-3.028h.025a2.281,2.281,0,0,0,1.92.959c1.872,0,2.81-1.589,2.81-3.286,0-1.807-.9-3.422-2.909-3.422a2.134,2.134,0,0,0-1.907.98h-.026v-.811h-1.671Z" transform="translate(2.831 3.941)" fill="#fff"/>
    <path id="Trazado_51798" data-name="Trazado 51798" d="M724.739,277.3h-1.758v1.442h1.758Zm-1.758,8.792h1.758V279.73h-1.758Z" transform="translate(3.447 3.759)" fill="#fff"/>
    <path id="Trazado_51799" data-name="Trazado 51799" d="M728.149,277.779H726.39v1.907h-1.063v1.17h1.063v3.758c0,1.264.941,1.515,2.019,1.515a6.82,6.82,0,0,0,1.028-.062V284.7a2.884,2.884,0,0,1-.547.044c-.594,0-.741-.145-.741-.736v-3.154h1.288v-1.17h-1.288Z" transform="translate(3.653 3.801)" fill="#fff"/>
    <path id="Trazado_51800" data-name="Trazado 51800" d="M731.579,281.5c.064-.687.495-.959,1.164-.959.619,0,1.143.11,1.143.862,0,.714-1,.679-2.083.836s-2.179.5-2.179,1.935c0,1.308.967,1.912,2.179,1.912a2.952,2.952,0,0,0,2.156-.788,2.528,2.528,0,0,0,.122.613h1.785a3.237,3.237,0,0,1-.225-1.418v-3.312c0-1.525-1.533-1.807-2.809-1.807-1.437,0-2.912.49-3.012,2.127Zm2.307,1.947a1.3,1.3,0,0,1-1.427,1.466c-.569,0-1.076-.157-1.076-.813,0-.64.494-.828,1.04-.932a3.573,3.573,0,0,0,1.462-.372Z" transform="translate(4.031 3.941)" fill="#fff"/>
    <rect id="Rectángulo_828" data-name="Rectángulo 828" width="1.759" height="8.789" transform="translate(741.087 281.066)" fill="#fff"/>
    <path id="Trazado_51801" data-name="Trazado 51801" d="M787.165,302.793h1.707c.568,0,.879.21.879.809a.8.8,0,0,1-.879.823h-1.707Zm-1.046,5.084h2.744c1.548,0,2.2-.722,2.2-1.655a1.419,1.419,0,0,0-1.12-1.531v-.013a1.315,1.315,0,0,0,.853-1.264c0-.993-.705-1.474-1.777-1.474h-2.9Zm1.046-2.7h1.846c.639,0,1.007.333,1.007.915a.886.886,0,0,1-1.007.936h-1.846Z" transform="translate(9.005 5.928)" fill="#0060a7"/>
    <path id="Trazado_51802" data-name="Trazado 51802" d="M795.045,304.586c0-.905-.885-1.247-1.729-1.247-.953,0-1.9.324-1.968,1.431h.953c.045-.463.42-.682.958-.682.381,0,.892.091.892.581,0,.556-.613.482-1.3.608-.8.088-1.662.268-1.662,1.339a1.309,1.309,0,0,0,1.479,1.251,2.238,2.238,0,0,0,1.5-.521c.075.389.35.521.736.521a2.469,2.469,0,0,0,.6-.1v-.657a1.236,1.236,0,0,1-.232.017c-.175,0-.227-.091-.227-.323Zm-.954,1.719c0,.6-.647.818-1.067.818-.337,0-.879-.126-.879-.551,0-.5.367-.647.778-.714a3.447,3.447,0,0,0,1.169-.258Z" transform="translate(9.452 6.051)" fill="#0060a7"/>
    <path id="Trazado_51803" data-name="Trazado 51803" d="M795.674,307.754h.957v-2.048c0-.946.517-1.471,1.173-1.471a3.347,3.347,0,0,1,.407.045v-.915a2.147,2.147,0,0,0-.359-.026,1.394,1.394,0,0,0-1.264.95h-.017v-.831h-.9Z" transform="translate(9.847 6.051)" fill="#0060a7"/>
    <path id="Trazado_51804" data-name="Trazado 51804" d="M802.133,304.893a1.753,1.753,0,0,0-1.952-1.554,2.076,2.076,0,0,0-2.135,2.31,2.031,2.031,0,0,0,2.1,2.223,1.863,1.863,0,0,0,1.987-1.732h-.959a1.021,1.021,0,0,1-1.028.979c-.827,0-1.141-.752-1.141-1.47,0-1.3.691-1.561,1.186-1.561a.911.911,0,0,1,.984.805Z" transform="translate(10.055 6.051)" fill="#0060a7"/>
    <path id="Trazado_51805" data-name="Trazado 51805" d="M803.274,305.225a1.112,1.112,0,1,1,2.223,0Zm3.177.626a2.09,2.09,0,1,0-4.13-.24,2.044,2.044,0,0,0,2.113,2.262,1.889,1.889,0,0,0,1.955-1.466h-.9a1,1,0,0,1-1.054.713,1.14,1.14,0,0,1-1.16-1.269Z" transform="translate(10.432 6.051)" fill="#0060a7"/>
    <rect id="Rectángulo_829" data-name="Rectángulo 829" width="0.954" height="5.933" transform="translate(817.631 307.872)" fill="#0060a7"/>
    <path id="Trazado_51806" data-name="Trazado 51806" d="M810.633,307.867a2.266,2.266,0,1,0-2.184-2.266,2.082,2.082,0,0,0,2.184,2.266m0-.744c-.854,0-1.229-.774-1.229-1.522s.375-1.513,1.229-1.513,1.229.774,1.229,1.513-.381,1.522-1.229,1.522" transform="translate(10.971 6.051)" fill="#0060a7"/>
    <path id="Trazado_51807" data-name="Trazado 51807" d="M813.19,307.754h.95V305.22a1.051,1.051,0,0,1,1.046-1.133c.559,0,.831.293.844.966v2.7h.954V304.8a1.362,1.362,0,0,0-1.527-1.466,1.549,1.549,0,0,0-1.348.766l-.017-.017v-.63h-.9Z" transform="translate(11.389 6.051)" fill="#0060a7"/>
    <path id="Trazado_51808" data-name="Trazado 51808" d="M821.239,304.586c0-.905-.888-1.247-1.732-1.247-.95,0-1.9.324-1.965,1.431h.954c.043-.463.42-.682.953-.682.385,0,.9.091.9.581,0,.556-.613.482-1.3.608-.8.088-1.663.268-1.663,1.339,0,.84.7,1.251,1.479,1.251a2.251,2.251,0,0,0,1.5-.521c.074.389.349.521.734.521a2.463,2.463,0,0,0,.6-.1v-.657a1.255,1.255,0,0,1-.232.017c-.18,0-.227-.091-.227-.323Zm-.954,1.719c0,.6-.652.818-1.067.818-.336,0-.879-.126-.879-.551,0-.5.368-.647.775-.714a3.466,3.466,0,0,0,1.172-.258Z" transform="translate(11.758 6.051)" fill="#0060a7"/>
    <path id="Trazado_51809" data-name="Trazado 51809" d="M793.043,276.008h-1.636v3.765h-.026a2.867,2.867,0,0,0-2.469-1.156c-1.618,0-3.211,1.169-3.211,3.834,0,2.21,1.133,3.933,3.47,3.933a2.466,2.466,0,0,0,2.292-1.2h.031v1h1.549Zm-5.706,6.571c0-1.322.543-2.679,2.078-2.679,1.26,0,2.048.967,2.048,2.6,0,1.282-.617,2.6-2.078,2.6-1.418,0-2.048-1.251-2.048-2.52" transform="translate(8.969 3.645)" fill="#0060a7"/>
    <path id="Trazado_51810" data-name="Trazado 51810" d="M795.513,281.641a1.908,1.908,0,1,1,3.816,0Zm5.447,1.072a3.585,3.585,0,1,0-7.083-.416c0,2.266,1.308,3.877,3.632,3.877a3.235,3.235,0,0,0,3.351-2.511H799.31a1.71,1.71,0,0,1-1.8,1.225,1.964,1.964,0,0,1-2-2.175Z" transform="translate(9.688 3.856)" fill="#0060a7"/>
    <path id="Trazado_51811" data-name="Trazado 51811" d="M805.095,282.813c.045,2.52,1.935,3.635,4.275,3.635,2.035,0,4.069-.914,4.069-3.193a2.7,2.7,0,0,0-1.991-2.6c-.533-.158-2.8-.74-2.957-.782-.727-.2-1.216-.6-1.216-1.31,0-1.028,1.046-1.327,1.877-1.327,1.234,0,2.122.485,2.21,1.8h1.793c0-2.124-1.793-3.25-3.933-3.25-1.846,0-3.741.955-3.741,2.992,0,1.054.517,2.108,2.266,2.581,1.4.384,2.337.568,3.054.84a1.206,1.206,0,0,1,.844,1.251c0,.774-.586,1.54-2.165,1.54-1.431,0-2.591-.613-2.591-2.178Z" transform="translate(10.676 3.625)" fill="#0060a7"/>
    <path id="Trazado_51812" data-name="Trazado 51812" d="M820.356,280.543c0-1.553-1.518-2.137-2.966-2.137-1.632,0-3.255.556-3.37,2.451h1.636c.071-.8.714-1.169,1.632-1.169.66,0,1.536.157,1.536,1,0,.953-1.046.821-2.223,1.041-1.378.152-2.853.455-2.853,2.292a2.249,2.249,0,0,0,2.537,2.152,3.811,3.811,0,0,0,2.564-.9c.131.669.6.9,1.264.9a3.968,3.968,0,0,0,1.028-.188v-1.124a2.437,2.437,0,0,1-.4.026c-.3,0-.39-.153-.39-.556Zm-1.632,2.949c0,1.028-1.12,1.4-1.833,1.4-.578,0-1.509-.214-1.509-.937,0-.857.63-1.111,1.334-1.225a6.01,6.01,0,0,0,2.009-.442Z" transform="translate(11.438 3.856)" fill="#0060a7"/>
    <rect id="Rectángulo_830" data-name="Rectángulo 830" width="1.632" height="10.174" transform="translate(833.741 279.655)" fill="#0060a7"/>
    <path id="Trazado_51813" data-name="Trazado 51813" d="M831.386,278.589H829.75v4.274c0,1.142-.46,2.009-1.82,2.009-.889,0-1.422-.468-1.422-1.764v-4.519h-1.632v4.672c0,1.925.831,2.9,2.765,2.9a2.5,2.5,0,0,0,2.11-1.225h.03v1.024h1.6Z" transform="translate(12.418 3.872)" fill="#0060a7"/>
    <path id="Trazado_51814" data-name="Trazado 51814" d="M831.885,279.98h1.23v4.343c.031,1.225.345,1.886,2.052,1.886.359,0,.7-.061,1.059-.087v-1.256a2.822,2.822,0,0,1-.688.057c-.73,0-.787-.341-.787-1.011V279.98h1.474v-1.212h-1.474v-2.209h-1.636v2.209h-1.23Z" transform="translate(13.035 3.693)" fill="#0060a7"/>
    <path id="Trazado_51815" data-name="Trazado 51815" d="M786.24,275.27h1.793v-3.891h2.727c2.922.017,3.483-1.868,3.483-3.127s-.56-3.156-3.483-3.156h-4.52Zm1.793-8.722h2.652c.95,0,1.764.344,1.764,1.689a1.631,1.631,0,0,1-1.794,1.69h-2.621Z" transform="translate(9.016 2.684)" fill="#0060a7"/>
    <path id="Trazado_51816" data-name="Trazado 51816" d="M801.191,269.63c0-1.553-1.518-2.137-2.966-2.137-1.636,0-3.255.556-3.37,2.45h1.632c.074-.8.718-1.169,1.632-1.169.665,0,1.536.16,1.536,1,0,.955-1.047.827-2.223,1.041-1.374.156-2.853.455-2.853,2.293a2.25,2.25,0,0,0,2.537,2.152,3.817,3.817,0,0,0,2.569-.9c.13.669.6.9,1.26.9a4.076,4.076,0,0,0,1.033-.185v-1.127a2.11,2.11,0,0,1-.4.03c-.3,0-.385-.158-.385-.557Zm-1.637,2.949c0,1.026-1.115,1.4-1.833,1.4-.573,0-1.5-.214-1.5-.94,0-.855.63-1.112,1.334-1.225a5.931,5.931,0,0,0,2-.442Z" transform="translate(9.75 2.895)" fill="#0060a7"/>
    <path id="Trazado_51817" data-name="Trazado 51817" d="M802.405,275.059h1.632v-3.5c0-1.626.888-2.523,2-2.523a5.393,5.393,0,0,1,.708.071v-1.567a3.909,3.909,0,0,0-.621-.043,2.382,2.382,0,0,0-2.161,1.626h-.031v-1.426h-1.532Z" transform="translate(10.439 2.895)" fill="#0060a7"/>
    <path id="Trazado_51818" data-name="Trazado 51818" d="M813.6,270.158c-.157-1.807-1.619-2.665-3.338-2.665-2.437,0-3.658,1.739-3.658,3.959a3.475,3.475,0,0,0,3.6,3.806A3.181,3.181,0,0,0,813.6,272.3h-1.632a1.755,1.755,0,0,1-1.763,1.678c-1.422,0-1.965-1.295-1.965-2.522,0-2.236,1.19-2.678,2.035-2.678a1.567,1.567,0,0,1,1.693,1.383Z" transform="translate(10.809 2.895)" fill="#0060a7"/>
    <path id="Trazado_51819" data-name="Trazado 51819" d="M786.208,301.093h4.178v-7.678c0-.709-.022-.9-.078-1.681.332,1.309.354,1.326.647,2.337l2.148,7.022h3.269l2.3-7.412c.275-.906.32-1.08.552-2.017-.079,1.059-.1,1.29-.114,2.21v7.219H803.3V288.6H797l-1.575,5.36a26.155,26.155,0,0,0-.652,3.063,26.412,26.412,0,0,0-.569-2.656l-1.71-5.767h-6.287Z" transform="translate(9.013 4.753)" fill="#0060a7"/>
    <path id="Trazado_51820" data-name="Trazado 51820" d="M812.023,296.56h-2.993l1.515-4.4Zm-9.276,4.533h4.725l.612-1.733h4.843l.608,1.733h4.73l-5.2-12.492h-5Z" transform="translate(10.469 4.753)" fill="#0060a7"/>
    <path id="Trazado_51821" data-name="Trazado 51821" d="M824.121,291.222c.766,0,2.145.035,2.145,1.457s-1.4,1.444-2.127,1.444H822.3v-2.9Zm-6.226,9.871h4.41v-4.407h1.3l2.7,4.407h4.882l-3.386-5.041a4.47,4.47,0,0,0,1.79-.957,3.276,3.276,0,0,0,1.067-2.5,3.76,3.76,0,0,0-2.4-3.6,10.693,10.693,0,0,0-3.425-.39H817.9Z" transform="translate(11.803 4.753)" fill="#0060a7"/>
    <path id="Trazado_51822" data-name="Trazado 51822" d="M847.977,300.242a21.672,21.672,0,0,0-17.882,0V303.3a25.955,25.955,0,0,1,17.882,0Z" transform="translate(12.877 5.608)" fill="#0060a7"/>
  </g>
</svg>
