<svg xmlns="http://www.w3.org/2000/svg" width="115.279" height="102.429" viewBox="0 0 115.279 102.429">
  <g id="Grupo_7086" data-name="Grupo 7086" transform="translate(-705.716 599.552)">
    <path id="Trazado_52025" data-name="Trazado 52025" d="M705.772-501.437a4.29,4.29,0,0,0,.8,2.763c1.08,1.381,3.2,1.551,4.239,1.551,3.5,0,5.392-1.836,5.392-4.258a3.129,3.129,0,0,0-1.361-2.723c-.795-.531-1.154-.607-4.41-1.439-1.664-.4-2.459-.813-2.459-2.024,0-1.363,1.135-2.213,3.027-2.213,1.344,0,2.781.378,2.877,2.08h1.967a3.5,3.5,0,0,0-.832-2.326,5.339,5.339,0,0,0-3.84-1.345c-2.574,0-5.205,1.212-5.205,3.994a3.083,3.083,0,0,0,1.42,2.686,12.2,12.2,0,0,0,3.709,1.211c1.91.472,3.14.775,3.14,2.308,0,.681-.359,2.441-3.2,2.441-3.14,0-3.254-1.76-3.291-2.706Z" fill="#2e2b28" fill-rule="evenodd"/>
    <path id="Trazado_52026" data-name="Trazado 52026" d="M724.581-502.061a4.486,4.486,0,0,1-.455,2.5,2.281,2.281,0,0,1-2.025,1.021c-1.588,0-1.967-1.041-1.967-1.645,0-1.93,2.705-1.93,3.424-1.93a7.87,7.87,0,0,1,1.023.057m1.815,4.616a22.421,22.421,0,0,1-.151-2.384l.074-4.541a2.8,2.8,0,0,0-.32-1.456c-.512-.967-1.986-1.4-3.367-1.4a4.283,4.283,0,0,0-3.067,1.021,3.032,3.032,0,0,0-.662,1.8h1.78c.017-.379.113-1.608,1.91-1.608a2.172,2.172,0,0,1,1.646.625c.342.415.342.925.342,2.1-.551-.038-.834-.056-1.287-.056a7.391,7.391,0,0,0-3.293.625,3.122,3.122,0,0,0-1.664,2.78c0,1.57,1.172,2.8,3.348,2.8a3.072,3.072,0,0,0,2.931-1.722,5.1,5.1,0,0,0,.172,1.419Z" fill="#2e2b28" fill-rule="evenodd"/>
    <path id="Trazado_52027" data-name="Trazado 52027" d="M729.575-497.445h1.778v-5.468a2.525,2.525,0,0,1,2.478-2.839,2.433,2.433,0,0,1,1.684.645,2.139,2.139,0,0,1,.511,1.627v6.035h1.817V-503.9a3.17,3.17,0,0,0-3.444-3.236,3.1,3.1,0,0,0-3.046,1.723l-.02-1.533h-1.777l.019,1.1Z" fill="#2e2b28" fill-rule="evenodd"/>
    <path id="Trazado_52028" data-name="Trazado 52028" d="M741.1-497.445h1.777v-9.5H741.1Zm-.19-11.674h2.139v-1.948h-2.139Z" fill="#2e2b28" fill-rule="evenodd"/>
    <path id="Trazado_52029" data-name="Trazado 52029" d="M744.88-505.676h1.685v6.338c0,1.552.776,2.026,2.4,2.026a8.754,8.754,0,0,0,1.476-.114v-1.38a4.01,4.01,0,0,1-.853.093c-1.268,0-1.268-.795-1.268-1.267v-5.7h2.121v-1.3h-2.121v-2.555l-1.758.568v1.987H744.88Z" fill="#2e2b28" fill-rule="evenodd"/>
    <path id="Trazado_52030" data-name="Trazado 52030" d="M753.642-511.446l2.552,2.725h1.174l-1.59-2.725Zm4.578,9.385a4.451,4.451,0,0,1-.455,2.5,2.279,2.279,0,0,1-2.024,1.021c-1.59,0-1.969-1.041-1.969-1.645,0-1.93,2.707-1.93,3.426-1.93a7.853,7.853,0,0,1,1.022.057m1.816,4.616a21.964,21.964,0,0,1-.152-2.384l.076-4.541a2.825,2.825,0,0,0-.32-1.456c-.512-.967-1.989-1.4-3.369-1.4A4.289,4.289,0,0,0,753.2-506.2a3.052,3.052,0,0,0-.662,1.8h1.779c.02-.379.114-1.608,1.912-1.608a2.171,2.171,0,0,1,1.645.625c.342.415.342.925.342,2.1-.549-.038-.832-.056-1.287-.056a7.383,7.383,0,0,0-3.291.625,3.123,3.123,0,0,0-1.666,2.78c0,1.57,1.173,2.8,3.349,2.8a3.076,3.076,0,0,0,2.932-1.722,5.022,5.022,0,0,0,.172,1.419Z" fill="#2e2b28" fill-rule="evenodd"/>
    <path id="Trazado_52031" data-name="Trazado 52031" d="M763.251-497.445h1.8V-502.5c0-1.628.492-2.876,2.592-2.876a3.718,3.718,0,0,1,.509.02,1.436,1.436,0,0,1,.342.075v-1.74a5.643,5.643,0,0,0-1.23.038,2.567,2.567,0,0,0-2.27,1.873l-.039-1.836h-1.8c.057.625.094,1.287.094,1.931Z" fill="#2e2b28" fill-rule="evenodd"/>
    <path id="Trazado_52032" data-name="Trazado 52032" d="M770.536-497.445h1.777v-9.5h-1.777Zm-.189-11.674h2.138v-1.948h-2.138Z" fill="#2e2b28" fill-rule="evenodd"/>
    <path id="Trazado_52033" data-name="Trazado 52033" d="M781.358-502.061a4.442,4.442,0,0,1-.455,2.5,2.274,2.274,0,0,1-2.023,1.021c-1.59,0-1.969-1.041-1.969-1.645,0-1.93,2.707-1.93,3.426-1.93a7.836,7.836,0,0,1,1.021.057m1.817,4.616a22.056,22.056,0,0,1-.153-2.384l.077-4.541a2.817,2.817,0,0,0-.321-1.456c-.511-.967-1.988-1.4-3.369-1.4a4.278,4.278,0,0,0-3.064,1.021,3.019,3.019,0,0,0-.662,1.8h1.777c.019-.379.113-1.608,1.912-1.608a2.179,2.179,0,0,1,1.647.625c.339.415.339.925.339,2.1-.548-.038-.832-.056-1.287-.056a7.39,7.39,0,0,0-3.291.625,3.125,3.125,0,0,0-1.666,2.78c0,1.57,1.174,2.8,3.35,2.8a3.075,3.075,0,0,0,2.932-1.722,5.207,5.207,0,0,0,.169,1.419Z" fill="#2e2b28" fill-rule="evenodd"/>
    <path id="Trazado_52034" data-name="Trazado 52034" d="M713.021-522.236c0,.738,0,3.822-2.8,3.822-2.176,0-2.612-1.949-2.612-3.633,0-.643,0-3.8,2.612-3.8a2.58,2.58,0,0,1,2.082.965,4.072,4.072,0,0,1,.719,2.649m-.057-3.33a3.066,3.066,0,0,0-2.953-1.608c-2.233,0-4.295,1.57-4.295,5.184,0,4.162,2.82,4.824,4.088,4.824a4.314,4.314,0,0,0,2.345-.7,2.713,2.713,0,0,0,.852-1l.039,1.514h1.777c-.039-.492-.076-1.3-.076-1.514v-12.108h-1.777Z" fill="#2e2b28" fill-rule="evenodd"/>
    <path id="Trazado_52035" data-name="Trazado 52035" d="M718.393-531.016l-1.23,4.654h1.287l2.119-4.654Z" fill="#2e2b28" fill-rule="evenodd"/>
    <path id="Trazado_52036" data-name="Trazado 52036" d="M728.384-529.142l2.515,6.7h-5.166Zm-6.68,11.787h1.949l1.475-3.557h6.34l1.474,3.557h2.063l-5.526-13.66h-2.023Z" fill="#2e2b28" fill-rule="evenodd"/>
    <path id="Trazado_52037" data-name="Trazado 52037" d="M736.007-520.174c-.02,2.289,1.779,3.084,3.709,3.084a5.338,5.338,0,0,0,2.818-.643,2.88,2.88,0,0,0,1.287-2.4,2.357,2.357,0,0,0-.718-1.759c-.569-.53-1.135-.681-3.766-1.3-.492-.133-1.344-.342-1.344-1.211,0-1.362,1.664-1.362,1.932-1.362.642,0,1.89.113,1.834,1.552h1.816a3.014,3.014,0,0,0-.246-1.382c-.568-1.135-2.232-1.476-3.426-1.476-2.193,0-3.707,1.135-3.707,2.876,0,1.987,1.664,2.384,3.653,2.838,1.418.321,2.08.491,2.08,1.419a1.491,1.491,0,0,1-.3.891,1.947,1.947,0,0,1-1.664.6c-1.723,0-2.1-1-2.082-1.722Z" fill="#2e2b28" fill-rule="evenodd"/>
    <path id="Trazado_52038" data-name="Trazado 52038" d="M745.468-520.174c-.02,2.289,1.777,3.084,3.707,3.084a5.345,5.345,0,0,0,2.82-.643,2.883,2.883,0,0,0,1.285-2.4,2.349,2.349,0,0,0-.718-1.759c-.567-.53-1.135-.681-3.764-1.3-.492-.133-1.344-.342-1.344-1.211,0-1.362,1.664-1.362,1.93-1.362.642,0,1.892.113,1.834,1.552h1.816a3.015,3.015,0,0,0-.246-1.382c-.566-1.135-2.232-1.476-3.424-1.476-2.193,0-3.709,1.135-3.709,2.876,0,1.987,1.666,2.384,3.653,2.838,1.42.321,2.082.491,2.082,1.419a1.491,1.491,0,0,1-.3.891,1.95,1.95,0,0,1-1.664.6c-1.723,0-2.1-1-2.082-1.722Z" fill="#2e2b28" fill-rule="evenodd"/>
    <path id="Trazado_52039" data-name="Trazado 52039" d="M755.8-517.355h1.777v-9.5H755.8Zm-.19-11.673h2.139v-1.949h-2.139Z" fill="#2e2b28" fill-rule="evenodd"/>
    <path id="Trazado_52040" data-name="Trazado 52040" d="M760.187-520.174c-.018,2.289,1.779,3.084,3.709,3.084a5.334,5.334,0,0,0,2.818-.643,2.88,2.88,0,0,0,1.287-2.4,2.354,2.354,0,0,0-.719-1.759c-.568-.53-1.135-.681-3.765-1.3-.493-.133-1.344-.342-1.344-1.211,0-1.362,1.666-1.362,1.93-1.362.644,0,1.892.113,1.835,1.552h1.817a3.014,3.014,0,0,0-.246-1.382c-.569-1.135-2.233-1.476-3.424-1.476-2.2,0-3.709,1.135-3.709,2.876,0,1.987,1.666,2.384,3.652,2.838,1.418.321,2.08.491,2.08,1.419a1.491,1.491,0,0,1-.3.891,1.948,1.948,0,0,1-1.664.6c-1.723,0-2.1-1-2.082-1.722Z" fill="#2e2b28" fill-rule="evenodd"/>
    <path id="Trazado_52041" data-name="Trazado 52041" d="M769.042-525.585h1.684v6.338c0,1.552.775,2.025,2.4,2.025a8.744,8.744,0,0,0,1.476-.114v-1.382a3.909,3.909,0,0,1-.851.1c-1.268,0-1.268-.794-1.268-1.267v-5.7H774.6v-1.3h-2.119v-2.555l-1.759.568v1.987h-1.684Z" fill="#2e2b28" fill-rule="evenodd"/>
    <path id="Trazado_52042" data-name="Trazado 52042" d="M777.8-531.356l2.552,2.725h1.174l-1.59-2.725Zm.15,8.325a2.548,2.548,0,0,1,2.592-2.8c2.2,0,2.365,1.892,2.346,2.8Zm6.754,1.249c.039-1.552.133-5.315-4.123-5.315a4.562,4.562,0,0,0-2.592.7c-1.5,1.041-1.873,2.593-1.873,4.466,0,3.007,1.418,4.862,4.408,4.862a4.1,4.1,0,0,0,3.272-1.269,3.211,3.211,0,0,0,.814-1.985h-1.779a2.065,2.065,0,0,1-2.232,1.967c-1.948,0-2.762-1.457-2.725-3.424Z" fill="#2e2b28" fill-rule="evenodd"/>
    <path id="Trazado_52043" data-name="Trazado 52043" d="M787.374-517.355h1.779v-5.468a2.525,2.525,0,0,1,2.479-2.839,2.436,2.436,0,0,1,1.683.645,2.136,2.136,0,0,1,.512,1.627v6.035h1.817v-6.451a3.17,3.17,0,0,0-3.446-3.237,3.1,3.1,0,0,0-3.045,1.723l-.019-1.533h-1.778l.018,1.1Z" fill="#2e2b28" fill-rule="evenodd"/>
    <path id="Trazado_52044" data-name="Trazado 52044" d="M806.087-523.806a3.308,3.308,0,0,0-.795-2.12,3.852,3.852,0,0,0-2.914-1.172c-1.893,0-4.313,1.172-4.313,5.127a5.138,5.138,0,0,0,1.135,3.632,4.282,4.282,0,0,0,3.121,1.23,3.59,3.59,0,0,0,3.84-3.4h-1.8a1.975,1.975,0,0,1-2.062,2.061c-1.891,0-2.365-1.815-2.365-3.765,0-.718,0-3.575,2.46-3.575a1.874,1.874,0,0,1,1.891,1.987Z" fill="#2e2b28" fill-rule="evenodd"/>
    <path id="Trazado_52045" data-name="Trazado 52045" d="M808.356-517.355h1.78v-9.5h-1.78Zm-.189-11.673h2.139v-1.949h-2.139Z" fill="#2e2b28" fill-rule="evenodd"/>
    <path id="Trazado_52046" data-name="Trazado 52046" d="M819.179-521.971a4.471,4.471,0,0,1-.453,2.5,2.283,2.283,0,0,1-2.026,1.021c-1.59,0-1.967-1.04-1.967-1.645,0-1.93,2.705-1.93,3.424-1.93a7.679,7.679,0,0,1,1.022.057m1.816,4.616a21.777,21.777,0,0,1-.15-2.384l.074-4.54a2.806,2.806,0,0,0-.32-1.457c-.512-.965-1.987-1.4-3.37-1.4a4.282,4.282,0,0,0-3.064,1.022,3.025,3.025,0,0,0-.662,1.8h1.779c.018-.379.114-1.609,1.91-1.609a2.181,2.181,0,0,1,1.647.625c.34.416.34.926.34,2.1-.549-.038-.832-.057-1.287-.057a7.4,7.4,0,0,0-3.291.625,3.125,3.125,0,0,0-1.666,2.781c0,1.57,1.173,2.8,3.349,2.8a3.076,3.076,0,0,0,2.934-1.721,5.094,5.094,0,0,0,.17,1.419Z" fill="#2e2b28" fill-rule="evenodd"/>
    <rect id="Rectángulo_844" data-name="Rectángulo 844" width="1.895" height="13.66" transform="translate(706.378 -550.926)" fill="#2e2b28"/>
    <path id="Trazado_52047" data-name="Trazado 52047" d="M711.7-537.265h1.778v-5.468a2.523,2.523,0,0,1,2.478-2.838,2.436,2.436,0,0,1,1.684.643,2.142,2.142,0,0,1,.511,1.627v6.036h1.817v-6.452a3.168,3.168,0,0,0-3.443-3.235,3.1,3.1,0,0,0-3.047,1.722l-.018-1.533h-1.779l.019,1.1Z" fill="#2e2b28" fill-rule="evenodd"/>
    <path id="Trazado_52048" data-name="Trazado 52048" d="M722.347-540.084c-.018,2.289,1.779,3.084,3.709,3.084a5.335,5.335,0,0,0,2.818-.644,2.874,2.874,0,0,0,1.287-2.4,2.355,2.355,0,0,0-.719-1.76c-.568-.53-1.134-.68-3.765-1.3-.492-.133-1.344-.341-1.344-1.211,0-1.363,1.666-1.363,1.932-1.363.642,0,1.892.115,1.834,1.552h1.816a3.021,3.021,0,0,0-.246-1.382c-.568-1.133-2.232-1.475-3.424-1.475-2.2,0-3.709,1.135-3.709,2.877,0,1.985,1.666,2.383,3.652,2.838,1.418.32,2.081.491,2.081,1.418a1.471,1.471,0,0,1-.3.889,1.938,1.938,0,0,1-1.664.607c-1.723,0-2.1-1-2.082-1.723Z" fill="#2e2b28" fill-rule="evenodd"/>
    <path id="Trazado_52049" data-name="Trazado 52049" d="M731.2-545.495h1.684v6.338c0,1.552.775,2.024,2.4,2.024a8.778,8.778,0,0,0,1.477-.113v-1.381a4.011,4.011,0,0,1-.852.094c-1.267,0-1.267-.794-1.267-1.268v-5.694h2.119V-546.8h-2.119v-2.554l-1.76.568v1.986H731.2Z" fill="#2e2b28" fill-rule="evenodd"/>
    <path id="Trazado_52050" data-name="Trazado 52050" d="M738.978-537.265h1.779v-9.5h-1.779Zm-.19-11.674h2.139v-1.949h-2.139Z" fill="#2e2b28" fill-rule="evenodd"/>
    <path id="Trazado_52051" data-name="Trazado 52051" d="M742.763-545.495h1.683v6.338c0,1.552.776,2.024,2.4,2.024a8.736,8.736,0,0,0,1.474-.113v-1.381a3.957,3.957,0,0,1-.851.094c-1.268,0-1.268-.794-1.268-1.268v-5.694h2.119V-546.8H746.2v-2.554l-1.758.568v1.986h-1.683Z" fill="#2e2b28" fill-rule="evenodd"/>
    <path id="Trazado_52052" data-name="Trazado 52052" d="M750.329-546.763v6.376c0,1.874,1.1,3.217,3.443,3.217a2.974,2.974,0,0,0,3.028-1.722l.037,1.628h1.855c-.019-.531-.056-1.59-.056-1.779v-7.72H756.8v5.374a3.07,3.07,0,0,1-.4,1.778,2.563,2.563,0,0,1-2.232,1.059c-1.817,0-2.025-1.172-2.025-2.1v-6.112Z" fill="#2e2b28" fill-rule="evenodd"/>
    <path id="Trazado_52053" data-name="Trazado 52053" d="M760.622-545.495h1.684v6.338c0,1.552.775,2.024,2.4,2.024a8.8,8.8,0,0,0,1.477-.113v-1.381a4.011,4.011,0,0,1-.852.094c-1.268,0-1.268-.794-1.268-1.268v-5.694h2.12V-546.8h-2.12v-2.554l-1.759.568v1.986h-1.684Z" fill="#2e2b28" fill-rule="evenodd"/>
    <path id="Trazado_52054" data-name="Trazado 52054" d="M729.907-586.541h5.945v7.7h14.084v5.942H735.853v7.7h-5.945v-7.7h-7.7v-5.942h7.7Z" fill="#003097"/>
    <rect id="Rectángulo_845" data-name="Rectángulo 845" width="10.293" height="33.164" transform="translate(706.669 -598.328)" fill="#003097"/>
    <path id="Trazado_52055" data-name="Trazado 52055" d="M734.265-598.385h10.746l14.555,33.164H748.819Z" fill="#003097" fill-rule="evenodd"/>
    <path id="Trazado_52056" data-name="Trazado 52056" d="M784.4-565.937a19.619,19.619,0,0,1-8.707,1.8q-1.027,0-2.005-.065c-4.385-.194-8.135-1.613-10.59-5.481a9.706,9.706,0,0,1-1.522-4.778h1.27l7.347-.123a5.277,5.277,0,0,0,4.831,3.8l.585.015a9.229,9.229,0,0,0,3.678-.675,3.4,3.4,0,0,0,2.037-3.172c0-1.723-1.467-2.608-2.9-3.188-3.352-1.36-7.127-1.408-10.4-2.744-.662-.27-1.226-.524-1.722-.774a7.934,7.934,0,0,1-4.93-7.863c0-3.973,2.123-7.1,5.93-9l.5-.239a20.158,20.158,0,0,1,8.808-1.07,15.479,15.479,0,0,1,6.85,1.769,8.425,8.425,0,0,1,4.853,6.2c.094.507.159,1.109.159,1.109l-.67.009-7.073.1c-1.408-1.945-2.972-3.095-5.46-3.095-2.127,0-5.149,1.127-5.149,3.66a3.027,3.027,0,0,0,1.992,2.65,37.923,37.923,0,0,0,5.418,1.629l.764.2c1.273.3,2.449.58,3.6.92.959.248,1.721.467,2.377.709a10.854,10.854,0,0,1,5.084,3.842,8.362,8.362,0,0,1,1.149,2.809,10.539,10.539,0,0,1,.209,2.136c0,3.938-2.965,7.252-6.319,8.909" fill="#003097"/>
  </g>
</svg>
