<svg id="Capa_1" data-name="Capa 1" xmlns="http://www.w3.org/2000/svg" width="101" height="101" viewBox="0 0 101 101">
  <circle id="Elipse_81" data-name="Elipse 81" cx="4.171" cy="4.171" r="4.171" transform="translate(15.631 44.768)" fill="#ff8669"/>
  <circle id="Elipse_82" data-name="Elipse 82" cx="14.7" cy="14.7" r="14.7" transform="translate(40.519 42.799)" fill="#9cb6ff"/>
  <path id="Trazado_53260" data-name="Trazado 53260" d="M80.582,35.538A44.536,44.536,0,0,0,65.355,23.132,43.838,43.838,0,0,0,46.1,18.48H44.979a43.776,43.776,0,0,0-19.244,4.652A44.536,44.536,0,0,0,10.507,35.538a5.52,5.52,0,0,0,0,6.808A44.97,44.97,0,0,0,25.735,54.751,43.776,43.776,0,0,0,44.979,59.4h1.054a43.838,43.838,0,0,0,19.26-4.652A44.97,44.97,0,0,0,80.52,42.345a5.52,5.52,0,0,0,.062-6.808ZM27.053,52.176a41.868,41.868,0,0,1-14.22-11.646,2.559,2.559,0,0,1,0-3.194,41.651,41.651,0,0,1,14.22-11.63,39.062,39.062,0,0,1,4.776-2.031,20.485,20.485,0,0,0,0,30.533,39.062,39.062,0,0,1-4.776-2.031ZM45.537,56.5A17.585,17.585,0,1,1,63.091,38.934,17.585,17.585,0,0,1,45.537,56.5ZM78.256,40.531a41.868,41.868,0,0,1-14.22,11.646,42.846,42.846,0,0,1-4.776,2.031,20.5,20.5,0,0,0,0-30.533,40.318,40.318,0,0,1,4.792,2.031,41.869,41.869,0,0,1,14.22,11.63,2.605,2.605,0,0,1-.016,3.194Z" transform="translate(5.139 10.177)"/>
  <path id="Trazado_53261" data-name="Trazado 53261" d="M35.356,26.82a7.536,7.536,0,1,0,7.536,7.521,7.536,7.536,0,0,0-7.536-7.521Zm0,12.111a4.652,4.652,0,1,1,4.652-4.652A4.652,4.652,0,0,1,35.356,38.931Z" transform="translate(15.32 14.769)"/>
  <rect id="Rectángulo_963" data-name="Rectángulo 963" width="101" height="101" fill="none"/>
</svg>
