<svg xmlns="http://www.w3.org/2000/svg" width="101" height="101" viewBox="0 0 101 101">
  <g id="Capa_1" data-name="Capa 1" transform="translate(-0.096)">
    <circle id="Elipse_87" data-name="Elipse 87" cx="8.901" cy="8.901" r="8.901" transform="translate(43.047 27.525)" fill="#9cb6ff"/>
    <circle id="Elipse_88" data-name="Elipse 88" cx="4.9" cy="4.9" r="4.9" transform="translate(56.709 72.758)" fill="#ff8669"/>
    <path id="Trazado_53265" data-name="Trazado 53265" d="M71.931,30.139a1.442,1.442,0,0,0,1.442-1.427V13.205a4.3,4.3,0,0,0-4.3-4.3H17.005a4.3,4.3,0,0,0-4.3,4.3V77.869a4.3,4.3,0,0,0,4.3,4.3H69.077a4.3,4.3,0,0,0,4.3-4.3V67.324a1.442,1.442,0,0,0-2.869,0V77.869A1.427,1.427,0,0,1,69.077,79.3H17.005a1.442,1.442,0,0,1-1.442-1.427V13.159a1.442,1.442,0,0,1,1.442-1.427H69.077A1.427,1.427,0,0,1,70.5,13.159V28.666a1.427,1.427,0,0,0,1.427,1.473Z" transform="translate(6.999 4.907)"/>
    <path id="Trazado_53266" data-name="Trazado 53266" d="M36.944,13.86A13.165,13.165,0,0,0,27.9,36.593l.155.14a13.119,13.119,0,0,0,17.755,0l.155-.14A13.15,13.15,0,0,0,36.944,13.86Zm0,23.462a10.188,10.188,0,0,1-6.2-2.093,7.149,7.149,0,0,1,12.405,0,10.25,10.25,0,0,1-6.2,2.109Zm-2.3-10.855v-.93a2.326,2.326,0,1,1,4.652,0v.946a2.326,2.326,0,1,1-4.652,0Zm10.576,6.683a9.986,9.986,0,0,0-4.2-3.567,5.148,5.148,0,0,0,1.07-3.1v-.93a5.148,5.148,0,1,0-10.3,0v.93a5.148,5.148,0,0,0,1.07,3.1,10.033,10.033,0,0,0-4.218,3.536,10.312,10.312,0,1,1,16.577,0Z" transform="translate(13.096 7.632)"/>
    <path id="Trazado_53267" data-name="Trazado 53267" d="M40.463,49.29H32.709a1.442,1.442,0,0,0,0,2.869h7.753a1.442,1.442,0,0,0,0-2.869Z" transform="translate(17.3 27.143)"/>
    <path id="Trazado_53268" data-name="Trazado 53268" d="M44.923,44.12H24.609a1.442,1.442,0,0,0,0,2.869H44.923a1.442,1.442,0,0,0,0-2.869Z" transform="translate(12.84 24.296)"/>
    <path id="Trazado_53269" data-name="Trazado 53269" d="M44.971,39H24.657a1.427,1.427,0,1,0,0,2.853H44.971a1.427,1.427,0,1,0,0-2.853Z" transform="translate(12.792 21.477)"/>
    <path id="Trazado_53270" data-name="Trazado 53270" d="M21.73,34.209a1.442,1.442,0,0,0-1.008-.419,1.411,1.411,0,0,0-1.008.419,1.4,1.4,0,0,0-.434,1.008,1.442,1.442,0,0,0,2.45,1.023,1.551,1.551,0,0,0,.419-1.023A1.442,1.442,0,0,0,21.73,34.209Z" transform="translate(10.617 18.608)"/>
    <path id="Trazado_53271" data-name="Trazado 53271" d="M21.731,39.379a1.442,1.442,0,0,0-1.008-.419,1.411,1.411,0,0,0-1.008.419,1.38,1.38,0,0,0,0,2.016,1.411,1.411,0,0,0,1.008.419,1.427,1.427,0,0,0,1.008-2.435Z" transform="translate(10.616 21.455)"/>
    <path id="Trazado_53272" data-name="Trazado 53272" d="M21.73,44.554a1.4,1.4,0,0,0-1.008-.434,1.551,1.551,0,0,0-1.442,1.442,1.4,1.4,0,0,0,.434,1.008,1.411,1.411,0,0,0,1.008.419,1.427,1.427,0,0,0,1.427-1.427,1.411,1.411,0,0,0-.419-1.008Z" transform="translate(10.617 24.296)"/>
    <path id="Trazado_53273" data-name="Trazado 53273" d="M44.923,33.79H24.609a1.442,1.442,0,0,0,0,2.869H44.923a1.442,1.442,0,0,0,0-2.869Z" transform="translate(12.84 18.608)"/>
    <path id="Trazado_53274" data-name="Trazado 53274" d="M67.822,21.182a6.032,6.032,0,0,0-8.2,2.2l-18,31.184a1.458,1.458,0,0,0-.171.558L40.173,66.478a1.411,1.411,0,0,0,.713,1.4,1.3,1.3,0,0,0,.713.2,1.4,1.4,0,0,0,.837-.279l9.2-6.776a1.55,1.55,0,0,0,.4-.434l18-31.184a6.048,6.048,0,0,0-2.217-8.219ZM43.383,63.547l.651-5.924,4.14,2.388Zm6.885-5.629-5.458-3.1L59.262,29.789l5.458,3.1Zm17.29-29.944-1.411,2.435-5.458-3.1L62.1,24.873a3.139,3.139,0,0,1,5.458,3.1Z" transform="translate(22.118 11.227)"/>
    <rect id="Rectángulo_966" data-name="Rectángulo 966" width="101" height="101" transform="translate(0.096)" fill="none"/>
  </g>
</svg>
