<svg xmlns="http://www.w3.org/2000/svg" width="1707" height="128" viewBox="0 0 1707 128">
  <g id="Grupo_7723" data-name="Grupo 7723" transform="translate(-213 -830)">
    <g id="Grupo_7722" data-name="Grupo 7722">
      <path id="Trazado_53253" data-name="Trazado 53253" d="M0,0H1580V128H0Z" transform="translate(340 830)" fill="#3059c9"/>
    </g>
    <g id="Componente_35_1" data-name="Componente 35 – 1" transform="translate(213 830)">
      <g id="Grupo_7491" data-name="Grupo 7491" opacity="0.4">
        <path id="Trazado_52296" data-name="Trazado 52296" d="M-624.8-312.341l30.382-30.382h4.751l-32.757,32.757Z" transform="translate(655.184 342.722)" fill="none"/>
        <path id="Trazado_52297" data-name="Trazado 52297" d="M-641.151-307.436l35.287-35.287h4.689l-37.631,37.631Z" transform="translate(676.438 342.722)" fill="none"/>
        <path id="Trazado_52298" data-name="Trazado 52298" d="M-558.957-331.936l10.786-10.786h4.683l-13.128,13.128Z" transform="translate(569.743 342.722)" fill="none"/>
        <path id="Trazado_52299" data-name="Trazado 52299" d="M-657.489-302.562l40.161-40.161h4.683l-42.5,42.5Z" transform="translate(697.65 342.722)" fill="none"/>
        <path id="Trazado_52300" data-name="Trazado 52300" d="M-727.327-342.722v.6l-.6-.6Z" transform="translate(854.327 342.722)" fill="none"/>
        <path id="Trazado_52301" data-name="Trazado 52301" d="M-575.306-327.066l15.657-15.657h4.689l-18,18Z" transform="translate(590.963 342.722)" fill="none"/>
        <path id="Trazado_52302" data-name="Trazado 52302" d="M-591.644-322.192l20.531-20.531h4.682L-589.3-319.85Z" transform="translate(612.175 342.722)" fill="none"/>
        <path id="Trazado_52303" data-name="Trazado 52303" d="M-526.917-341.488l1.234-1.234H-521l-3.576,3.576Z" transform="translate(528.152 342.722)" fill="none"/>
        <path id="Trazado_52304" data-name="Trazado 52304" d="M-608.349-317.321l25.4-25.4h4.9L-605.9-314.87Z" transform="translate(633.751 342.722)" fill="none"/>
        <path id="Trazado_52305" data-name="Trazado 52305" d="M-542.618-336.617l6.105-6.105h4.3l-8.257,8.257Z" transform="translate(548.724 342.722)" fill="none"/>
        <path id="Trazado_52306" data-name="Trazado 52306" d="M-674.932-297.691l45.031-45.031h5.342l-47.7,47.7Z" transform="translate(719.964 342.722)" fill="none"/>
        <path id="Trazado_52307" data-name="Trazado 52307" d="M-727.923-218.11l37.543-37.542v5.022L-725.412-215.6Z" transform="translate(817.38 307.567)" fill="none"/>
        <path id="Trazado_52308" data-name="Trazado 52308" d="M-727.923-229.835l42.523-42.523v4.9l-40.072,40.072Z" transform="translate(812.4 314.312)" fill="none"/>
        <path id="Trazado_52309" data-name="Trazado 52309" d="M-727.923-206.243l32.5-32.5v4.683L-725.581-203.9Z" transform="translate(822.421 300.741)" fill="none"/>
        <path id="Trazado_52310" data-name="Trazado 52310" d="M-727.923-241.3l47.394-47.394v4.683l-45.052,45.052Z" transform="translate(807.529 320.909)" fill="none"/>
        <path id="Trazado_52311" data-name="Trazado 52311" d="M-727.923-194.776l27.631-27.632v5.342l-24.961,24.961Z" transform="translate(827.291 294.145)" fill="none"/>
        <path id="Trazado_52312" data-name="Trazado 52312" d="M-727.923-182.533l22.431-22.431v4.683l-20.09,20.09Z" transform="translate(832.492 287.102)" fill="none"/>
        <path id="Trazado_52313" data-name="Trazado 52313" d="M-727.923-171.065l17.56-17.56v4.689l-15.216,15.216Z" transform="translate(837.363 280.505)" fill="none"/>
        <path id="Trazado_52314" data-name="Trazado 52314" d="M-727.923-252.778l52.268-52.268v4.689l-49.923,49.923Z" transform="translate(802.655 327.51)" fill="none"/>
        <path id="Trazado_52315" data-name="Trazado 52315" d="M-691.271-292.491l50.232-50.232h4.683l-52.573,52.573Z" transform="translate(741.503 342.722)" fill="none"/>
        <path id="Trazado_52316" data-name="Trazado 52316" d="M-727.923-276.05-665.77-338.2v4.9l-59.7,59.7Z" transform="translate(792.77 340.898)" fill="none"/>
        <path id="Trazado_52317" data-name="Trazado 52317" d="M-707.62-287.62l55.1-55.1h4.689l-57.447,57.447Z" transform="translate(762.722 342.722)" fill="none"/>
        <path id="Trazado_52318" data-name="Trazado 52318" d="M-727.923-148.123l7.816-7.816v4.9l-5.365,5.365Z" transform="translate(847.107 267.307)" fill="none"/>
        <path id="Trazado_52319" data-name="Trazado 52319" d="M-727.923-264.325l57.172-57.172v4.751l-54.8,54.8Z" transform="translate(797.751 334.153)" fill="none"/>
        <path id="Trazado_52320" data-name="Trazado 52320" d="M-725.088-139.233v5.671l-2.835-2.835Z" transform="translate(852.088 260.562)" fill="none"/>
        <path id="Trazado_52321" data-name="Trazado 52321" d="M-723.958-282.746l59.977-59.977h4.683L-721.617-280.4Z" transform="translate(783.935 342.722)" fill="none"/>
        <path id="Trazado_52322" data-name="Trazado 52322" d="M-727.923-159.591l12.687-12.686v4.683l-10.345,10.345Z" transform="translate(842.236 273.904)" fill="none"/>
        <path id="Trazado_52323" data-name="Trazado 52323" d="M-727.923-280.4l62.318-62.318h1.768l.6.6v2.1l-62.153,62.153Z" transform="translate(790.241 342.722)" fill="#3059c9"/>
        <path id="Trazado_52324" data-name="Trazado 52324" d="M-716.1-285.275l57.447-57.447h5.059l-59.977,59.977Z" transform="translate(773.551 342.722)" fill="#3059c9"/>
        <path id="Trazado_52325" data-name="Trazado 52325" d="M-727.923-270.28l59.7-59.7v5.059l-57.172,57.172Z" transform="translate(795.221 337.578)" fill="#3059c9"/>
        <path id="Trazado_52326" data-name="Trazado 52326" d="M-699.755-290.149l52.573-52.573h5.059l-55.1,55.1Z" transform="translate(752.328 342.722)" fill="#3059c9"/>
        <path id="Trazado_52327" data-name="Trazado 52327" d="M-683.417-295.02l47.7-47.7h5.059l-50.232,50.232Z" transform="translate(731.119 342.722)" fill="#3059c9"/>
        <path id="Trazado_52328" data-name="Trazado 52328" d="M-727.923-235.79l45.052-45.052v5.059l-42.523,42.523Z" transform="translate(809.871 317.738)" fill="#3059c9"/>
        <path id="Trazado_52329" data-name="Trazado 52329" d="M-727.923-247.258-678-297.181v5.059l-47.394,47.394Z" transform="translate(805 324.335)" fill="#3059c9"/>
        <path id="Trazado_52330" data-name="Trazado 52330" d="M-727.923-224.065l40.072-40.072v5.059l-37.543,37.543Z" transform="translate(814.851 310.993)" fill="#3059c9"/>
        <path id="Trazado_52331" data-name="Trazado 52331" d="M-727.923-258.733l54.8-54.8v5.059L-725.393-256.2Z" transform="translate(800.126 330.936)" fill="#3059c9"/>
        <path id="Trazado_52332" data-name="Trazado 52332" d="M-600.128-319.85l22.872-22.872h5.059l-25.4,25.4Z" transform="translate(623 342.722)" fill="#3059c9"/>
        <path id="Trazado_52333" data-name="Trazado 52333" d="M-583.79-324.721l18-18h5.059l-20.531,20.531Z" transform="translate(601.792 342.722)" fill="#3059c9"/>
        <path id="Trazado_52334" data-name="Trazado 52334" d="M-616.833-314.87l27.852-27.852h5.059L-614.3-312.341Z" transform="translate(644.686 342.722)" fill="#3059c9"/>
        <path id="Trazado_52335" data-name="Trazado 52335" d="M-567.441-329.595l13.128-13.128h5.059l-15.657,15.657Z" transform="translate(580.569 342.722)" fill="#3059c9"/>
        <path id="Trazado_52336" data-name="Trazado 52336" d="M-551.1-334.466l8.257-8.257h5.059l-10.786,10.786Z" transform="translate(559.359 342.722)" fill="#3059c9"/>
        <path id="Trazado_52337" data-name="Trazado 52337" d="M-535.4-339.147l3.576-3.576h5.059l-6.105,6.105Z" transform="translate(538.977 342.722)" fill="#3059c9"/>
        <path id="Trazado_52338" data-name="Trazado 52338" d="M-519.064-342.722h2.469l-1.234,1.234Z" transform="translate(519.064 342.722)" fill="#3059c9"/>
        <path id="Trazado_52339" data-name="Trazado 52339" d="M-665.973-300.22l42.5-42.5h5.059l-45.031,45.031Z" transform="translate(708.476 342.722)" fill="#3059c9"/>
        <path id="Trazado_52340" data-name="Trazado 52340" d="M-649.635-305.091-612-342.722h5.059l-40.161,40.161Z" transform="translate(687.267 342.722)" fill="#3059c9"/>
        <path id="Trazado_52341" data-name="Trazado 52341" d="M-633.286-309.965l32.757-32.757h5.059l-35.287,35.287Z" transform="translate(666.044 342.722)" fill="#3059c9"/>
        <path id="Trazado_52342" data-name="Trazado 52342" d="M-727.923-154.078l10.345-10.345v5.059l-7.816,7.816Z" transform="translate(844.578 270.733)" fill="#3059c9"/>
        <path id="Trazado_52343" data-name="Trazado 52343" d="M-727.923-165.546l15.216-15.216v5.059l-12.687,12.686Z" transform="translate(839.707 277.33)" fill="#3059c9"/>
        <path id="Trazado_52344" data-name="Trazado 52344" d="M-727.923-142.353l5.365-5.365v5.059l-2.835,2.835Z" transform="translate(849.558 263.988)" fill="#3059c9"/>
        <path id="Trazado_52345" data-name="Trazado 52345" d="M-727.923-177.02l20.09-20.09v5.059l-17.56,17.56Z" transform="translate(834.833 283.93)" fill="#3059c9"/>
        <path id="Trazado_52346" data-name="Trazado 52346" d="M-727.923-188.488l24.961-24.961v5.059l-22.431,22.431Z" transform="translate(829.962 290.527)" fill="#3059c9"/>
        <path id="Trazado_52347" data-name="Trazado 52347" d="M-727.923-200.731l30.161-30.161v5.059L-725.394-198.2Z" transform="translate(824.762 297.57)" fill="#3059c9"/>
        <path id="Trazado_52348" data-name="Trazado 52348" d="M-727.923-212.2l35.032-35.032v5.059l-32.5,32.5Z" transform="translate(819.891 304.167)" fill="#3059c9"/>
      </g>
    </g>
  </g>
</svg>
