<svg xmlns="http://www.w3.org/2000/svg" width="100" height="101" viewBox="0 0 100 101">
  <g id="Capa_1" data-name="Capa 1" transform="translate(-0.397)">
    <circle id="Elipse_85" data-name="Elipse 85" cx="6.001" cy="6.001" r="6.001" transform="translate(20.795 50.676)" fill="#ff8669"/>
    <circle id="Elipse_86" data-name="Elipse 86" cx="6.001" cy="6.001" r="6.001" transform="translate(68.044 50.676)" fill="#9cb6ff"/>
    <path id="Trazado_53264" data-name="Trazado 53264" d="M85.583,54.071h0L72.7,25.926l3.1-1.551-1.179-2.342-3.1,1.551-.419-.9a1.3,1.3,0,0,0-2.373,0l-.372.806a16.685,16.685,0,0,0-7.087-1.551H50.32V19.273h2.621V16.653h-2.2l.946-3.768A5.4,5.4,0,1,0,41.2,10.264a5.753,5.753,0,0,0,0,2.621l.946,3.768H39.9v2.621h2.667v2.621H31.526a16.685,16.685,0,0,0-7.087,1.551l-.372-.806a1.3,1.3,0,0,0-1.659-.62,1.272,1.272,0,0,0-.636.636l-.419.9L18.252,22l-1.179,2.342,3.1,1.551L7.289,54.071a1.3,1.3,0,0,0-.109.543,9.18,9.18,0,0,0,9.165,9.165H29.432A9.2,9.2,0,0,0,38.6,54.613a1.644,1.644,0,0,0-.14-.543L25.509,25.833a14.359,14.359,0,0,1,6.017-1.318H42.567V72.4L38.1,76.866H33.449a6.544,6.544,0,0,0-6.637,6.575,1.3,1.3,0,0,0,1.3,1.3H64.773a1.3,1.3,0,0,0,1.3-1.3A6.544,6.544,0,0,0,59.531,76.9H54.879L50.32,72.4V24.515H61.314a14.3,14.3,0,0,1,6,1.334l-12.9,28.222a1.318,1.318,0,0,0-.124.543,9.2,9.2,0,0,0,9.165,9.165H76.542a9.18,9.18,0,0,0,9.165-9.165,1.318,1.318,0,0,0-.124-.543Zm-56.15,7.087H16.345A6.544,6.544,0,0,1,10,55.916H35.837a6.544,6.544,0,0,1-6.4,5.241ZM35.247,53.3H10.53L22.547,27.073a1.225,1.225,0,0,0,.667,0ZM44.257,9.876a2.853,2.853,0,0,1,4.032-.341,3.535,3.535,0,0,1,.341.341,2.822,2.822,0,0,1,.512,2.388l-1.1,4.4H44.846l-1.1-4.4a2.822,2.822,0,0,1,.512-2.4Zm.884,12.033V19.273h2.605v2.621Zm2.605,2.605v47.11H45.141V24.515ZM59.531,79.5a3.923,3.923,0,0,1,3.706,2.621H29.649A3.923,3.923,0,0,1,33.356,79.5Zm-8.389-2.621h-9.4l2.621-2.621h4.156ZM69.673,27.073a.853.853,0,0,0,.651,0L82.357,53.326H57.639Zm6.87,34.115H63.454a6.544,6.544,0,0,1-6.4-5.241H82.962a6.544,6.544,0,0,1-6.42,5.21Z" transform="translate(3.954 3.398)"/>
    <rect id="Rectángulo_965" data-name="Rectángulo 965" width="100" height="101" transform="translate(0.397)" fill="none"/>
  </g>
</svg>
