<svg xmlns="http://www.w3.org/2000/svg" width="101" height="101" viewBox="0 0 101 101">
  <g id="Capa_1" data-name="Capa 1" transform="translate(0.206)">
    <circle id="Elipse_89" data-name="Elipse 89" cx="4.621" cy="4.621" r="4.621" transform="translate(65.609 27.726)" fill="#9cb6ff"/>
    <circle id="Elipse_90" data-name="Elipse 90" cx="6.901" cy="6.901" r="6.901" transform="translate(45.249 46.939)" fill="#ff8669"/>
    <path id="Trazado_53275" data-name="Trazado 53275" d="M58.89,33.519A1.594,1.594,0,1,0,55.928,34.7a17.538,17.538,0,1,1-9.878-9.878,1.594,1.594,0,1,0,1.179-2.962A20.422,20.422,0,0,0,39.584,20.4,20.764,20.764,0,1,0,58.89,33.519Z" transform="translate(10.364 11.234)"/>
    <path id="Trazado_53276" data-name="Trazado 53276" d="M72.133,36.182a1.621,1.621,0,0,0-3.1.946A27.152,27.152,0,1,1,50.423,18.52a1.621,1.621,0,0,0,.946-3.1A29.851,29.851,0,0,0,43,14.24,30.347,30.347,0,1,0,72.133,36.182Z" transform="translate(6.952 7.842)"/>
    <path id="Trazado_53277" data-name="Trazado 53277" d="M47.3,36.784a1.557,1.557,0,1,0-3.1.279v.7a7.986,7.986,0,1,1-7.986-7.986h.713a1.6,1.6,0,0,0,.295-3.194H36.21a11.18,11.18,0,1,0,11.18,11.18C47.344,37.435,47.329,37.094,47.3,36.784Z" transform="translate(13.784 14.637)"/>
    <path id="Trazado_53278" data-name="Trazado 53278" d="M69.761,20.4A3.194,3.194,0,0,0,66.8,18.431H61.233V12.848a3.194,3.194,0,0,0-5.458-2.264l-9.3,9.3a4.652,4.652,0,0,0-1.411,3.4v9.04L32.064,45.335A1.6,1.6,0,0,0,34.328,47.6l12.995-13.01h9.056a4.761,4.761,0,0,0,3.381-1.4l9.3-9.3A3.1,3.1,0,0,0,69.761,20.4ZM48.238,23.3a1.551,1.551,0,0,1,.481-1.132l9.3-9.3v6.513l-9.8,9.785V23.3Zm9.3,7.645a1.644,1.644,0,0,1-1.132.465H50.5l9.785-9.785H66.8Z" transform="translate(17.387 5.31)"/>
    <rect id="Rectángulo_967" data-name="Rectángulo 967" width="101" height="101" transform="translate(-0.206)" fill="none"/>
  </g>
</svg>
