<?xml version="1.0" encoding="utf-8"?>
<!-- Generator: Adobe Illustrator 23.0.2, SVG Export Plug-In . SVG Version: 6.00 Build 0)  -->
<svg version="1.0" xmlns="http://www.w3.org/2000/svg" xmlns:xlink="http://www.w3.org/1999/xlink" x="0px" y="0px" width="24px"
	 height="24px" viewBox="0 0 24 24" enable-background="new 0 0 24 24" xml:space="preserve">
<g id="White">
	<g>
		<path fill="#FFFFFF" d="M16.8,13.8C16,13,15,13,14.2,13.8l-1,1l-0.1-0.1c-0.1-0.1-0.2-0.1-0.3-0.2c-1-0.6-1.9-1.4-2.7-2.5
			c-0.4-0.5-0.6-0.9-0.8-1.3c0.2-0.2,0.4-0.4,0.6-0.6l0.3-0.3C11,9,11,7.9,10.2,7.2l-1-1C9.1,6.1,9,6,9,5.9C8.7,5.7,8.5,5.5,8.3,5.3
			c-0.7-0.7-1.8-0.7-2.5,0L4.6,6.5c-0.5,0.5-0.7,1-0.8,1.7c-0.1,1,0.2,2,0.4,2.6c0.6,1.5,1.4,2.9,2.6,4.4c1.5,1.8,3.3,3.2,5.4,4.2
			c0.8,0.4,1.9,0.8,3,0.9c0.1,0,0.2,0,0.2,0c0.8,0,1.5-0.3,2.1-0.9c0.2-0.2,0.3-0.4,0.5-0.5l0.1,0c0.1-0.1,0.3-0.3,0.4-0.4
			c0.4-0.4,0.6-0.8,0.6-1.3c0-0.5-0.2-0.9-0.6-1.3L16.8,13.8z M9.2,9C9.1,9,9.1,9.1,9,9.2C8.7,9.5,8.4,9.7,8.2,10l0,0
			c-0.3,0.3-0.3,0.7-0.2,0.9l0,0c0.2,0.6,0.6,1.2,1.1,1.8c0.9,1.2,1.9,2.1,3,2.8c0.1,0.1,0.3,0.2,0.4,0.2c0.1,0.1,0.2,0.1,0.3,0.2
			l0,0c0.4,0.2,0.7,0.1,1-0.2l1.2-1.2c0.1-0.1,0.2-0.2,0.4-0.2c0.2,0,0.3,0.1,0.4,0.2l1.9,1.9c0.3,0.3,0.3,0.5,0,0.8l-0.1,0l0,0.1
			c-0.1,0.1-0.2,0.2-0.3,0.3l-0.1,0.1c-0.2,0.2-0.4,0.4-0.7,0.7c-0.3,0.3-0.7,0.5-1.1,0.5c0,0-0.1,0-0.1,0c-1-0.1-1.9-0.4-2.6-0.8
			c-1.9-0.9-3.5-2.2-4.9-3.9c-1.1-1.4-1.9-2.6-2.4-4c-0.3-0.8-0.4-1.4-0.4-2c0-0.4,0.2-0.6,0.4-0.9l1.1-1.1C6.8,6.1,6.9,6,7.1,6
			c0.2,0,0.3,0.1,0.4,0.2l0,0c0.2,0.2,0.4,0.4,0.6,0.6l1.2,1.3c0.3,0.3,0.3,0.5,0,0.8L9.2,9z"/>
		<path fill="#FFFFFF" d="M14.9,9.1c0.6,0.6,1,1.4,1.2,2.2c0.1,0.3,0.3,0.5,0.6,0.5c0,0,0.1,0,0.1,0c0.3-0.1,0.6-0.4,0.5-0.7
			c-0.2-1.1-0.7-2.1-1.5-2.9c-0.8-0.8-1.8-1.3-2.9-1.5c-0.3-0.1-0.7,0.2-0.7,0.5c0,0.2,0,0.3,0.1,0.5C12.3,7.9,12.5,8,12.6,8
			C13.5,8.1,14.2,8.5,14.9,9.1z"/>
		<path fill="#FFFFFF" d="M17.7,6.3C16.4,5,14.8,4.1,13,3.8c-0.3-0.1-0.7,0.2-0.7,0.5c-0.1,0.3,0.2,0.7,0.5,0.7
			c1.5,0.3,2.9,1,4.1,2.1c1.1,1.1,1.8,2.5,2.1,4.1c0.1,0.3,0.3,0.5,0.6,0.5c0,0,0.1,0,0.1,0c0.2,0,0.3-0.1,0.4-0.3
			c0.1-0.1,0.1-0.3,0.1-0.5C19.8,9.2,19,7.6,17.7,6.3z"/>
	</g>
</g>
<g id="Black">
</g>
<g id="Color">
</g>
</svg>
