<?xml version="1.0" encoding="utf-8"?>
<!-- Generator: Adobe Illustrator 23.0.2, SVG Export Plug-In . SVG Version: 6.00 Build 0)  -->
<svg version="1.0" xmlns="http://www.w3.org/2000/svg" xmlns:xlink="http://www.w3.org/1999/xlink" x="0px" y="0px" width="24px"
	 height="24px" viewBox="0 0 24 24" enable-background="new 0 0 24 24" xml:space="preserve">
<g id="White">
</g>
<g id="Black">
</g>
<g id="Color">
	<g>
		<path fill="#3490DC" d="M18.1,11.5L6.8,0.2c-0.3-0.3-0.7-0.3-1,0s-0.3,0.7,0,1L16.7,12L5.9,22.8c-0.3,0.3-0.3,0.7,0,1
			C6,23.9,6.2,24,6.3,24c0.2,0,0.3-0.1,0.5-0.2l11.3-11.3C18.4,12.2,18.4,11.8,18.1,11.5z"/>
	</g>
</g>
</svg>
