<?xml version="1.0" encoding="utf-8"?>
<!-- Generator: Adobe Illustrator 23.0.2, SVG Export Plug-In . SVG Version: 6.00 Build 0)  -->
<svg version="1.0" xmlns="http://www.w3.org/2000/svg" xmlns:xlink="http://www.w3.org/1999/xlink" x="0px" y="0px" width="24px"
	 height="24px" viewBox="0 0 24 24" enable-background="new 0 0 24 24" xml:space="preserve">
<g id="White">
</g>
<g id="Black">
</g>
<g id="Color">
	<g>
		<path fill="#E84747" d="M20.8,3.5C18.6,1.2,15.6,0,12.4,0S6.1,1.2,3.9,3.5S0.4,8.8,0.4,12s1.2,6.2,3.5,8.5S9.2,24,12.4,24
			s6.2-1.2,8.5-3.5s3.5-5.3,3.5-8.5S23.1,5.8,20.8,3.5z M19.9,19.5c-2,2-4.7,3.1-7.5,3.1s-5.5-1.1-7.5-3.1c-4.1-4.1-4.1-10.9,0-15
			c2-2,4.7-3.1,7.5-3.1s5.5,1.1,7.5,3.1C24,8.6,24,15.4,19.9,19.5z"/>
		<path fill="#E84747" d="M18,7c-0.3-0.3-0.7-0.3-1,0l-4.3,4.3L8.4,7c-0.3-0.3-0.7-0.3-1,0c-0.3,0.3-0.3,0.7,0,1l4.3,4.3l-4.3,4.3
			c-0.3,0.3-0.3,0.7,0,1c0.1,0.1,0.3,0.2,0.5,0.2c0.2,0,0.3-0.1,0.5-0.2l4.3-4.3l4.3,4.3c0.1,0.1,0.3,0.2,0.5,0.2
			c0.2,0,0.3-0.1,0.5-0.2c0.3-0.3,0.3-0.7,0-1l-4.3-4.3L18,8C18.2,7.7,18.2,7.3,18,7z"/>
	</g>
</g>
</svg>
