<?xml version="1.0" encoding="utf-8"?>
<!-- Generator: Adobe Illustrator 23.0.2, SVG Export Plug-In . SVG Version: 6.00 Build 0)  -->
<svg version="1.0" xmlns="http://www.w3.org/2000/svg" xmlns:xlink="http://www.w3.org/1999/xlink" x="0px" y="0px" width="24px"
	 height="24px" viewBox="0 0 24 24" enable-background="new 0 0 24 24" xml:space="preserve">
<g id="White">
	<g>
		<g>
			<path fill="#FFFFFF" d="M12.1,22.6H5.9c-1.7,0-3.1-1.4-3.1-3.1V4.5c0-1.7,1.4-3.1,3.1-3.1h6.4c0.4,0,0.7-0.3,0.7-0.7
				S12.6,0,12.2,0H5.9C3.4,0,1.4,2,1.4,4.5v15.1c0,2.5,2,4.5,4.5,4.5h6.3c0.4,0,0.7-0.3,0.7-0.7C12.8,22.9,12.5,22.6,12.1,22.6z"/>
			<path fill="#FFFFFF" d="M23.4,11.5l-4.4-4.4c-0.3-0.3-0.7-0.3-1,0c-0.3,0.3-0.3,0.7,0,1l3.2,3.2h-14c-0.4,0-0.7,0.3-0.7,0.7
				c0,0.4,0.3,0.7,0.7,0.7h14l-3.2,3.2c-0.3,0.3-0.3,0.7,0,1c0.1,0.1,0.3,0.2,0.5,0.2c0.2,0,0.4-0.1,0.5-0.2l4.4-4.4
				C23.7,12.2,23.7,11.8,23.4,11.5z"/>
		</g>
	</g>
</g>
<g id="Black">
</g>
<g id="Color">
</g>
</svg>
