<?xml version="1.0" encoding="utf-8"?>
<!-- Generator: Adobe Illustrator 23.0.2, SVG Export Plug-In . SVG Version: 6.00 Build 0)  -->
<svg version="1.0" xmlns="http://www.w3.org/2000/svg" xmlns:xlink="http://www.w3.org/1999/xlink" x="0px" y="0px" width="24px"
	 height="24px" viewBox="0 0 24 24" enable-background="new 0 0 24 24" xml:space="preserve">
<g id="White">
	<g>
		<g>
			<path fill="#FFFFFF" d="M12.7,10.4c-0.3,0.3-0.3,0.7,0,0.9c1.1,1.1,1.1,2.9,0,3.9L7,21c-1.1,1.1-2.9,1.1-3.9,0l-0.9-0.9
				c-1.1-1.1-1.1-2.9,0-3.9l5.7-5.7c0.3-0.3,0.3-0.7,0-0.9c-0.3-0.3-0.7-0.3-0.9,0l-5.7,5.7C0.4,16,0,17.1,0,18.2
				c0,1.1,0.4,2.1,1.2,2.9L2.1,22c0.8,0.8,1.9,1.2,2.9,1.2s2.1-0.4,2.9-1.2l5.7-5.7c1.6-1.6,1.6-4.2,0-5.8
				C13.4,10.1,12.9,10.1,12.7,10.4z"/>
			<path fill="#FFFFFF" d="M22.8,2.9L21.9,2c-1.6-1.6-4.2-1.6-5.8,0l-5.7,5.7c-1.6,1.6-1.6,4.2,0,5.8c0.3,0.3,0.7,0.3,0.9,0
				c0.3-0.3,0.3-0.7,0-0.9c-1.1-1.1-1.1-2.9,0-3.9L17,3c1.1-1.1,2.9-1.1,3.9,0l0.9,0.9c1.1,1.1,1.1,2.9,0,3.9l-5.7,5.7
				c-0.3,0.3-0.3,0.7,0,0.9c0.1,0.1,0.3,0.2,0.5,0.2s0.3-0.1,0.5-0.2l5.7-5.7C23.6,8,24,6.9,24,5.8S23.6,3.7,22.8,2.9z"/>
		</g>
	</g>
</g>
<g id="Black">
</g>
<g id="Color">
</g>
</svg>
