<?xml version="1.0" encoding="utf-8"?>
<!-- Generator: Adobe Illustrator 23.0.2, SVG Export Plug-In . SVG Version: 6.00 Build 0)  -->
<svg version="1.0" xmlns="http://www.w3.org/2000/svg" xmlns:xlink="http://www.w3.org/1999/xlink" x="0px" y="0px" width="24px"
	 height="24px" viewBox="0 0 24 24" enable-background="new 0 0 24 24" xml:space="preserve">
<g id="White">
</g>
<g id="Black">
	<g>
		<path fill="#3D4852" d="M12.3,3.8c-3.6,0-6.6,3-6.6,6.6c0,0.4,0,0.8,0.1,1.2c0,0,0,0.1,0,0.2c0.1,0.5,0.3,0.9,0.4,1.3
			c0.7,1.6,2.2,4.2,5.6,6.9c0.1,0.1,0.3,0.1,0.4,0.1s0.3,0,0.4-0.1c3.4-2.7,4.9-5.2,5.6-6.9c0.2-0.4,0.3-0.9,0.4-1.3
			c0-0.1,0-0.2,0-0.2c0.1-0.4,0.1-0.8,0.1-1.2C18.9,6.8,15.9,3.8,12.3,3.8z M17.6,10.4c0,0.3,0,0.7-0.1,1l0,0l0,0.2
			c-0.1,0.4-0.2,0.7-0.3,1l0,0c-0.6,1.4-1.9,3.6-4.8,6.1c-2.9-2.4-4.2-4.6-4.8-6.1l0,0l0,0c-0.1-0.3-0.3-0.7-0.3-1l0,0
			c0-0.1,0-0.1,0-0.1l0-0.1C7,11.1,7,10.8,7,10.4c0-2.9,2.4-5.3,5.3-5.3S17.6,7.5,17.6,10.4z"/>
		<path fill="#3D4852" d="M12.3,6.9c-2,0-3.6,1.6-3.6,3.6c0,2,1.6,3.6,3.6,3.6s3.6-1.6,3.6-3.6C15.9,8.5,14.3,6.9,12.3,6.9z
			 M12.3,12.8c-1.3,0-2.3-1-2.3-2.3c0-1.3,1-2.3,2.3-2.3s2.3,1,2.3,2.3C14.6,11.8,13.6,12.8,12.3,12.8z"/>
	</g>
</g>
<g id="Color">
</g>
</svg>
