<svg xmlns="http://www.w3.org/2000/svg" width="226.355" height="73.787" viewBox="0 0 226.355 73.787">
  <g id="Grupo_7084" data-name="Grupo 7084" transform="translate(-867.263 622.973)">
    <line id="Línea_107" data-name="Línea 107" x2="183.046" transform="translate(910.46 -562.602)" fill="#060506" stroke="#060506" stroke-miterlimit="3.864" stroke-width="0.252"/>
    <path id="Trazado_51951" data-name="Trazado 51951" d="M948.757-617.177h-5.945v-1.956c0-1.793.111-2.275,1.6-2.405v-.19c-.69.034-1.4.065-2.1.065-.862,0-1.746-.031-2.613-.065v.19c1.558.13,1.67.612,1.67,2.405v5.354c0,1.795-.112,2.274-1.636,2.4v.2c.768-.034,1.539-.065,2.323-.065.819,0,1.621.031,2.439.065v-.2c-1.574-.128-1.685-.607-1.685-2.4v-2.884h5.945v2.884c0,1.795-.11,2.274-1.634,2.4v.2c.771-.034,1.54-.065,2.324-.065.818,0,1.618.031,2.438.065v-.2c-1.573-.128-1.685-.607-1.685-2.4v-5.354c0-1.793.112-2.275,1.6-2.405v-.19c-.688.034-1.394.065-2.1.065-.868,0-1.751-.031-2.613-.065v.19c1.555.13,1.665.612,1.665,2.405v1.956" fill="#060506"/>
    <path id="Trazado_51952" data-name="Trazado 51952" d="M956.244-616.458c0-2.613,1.568-4.952,4.231-4.952s4.231,2.339,4.231,4.952-1.571,4.953-4.231,4.953-4.231-2.34-4.231-4.953m-1.7,0c0,3.447,2.676,5.531,5.93,5.531s5.929-2.084,5.929-5.531-2.678-5.525-5.929-5.525-5.93,2.081-5.93,5.525" fill="#060506"/>
    <path id="Trazado_51953" data-name="Trazado 51953" d="M976.567-618.685a22.813,22.813,0,0,1-.127-2.772,8.67,8.67,0,0,1-1.876-.271,8.719,8.719,0,0,0-1.988-.255,2.805,2.805,0,0,0-2.978,2.754c0,3.332,6.232,2.823,6.232,5.882,0,1.394-1.123,1.907-2.371,1.907-1.925,0-3.3-1.988-4.087-3.462l-.209.112c.274,1.185.545,2.357.738,3.574a2.053,2.053,0,0,1,.672-.177c.5,0,1.857.466,2.918.466,1.956,0,3.59-.93,3.59-3.014,0-3.892-6.235-3.236-6.235-5.995,0-1.151.865-1.537,2.084-1.537,1.634,0,2.851,1.412,3.413,2.788h.224" fill="#060506"/>
    <path id="Trazado_51954" data-name="Trazado 51954" d="M983.013-621.137a3.882,3.882,0,0,1,1.443-.239,2.554,2.554,0,0,1,2.66,2.74,2.27,2.27,0,0,1-2.483,2.228,3.4,3.4,0,0,1-1.62-.354v-4.375m1.667,9.76c-1.555-.126-1.667-.607-1.667-2.4v-2.4A5.7,5.7,0,0,0,985-615.9c1.65,0,3.718-.722,3.718-2.772,0-1.972-2.068-3.157-3.671-3.157-1.008,0-2.019.161-3.027.161-.706,0-1.412-.034-2.115-.065v.19c1.552.128,1.667.612,1.667,2.405v5.351c0,1.8-.115,2.279-1.7,2.4v.192c.832-.031,1.6-.062,2.387-.062.818,0,1.618.031,2.42.062Z" fill="#060506"/>
    <path id="Trazado_51955" data-name="Trazado 51955" d="M991.435-611.185c.772-.031,1.542-.062,2.324-.062.818,0,1.623.031,2.439.062v-.192c-1.574-.128-1.683-.607-1.683-2.4v-5.354c0-1.793.109-2.275,1.6-2.405v-.19c-.694.031-1.4.065-2.1.065-.867,0-1.748-.034-2.616-.065v.19c1.561.13,1.67.612,1.67,2.405v5.354c0,1.795-.109,2.274-1.636,2.4v.192" fill="#060506"/>
    <path id="Trazado_51956" data-name="Trazado 51956" d="M1001.012-611.185c.769-.031,1.54-.062,2.324-.062.815,0,1.618.031,2.438.062v-.192c-1.57-.128-1.685-.607-1.685-2.4v-7.436c2.28,0,3,.159,3.8,2.691l.206-.065-.221-3.139c-.852.031-1.681.065-2.533.065h-3.767c-.88,0-1.777-.034-2.657-.065l-.229,3.139.211.065c.8-2.532,1.524-2.691,3.749-2.691v7.436c0,1.795-.11,2.274-1.634,2.4v.192" fill="#060506"/>
    <path id="Trazado_51957" data-name="Trazado 51957" d="M1015.359-616.361h-3.012l1.572-4.069,1.44,4.069m.175.482,1.044,2.949a1.669,1.669,0,0,1,.144.5c0,.592-.691.946-1.587,1.056v.2c.737-.034,1.154-.065,2.324-.065.862,0,1.7.031,2.548.065v-.2a1.951,1.951,0,0,1-1.811-1.441l-3.332-9.168a6.223,6.223,0,0,1-1.4.482,1.524,1.524,0,0,1,.193.529,1.112,1.112,0,0,1-.126.386l-2.774,6.81c-.448,1.089-.771,2.115-2.1,2.4v.2c.685-.034,1.261-.065,1.907-.065s1.3.031,1.935.065v-.2c-.479-.079-1.505-.4-1.505-1.17a1.149,1.149,0,0,1,.13-.433l1.055-2.9Z" fill="#060506"/>
    <path id="Trazado_51958" data-name="Trazado 51958" d="M1027.077-621.728c-.9.031-1.81.065-2.707.065-.833,0-1.651-.034-2.485-.065v.19c1.524.13,1.618.612,1.618,2.405v6.349c0,.831-.224,1.279-1.618,1.407v.192c.532-.031,1.073-.062,1.6-.062h4.708c.771,0,1.558.031,2.324.062l1.237-3.59h-.245c-1.261,2.1-2.386,3.111-4.9,3.111a9.021,9.021,0,0,1-1.668-.208v-7.694c0-1.3.081-1.683,2.131-1.972v-.19" fill="#060506"/>
    <path id="Trazado_51959" data-name="Trazado 51959" d="M1041.909-617.706c0-1.125.016-2.243.1-3.35a5.27,5.27,0,0,1,2.131-.448,4.885,4.885,0,0,1,5.015,4.968c0,3.205-1.44,4.937-4.725,4.937a3.66,3.66,0,0,1-2.517-.867v-5.24m-3.03,6.521c.722-.031,1.425-.062,2.149-.062.915,0,1.827.031,4.1.031,2.98,0,5.758-1.412,5.758-4.952,0-3.51-2.84-5.721-6.284-5.721-1.365,0-2.551.226-4.059.226-.56,0-1.1-.034-1.665-.065v.19c1.475.13,1.589.612,1.589,1.54v7.4c0,.513-.177,1.089-1.589,1.217Z" fill="#060506"/>
    <path id="Trazado_51960" data-name="Trazado 51960" d="M1056.621-616.825h1.026c1.714,0,2.389.32,2.756,2.134h.193c0-.771-.034-1.54-.034-2.311,0-.753.034-1.522.034-2.29h-.193c-.19,1.553-1.086,2.053-2.547,2.053-.417,0-.819.031-1.235.031v-4.009c.752-.06,1.49-.094,2.245-.094,1.616,0,2.965.417,3.507,2.483l.211-.066c-.034-.573-.1-1.039-.1-1.505,0-.417,0-.834.033-1.329-1.526.031-3.032.063-4.52.063-1.956,0-3.032-.032-4.47-.063v.193c1.552.125,1.649.607,1.649,2.4v5.351c0,1.8-.1,2.277-1.621,2.4v.192c.628-.028,1.238-.062,1.861-.062h6.026c.367,0,.755.034,1.12.062l1.461-3.222-.177-.141c-1.537,2.05-2.866,2.884-5.447,2.884a10.115,10.115,0,0,1-1.782-.208v-4.953" fill="#060506"/>
    <path id="Trazado_51961" data-name="Trazado 51961" d="M1076.277-621.728c-.9.031-1.811.065-2.707.065-.833,0-1.651-.034-2.485-.065v.19c1.524.13,1.618.612,1.618,2.405v6.349c0,.831-.224,1.279-1.618,1.407v.192c.531-.031,1.073-.062,1.6-.062h4.707c.771,0,1.558.031,2.324.062l1.235-3.59h-.24c-1.263,2.1-2.389,3.111-4.9,3.111a9.086,9.086,0,0,1-1.667-.208v-7.694c0-1.3.081-1.683,2.131-1.972v-.19" fill="#060506"/>
    <path id="Trazado_51962" data-name="Trazado 51962" d="M1088.855-616.361h-3.012l1.571-4.069,1.441,4.069m.177.482,1.04,2.949a1.538,1.538,0,0,1,.148.5c0,.592-.69.946-1.586,1.056v.2c.734-.034,1.151-.065,2.323-.065.863,0,1.7.031,2.548.065v-.2a1.948,1.948,0,0,1-1.81-1.441l-3.337-9.168a6.171,6.171,0,0,1-1.394.482,1.475,1.475,0,0,1,.2.529,1.052,1.052,0,0,1-.13.386l-2.772,6.81c-.451,1.089-.771,2.115-2.1,2.4v.2c.69-.034,1.266-.065,1.907-.065.657,0,1.3.031,1.941.065v-.2c-.485-.079-1.509-.4-1.509-1.17a1.152,1.152,0,0,1,.131-.433l1.057-2.9Z" fill="#060506"/>
    <line id="Línea_108" data-name="Línea 108" x2="22.78" transform="translate(868.427 -562.602)" fill="#060506" stroke="#060506" stroke-miterlimit="3.864" stroke-width="0.252"/>
    <path id="Trazado_51963" data-name="Trazado 51963" d="M869.141-551.077a2.02,2.02,0,0,0,2.274,1.891c1.3,0,2.361-.64,2.361-2.018v-2.6c0-.974.312-1.06.807-1.131v-.1c-.294.018-.588.034-.886.034-.354,0-.708-.016-1.065-.034v.1c.693.089.831.391.831,1.321v2.431a1.608,1.608,0,0,1-1.839,1.563c-.928,0-1.7-.417-1.7-1.493v-2.832c0-.7.2-.93.941-.99v-.1c-.35.018-.689.034-1.035.034-.477,0-.953-.016-1.433-.034v.1c.488.094.748.131.748.774v3.082" fill="#060506"/>
    <path id="Trazado_51964" data-name="Trazado 51964" d="M876.185-554.933a3.141,3.141,0,0,1,1.285.576l-.1,3.984c-.019.8-.381.841-1.181.945v.1c.329-.019.66-.037.988-.037.573,0,1.149.018,1.719.037v-.1c-1.076-.112-1.162-.3-1.162-2.352V-553.3c0-.294.008-.589.016-.883a35.891,35.891,0,0,1,3.97,4.932h.318v-4.6c0-.7.23-.971.956-1.076v-.1c-.372.016-.755.034-1.128.034-.409,0-.815-.018-1.222-.034v.1c.928.079,1.084.774,1.084,2.256v1.011c0,.344-.008.683-.008,1.032h-.02c-.7-.967-3.088-3.785-3.549-4.4-.252.016-.495.034-.745.034-.49,0-.81-.018-1.217-.034v.1" fill="#060506"/>
    <path id="Trazado_51965" data-name="Trazado 51965" d="M884.637-549.323c.417-.016.833-.037,1.258-.037.443,0,.878.021,1.321.037v-.1c-.855-.068-.912-.328-.912-1.3v-2.9c0-.972.057-1.232.868-1.3v-.1c-.373.016-.756.034-1.139.034-.469,0-.945-.018-1.414-.034v.1c.841.071.9.331.9,1.3v2.9c0,.974-.062,1.234-.885,1.3v.1" fill="#060506"/>
    <path id="Trazado_51966" data-name="Trazado 51966" d="M888.566-554.933c.539.045.815.409,1.026.9l2.021,4.755h.191l1.808-4.051c.276-.636.518-1.522,1.336-1.608v-.1c-.312.016-.625.034-.945.034-.381,0-.774-.018-1.165-.034v.1c.349.045.711.139.711.521a4.809,4.809,0,0,1-.432,1.433l-1.128,2.666-1.365-3.3a2.992,2.992,0,0,1-.251-.781c0-.435.477-.495.8-.54v-.1c-.459.016-.938.034-1.4.034-.4,0-.8-.018-1.2-.034v.1" fill="#060506"/>
    <path id="Trazado_51967" data-name="Trazado 51967" d="M897.884-552.38h.56c.928,0,1.293.175,1.491,1.152h.1c0-.414-.016-.831-.016-1.248s.016-.826.016-1.24h-.1c-.1.842-.589,1.11-1.381,1.11-.227,0-.44.018-.67.018v-2.173c.409-.031.81-.052,1.22-.052a1.677,1.677,0,0,1,1.9,1.347l.112-.034c-.016-.31-.05-.562-.05-.815,0-.227,0-.451.016-.722-.826.018-1.639.034-2.449.034-1.058,0-1.641-.016-2.42-.034v.1c.839.071.893.331.893,1.3v2.9c0,.974-.054,1.234-.878,1.3v.1c.339-.016.67-.034,1.009-.034H900.5c.2,0,.409.018.61.034l.789-1.743-.093-.078a3.221,3.221,0,0,1-2.952,1.566,5.351,5.351,0,0,1-.967-.118v-2.681" fill="#060506"/>
    <path id="Trazado_51968" data-name="Trazado 51968" d="M904.937-552.971c0-.649.015-1.209.034-1.761a2.832,2.832,0,0,1,.836-.1,1.3,1.3,0,0,1,1.362,1.266c0,.94-.528,1.331-1.425,1.331a2.555,2.555,0,0,1-.807-.149v-.591m4.4,3.509c-1.11-.119-2.163-1.711-2.65-2.535a1.462,1.462,0,0,0,1.347-1.4c0-1.19-1.175-1.693-2.181-1.693-.443,0-1.154.086-1.474.086-.373,0-.738-.016-1.113-.034v.1c.826.071.886.331.886,1.3v2.9c0,.974-.06,1.234-.886,1.3v.1c.417-.016.837-.034,1.259-.034.443,0,.878.018,1.321.034v-.1c-.85-.068-.912-.328-.912-1.3v-1.355a4.442,4.442,0,0,0,1,.167,11.642,11.642,0,0,0,1.842,2.558h1.564Z" fill="#060506"/>
    <path id="Trazado_51969" data-name="Trazado 51969" d="M914.683-553.388a12.506,12.506,0,0,1-.068-1.5,4.659,4.659,0,0,1-1.016-.146,4.911,4.911,0,0,0-1.078-.138,1.523,1.523,0,0,0-1.616,1.493c0,1.808,3.379,1.529,3.379,3.186,0,.756-.607,1.034-1.284,1.034-1.042,0-1.79-1.076-2.215-1.875l-.112.059c.146.644.3,1.28.4,1.939a1.078,1.078,0,0,1,.365-.1c.268,0,1.005.252,1.581.252,1.058,0,1.944-.5,1.944-1.63,0-2.113-3.379-1.754-3.379-3.246,0-.626.471-.837,1.13-.837a2.187,2.187,0,0,1,1.85,1.511h.12" fill="#060506"/>
    <path id="Trazado_51970" data-name="Trazado 51970" d="M916.944-549.323c.417-.016.836-.037,1.258-.037.443,0,.878.021,1.321.037v-.1c-.852-.068-.911-.328-.911-1.3v-2.9c0-.972.059-1.232.867-1.3v-.1c-.373.016-.753.034-1.136.034-.469,0-.948-.018-1.417-.034v.1c.844.071.9.331.9,1.3v2.9c0,.974-.06,1.234-.886,1.3v.1" fill="#060506"/>
    <path id="Trazado_51971" data-name="Trazado 51971" d="M922.517-549.323c.414-.016.833-.037,1.258-.037.443,0,.878.021,1.321.037v-.1c-.852-.068-.914-.328-.914-1.3v-4.031c1.234,0,1.625.086,2.06,1.462l.112-.037-.12-1.7c-.461.016-.911.034-1.373.034h-2.039c-.48,0-.967-.018-1.444-.034l-.119,1.7.114.037c.432-1.376.823-1.462,2.03-1.462v4.031c0,.974-.06,1.234-.886,1.3v.1" fill="#060506"/>
    <path id="Trazado_51972" data-name="Trazado 51972" d="M930.674-552.127h-1.631l.847-2.206.784,2.206m.093.261.566,1.594a.89.89,0,0,1,.078.271c0,.321-.372.511-.86.573v.1c.4-.016.625-.034,1.258-.034.472,0,.923.018,1.381.034v-.1a1.054,1.054,0,0,1-.979-.781l-1.806-4.966a3.552,3.552,0,0,1-.755.261.83.83,0,0,1,.1.284.562.562,0,0,1-.07.208l-1.5,3.692c-.243.588-.415,1.146-1.136,1.3v.1c.375-.016.685-.034,1.034-.034s.7.018,1.05.034v-.1c-.261-.044-.818-.219-.818-.633a.606.606,0,0,1,.07-.234l.573-1.571Z" fill="#060506"/>
    <path id="Trazado_51973" data-name="Trazado 51973" d="M935.152-549.323c.414-.016.831-.037,1.258-.037.443,0,.876.021,1.319.037v-.1c-.85-.068-.912-.328-.912-1.3v-4.031c1.235,0,1.623.086,2.058,1.462l.112-.037-.12-1.7c-.461.016-.912.034-1.373.034h-2.04c-.477,0-.964-.018-1.44-.034l-.12,1.7.112.037c.435-1.376.823-1.462,2.032-1.462v4.031c0,.974-.063,1.234-.886,1.3v.1" fill="#060506"/>
    <path id="Trazado_51974" data-name="Trazado 51974" d="M947-552.127h-1.631l.85-2.206.781,2.206m.1.261.562,1.594a.813.813,0,0,1,.078.271c0,.321-.372.511-.859.573v.1c.4-.016.625-.034,1.261-.034.469,0,.919.018,1.378.034v-.1a1.054,1.054,0,0,1-.98-.781l-1.8-4.966a3.532,3.532,0,0,1-.755.261.83.83,0,0,1,.1.284.565.565,0,0,1-.071.208l-1.5,3.692c-.242.588-.414,1.146-1.138,1.3v.1c.377-.016.687-.034,1.036-.034s.7.018,1.05.034v-.1c-.26-.044-.818-.219-.818-.633a.592.592,0,0,1,.071-.234l.573-1.571Z" fill="#060506"/>
    <path id="Trazado_51975" data-name="Trazado 51975" d="M951.711-551.077a2.02,2.02,0,0,0,2.274,1.891c1.3,0,2.366-.64,2.366-2.018v-2.6c0-.974.307-1.06.8-1.131v-.1c-.3.018-.592.034-.886.034-.357,0-.711-.016-1.068-.034v.1c.695.089.831.391.831,1.321v2.431a1.608,1.608,0,0,1-1.837,1.563c-.93,0-1.7-.417-1.7-1.493v-2.832c0-.7.19-.93.935-.99v-.1c-.349.018-.687.034-1.031.034-.48,0-.956-.016-1.433-.034v.1c.484.094.745.131.745.774v3.082" fill="#060506"/>
    <path id="Trazado_51976" data-name="Trazado 51976" d="M960.144-549.323c.417-.016.834-.037,1.258-.037.443,0,.876.021,1.321.037v-.1c-.852-.068-.912-.328-.912-1.3v-4.031c1.232,0,1.623.086,2.058,1.462l.112-.037-.119-1.7c-.464.016-.915.034-1.376.034h-2.04c-.477,0-.961-.018-1.44-.034l-.12,1.7.112.037c.435-1.376.826-1.462,2.032-1.462v4.031c0,.974-.06,1.234-.886,1.3v.1" fill="#060506"/>
    <path id="Trazado_51977" data-name="Trazado 51977" d="M969.609-555.365,968.6-556.5c-.19-.216-.32-.364-.484-.364-.227,0-.36.1-.36.276a.56.56,0,0,0,.253.385l1.217.834h.383m-2.944,3.184a2.437,2.437,0,0,1,2.292-2.681,2.435,2.435,0,0,1,2.29,2.681,2.436,2.436,0,0,1-2.29,2.683,2.438,2.438,0,0,1-2.292-2.683m-.92,0a2.985,2.985,0,0,0,3.212,3,2.986,2.986,0,0,0,3.213-3,2.985,2.985,0,0,0-3.213-2.994,2.984,2.984,0,0,0-3.212,2.994" fill="#060506"/>
    <path id="Trazado_51978" data-name="Trazado 51978" d="M973.813-554.933a3.142,3.142,0,0,1,1.285.576l-.1,3.984c-.018.8-.385.841-1.183.945v.1c.329-.019.66-.037.988-.037.576,0,1.149.018,1.719.037v-.1c-1.073-.112-1.159-.3-1.159-2.352V-553.3c0-.294.008-.589.016-.883a36.129,36.129,0,0,1,3.967,4.932h.321v-4.6c0-.7.227-.971.953-1.076v-.1c-.372.016-.752.034-1.125.034-.412,0-.818-.018-1.224-.034v.1c.927.079,1.083.774,1.083,2.256v1.011c0,.344-.008.683-.008,1.032h-.018c-.7-.967-3.092-3.785-3.551-4.4-.252.016-.492.034-.745.034-.49,0-.81-.018-1.217-.034v.1" fill="#060506"/>
    <path id="Trazado_51979" data-name="Trazado 51979" d="M983.187-552.181a2.436,2.436,0,0,1,2.29-2.681,2.437,2.437,0,0,1,2.293,2.681,2.438,2.438,0,0,1-2.293,2.683,2.436,2.436,0,0,1-2.29-2.683m-.922,0a2.984,2.984,0,0,0,3.212,3,2.986,2.986,0,0,0,3.212-3,2.985,2.985,0,0,0-3.212-2.994,2.983,2.983,0,0,0-3.212,2.994" fill="#060506"/>
    <path id="Trazado_51980" data-name="Trazado 51980" d="M995.481-554.933a1.117,1.117,0,0,1,.495.3,31.392,31.392,0,0,1-1.571,3.739l-1.224-3a1.53,1.53,0,0,1-.157-.576c0-.287.227-.407.446-.459v-.1c-.357.016-.716.034-1.068.034-.5,0-.99-.018-1.488-.034v.1a2.1,2.1,0,0,1,.938.381l-.417,3.1c-.062.432-.112.9-.18,1.3a1.09,1.09,0,0,1-1.062.729v.1c.359-.019.714-.037,1.07-.037.477,0,.949.018,1.423.037v-.1c-.834-.034-1.006-.372-1.006-1.138,0-.6.2-2.605.388-3.88h.016a36.746,36.746,0,0,1,2.069,5.086h.015c.54-1.743,1.347-3.34,2-5h.016l.6,3.5a4.357,4.357,0,0,1,.06.678c0,.591-.407.68-.9.755v.1c.433-.019.858-.037,1.292-.037.464,0,.923.018,1.381.037v-.1c-.766-.1-.867-.346-.971-.8a31.019,31.019,0,0,1-.641-3.931c0-.557.343-.7.828-.774v-.1c-.362.016-.735.034-1.1.034-.419,0-.836-.018-1.253-.034v.1" fill="#060506"/>
    <path id="Trazado_51981" data-name="Trazado 51981" d="M1003.286-552.127h-1.636l.852-2.206.784,2.206m.092.261.565,1.594a.983.983,0,0,1,.078.271c0,.321-.373.511-.862.573v.1c.4-.016.628-.034,1.258-.034.472,0,.922.018,1.386.034v-.1a1.054,1.054,0,0,1-.982-.781l-1.806-4.966a3.476,3.476,0,0,1-.757.261.8.8,0,0,1,.106.284.555.555,0,0,1-.068.208l-1.5,3.692c-.245.588-.417,1.146-1.141,1.3v.1c.373-.016.691-.034,1.034-.034.36,0,.7.018,1.05.034v-.1c-.257-.044-.818-.219-.818-.633a.671.671,0,0,1,.073-.234l.571-1.571Z" fill="#060506"/>
    <path id="Trazado_51982" data-name="Trazado 51982" d="M1011.91-552.856c0-.61.008-1.217.049-1.819a2.905,2.905,0,0,1,1.154-.239,2.645,2.645,0,0,1,2.717,2.691c0,1.735-.778,2.673-2.558,2.673a1.961,1.961,0,0,1-1.362-.469v-2.837m-1.644,3.533c.393-.016.776-.037,1.164-.037.495,0,.988.021,2.223.021,1.618,0,3.115-.766,3.115-2.684a3.151,3.151,0,0,0-3.4-3.1c-.737,0-1.381.12-2.2.12-.3,0-.6-.018-.9-.034v.1c.8.071.86.331.86.834v4.012c0,.276-.1.591-.86.659Z" fill="#060506"/>
    <path id="Trazado_51983" data-name="Trazado 51983" d="M1020.265-552.38h.555c.93,0,1.292.175,1.49,1.152h.107c0-.414-.019-.831-.019-1.248s.019-.826.019-1.24h-.107c-.1.842-.589,1.11-1.381,1.11-.224,0-.438.018-.664.018v-2.173c.406-.031.807-.052,1.216-.052a1.679,1.679,0,0,1,1.9,1.347l.113-.034c-.016-.31-.055-.562-.055-.815,0-.227,0-.451.021-.722-.829.018-1.642.034-2.449.034-1.058,0-1.644-.016-2.423-.034v.1c.844.071.894.331.894,1.3v2.9c0,.974-.05,1.234-.876,1.3v.1c.336-.016.67-.034,1.006-.034h3.264c.2,0,.409.018.61.034l.787-1.743-.092-.078a3.222,3.222,0,0,1-2.951,1.566,5.153,5.153,0,0,1-.964-.118v-2.681" fill="#060506"/>
    <path id="Trazado_51984" data-name="Trazado 51984" d="M1030.344-554.706a2.593,2.593,0,0,1,.808-.107,1.361,1.361,0,0,1,1.459,1.287,1.171,1.171,0,0,1-1.292,1.2,1.989,1.989,0,0,1-.975-.209v-2.17m0,2.446a3.121,3.121,0,0,0,1.061.159,5.349,5.349,0,0,0,.839-.1,1.612,1.612,0,0,1,.776,1.222,1.34,1.34,0,0,1-1.495,1.443c-.451,0-1.092-.13-1.181-.294Zm-.784,1.53c0,.974-.057,1.234-.865,1.3v.1c.269-.019.537-.037.808-.037.779,0,1.571.089,2.352.089,1.016,0,2.03-.31,2.03-1.381a1.609,1.609,0,0,0-1.266-1.631v-.021a1.238,1.238,0,0,0,.859-1.141c0-1.261-1.336-1.623-2.3-1.623-.529,0-.98.065-1.441.065-.356,0-.706-.016-1.06-.034v.1c.826.071.883.331.883,1.3Z" fill="#060506"/>
    <path id="Trazado_51985" data-name="Trazado 51985" d="M1039.012-552.127h-1.636l.857-2.206.779,2.206m.091.261.568,1.594a.888.888,0,0,1,.076.271c0,.321-.373.511-.858.573v.1c.4-.016.623-.034,1.259-.034.466,0,.917.018,1.381.034v-.1a1.054,1.054,0,0,1-.98-.781l-1.808-4.966a3.553,3.553,0,0,1-.753.261.864.864,0,0,1,.1.284.554.554,0,0,1-.068.208l-1.5,3.692c-.245.588-.417,1.146-1.139,1.3v.1c.375-.016.688-.034,1.032-.034.36,0,.7.018,1.052.034v-.1c-.26-.044-.815-.219-.815-.633a.606.606,0,0,1,.07-.234l.574-1.571Z" fill="#060506"/>
    <path id="Trazado_51986" data-name="Trazado 51986" d="M1044.61-552.971c0-.649.019-1.209.034-1.761a2.868,2.868,0,0,1,.839-.1,1.3,1.3,0,0,1,1.36,1.266c0,.94-.531,1.331-1.422,1.331a2.57,2.57,0,0,1-.811-.149v-.591m4.406,3.509c-1.113-.119-2.165-1.711-2.65-2.535a1.466,1.466,0,0,0,1.35-1.4c0-1.19-1.175-1.693-2.183-1.693-.441,0-1.154.086-1.477.086-.37,0-.738-.016-1.108-.034v.1c.826.071.883.331.883,1.3v2.9c0,.974-.057,1.234-.883,1.3v.1c.412-.016.834-.034,1.259-.034s.875.018,1.318.034v-.1c-.849-.068-.915-.328-.915-1.3v-1.355a4.536,4.536,0,0,0,1,.167,11.751,11.751,0,0,0,1.845,2.558h1.563Z" fill="#060506"/>
    <path id="Trazado_51987" data-name="Trazado 51987" d="M1055.513-553.057c-.06-.5-.156-1.381-.156-1.857-.628-.019-1.243-.261-2.1-.261a2.88,2.88,0,0,0-2.863,3,2.879,2.879,0,0,0,2.863,2.993,3.261,3.261,0,0,0,2.91-1.831l-.221-.172a2.843,2.843,0,0,1-2.428,1.519c-1.446,0-2.191-1.217-2.191-2.6s.557-2.587,1.98-2.587a2.171,2.171,0,0,1,2.084,1.8h.122" fill="#060506"/>
    <path id="Trazado_51988" data-name="Trazado 51988" d="M1059.181-552.38h.556c.93,0,1.292.175,1.49,1.152h.109c0-.414-.021-.831-.021-1.248s.021-.826.021-1.24h-.109c-.1.842-.589,1.11-1.376,1.11-.226,0-.443.018-.67.018v-2.173c.41-.031.808-.052,1.217-.052a1.677,1.677,0,0,1,1.9,1.347l.115-.034c-.018-.31-.052-.562-.052-.815,0-.227,0-.451.018-.722-.826.018-1.644.034-2.451.034-1.058,0-1.639-.016-2.421-.034v.1c.842.071.9.331.9,1.3v2.9c0,.974-.055,1.234-.881,1.3v.1c.341-.016.67-.034,1.006-.034h3.269c.2,0,.4.018.6.034l.789-1.743-.094-.078a3.218,3.218,0,0,1-2.951,1.566,5.265,5.265,0,0,1-.965-.118v-2.681" fill="#060506"/>
    <path id="Trazado_51989" data-name="Trazado 51989" d="M1067.362-555.037c-.487.018-.98.034-1.469.034-.451,0-.891-.016-1.347-.034v.1c.826.073.88.331.88,1.3v3.442c0,.451-.122.693-.88.763v.1c.286-.016.586-.034.872-.034h2.551c.417,0,.841.018,1.258.034l.67-1.947h-.133a2.738,2.738,0,0,1-2.655,1.686,4.588,4.588,0,0,1-.9-.115v-4.163c0-.706.042-.912,1.157-1.071v-.1" fill="#060506"/>
    <path id="Trazado_51990" data-name="Trazado 51990" d="M1072.278-552.181a2.435,2.435,0,0,1,2.29-2.681,2.435,2.435,0,0,1,2.29,2.681,2.436,2.436,0,0,1-2.29,2.683,2.436,2.436,0,0,1-2.29-2.683m-.922,0a2.984,2.984,0,0,0,3.212,3,2.986,2.986,0,0,0,3.212-3,2.985,2.985,0,0,0-3.212-2.994,2.983,2.983,0,0,0-3.212,2.994" fill="#060506"/>
    <path id="Trazado_51991" data-name="Trazado 51991" d="M1079.424-554.933a3.14,3.14,0,0,1,1.285.576l-.1,3.984c-.018.8-.383.841-1.183.945v.1c.331-.019.659-.037.988-.037.573,0,1.151.018,1.724.037v-.1c-1.079-.112-1.167-.3-1.167-2.352V-553.3c0-.294.008-.589.016-.883a35.753,35.753,0,0,1,3.967,4.932h.323v-4.6c0-.7.23-.971.957-1.076v-.1c-.376.016-.759.034-1.129.034-.409,0-.818-.018-1.224-.034v.1c.93.079,1.086.774,1.086,2.256v1.011c0,.344-.013.683-.013,1.032h-.018c-.7-.967-3.084-3.785-3.548-4.4-.253.016-.493.034-.745.034-.49,0-.81-.018-1.217-.034v.1" fill="#060506"/>
    <path id="Trazado_51992" data-name="Trazado 51992" d="M1091.08-552.127h-1.631l.847-2.206.784,2.206m.1.261.563,1.594a.888.888,0,0,1,.076.271c0,.321-.37.511-.858.573v.1c.4-.016.628-.034,1.259-.034.466,0,.922.018,1.38.034v-.1a1.054,1.054,0,0,1-.979-.781l-1.808-4.966a3.534,3.534,0,0,1-.753.261.9.9,0,0,1,.1.284.561.561,0,0,1-.07.208l-1.5,3.692c-.24.588-.417,1.146-1.139,1.3v.1c.375-.016.688-.034,1.037-.034s.7.018,1.047.034v-.1c-.26-.044-.815-.219-.815-.633a.606.606,0,0,1,.07-.234l.573-1.571Z" fill="#060506"/>
    <path id="Trazado_51993" data-name="Trazado 51993" d="M952.954-583.926a42.118,42.118,0,0,1-.235-5.083,15.764,15.764,0,0,1-3.436-.5,16.349,16.349,0,0,0-3.645-.469c-2.907,0-5.466,1.97-5.466,5.054,0,6.109,11.43,5.171,11.43,10.78,0,2.556-2.056,3.5-4.349,3.5-3.525,0-6.052-3.642-7.492-6.349l-.381.206c.5,2.176,1,4.322,1.353,6.552a3.66,3.66,0,0,1,1.234-.323c.91,0,3.408.855,5.346.855,3.582,0,6.581-1.707,6.581-5.526,0-7.138-11.429-5.935-11.429-10.989,0-2.115,1.587-2.819,3.822-2.819,3,0,5.226,2.585,6.255,5.112h.412" fill="#de3a00"/>
    <path id="Trazado_51994" data-name="Trazado 51994" d="M968.762-579.667h-5.526l2.879-7.461,2.647,7.461m.32.881,1.913,5.406a3.005,3.005,0,0,1,.263.914c0,1.087-1.264,1.733-2.91,1.936v.354c1.352-.06,2.118-.117,4.262-.117,1.587,0,3.113.057,4.671.117v-.354a3.58,3.58,0,0,1-3.319-2.642l-6.112-16.806a11.428,11.428,0,0,1-2.555.883,2.772,2.772,0,0,1,.354.967,2.033,2.033,0,0,1-.235.706l-5.085,12.487c-.821,2-1.41,3.876-3.848,4.4v.354c1.264-.06,2.319-.117,3.494-.117,1.206,0,2.381.057,3.556.117v-.354c-.878-.146-2.762-.732-2.762-2.144a2.172,2.172,0,0,1,.235-.79l1.941-5.322Z" fill="#de3a00"/>
    <path id="Trazado_51995" data-name="Trazado 51995" d="M978.719-589.157a10.735,10.735,0,0,1,4.351,1.941l-.354,13.484c-.058,2.7-1.293,2.85-4,3.2v.352c1.12-.06,2.235-.117,3.351-.117,1.94,0,3.879.057,5.817.117v-.352c-3.642-.382-3.936-1.028-3.936-7.964v-5.14c0-1,.028-2,.059-3a121.928,121.928,0,0,1,13.425,16.689h1.087v-15.572c0-2.381.763-3.29,3.235-3.644v-.352c-1.263.06-2.561.12-3.824.12-1.376,0-2.762-.06-4.14-.12v.352c3.142.265,3.674,2.615,3.674,7.638v3.41c0,1.175-.032,2.319-.032,3.5h-.057c-2.384-3.262-10.46-12.81-12.018-14.9-.852.06-1.673.12-2.524.12-1.647,0-2.733-.06-4.117-.12v.352" fill="#de3a00"/>
    <path id="Trazado_51996" data-name="Trazado 51996" d="M1008.427-570.176c1.412-.06,2.816-.117,4.257-.117,1.5,0,2.969.057,4.468.117v-.354c-2.879-.235-3.082-1.115-3.082-4.4v-13.634c4.168,0,5.491.295,6.961,4.937l.377-.117-.409-5.76c-1.557.057-3.082.12-4.639.12h-6.907c-1.615,0-3.259-.063-4.874-.12l-.415,5.76.384.117c1.471-4.642,2.792-4.937,6.872-4.937v13.634c0,3.29-.2,4.17-2.993,4.4v.354" fill="#de3a00"/>
    <path id="Trazado_51997" data-name="Trazado 51997" d="M1038.426-588.423a7.047,7.047,0,0,1,2.644-.44,4.683,4.683,0,0,1,4.877,5.026c0,2.584-2.084,4.084-4.554,4.084a6.226,6.226,0,0,1-2.967-.648v-8.022m3.056,17.895c-2.851-.237-3.056-1.117-3.056-4.407v-4.409a10.425,10.425,0,0,0,3.642.529c3.027,0,6.818-1.32,6.818-5.082,0-3.617-3.791-5.789-6.73-5.789-1.849,0-3.7.3-5.549.3-1.3,0-2.587-.06-3.884-.12v.352c2.853.237,3.059,1.117,3.059,4.408v9.814c0,3.29-.206,4.17-3.114,4.407v.352c1.524-.06,2.936-.117,4.377-.117,1.5,0,2.967.057,4.437.117Z" fill="#de3a00"/>
    <path id="Trazado_51998" data-name="Trazado 51998" d="M1061.695-579.667h-5.525l2.881-7.461,2.644,7.461m.324.881,1.907,5.406a3.007,3.007,0,0,1,.265.914c0,1.087-1.263,1.733-2.91,1.936v.354c1.352-.06,2.118-.117,4.262-.117,1.587,0,3.116.057,4.672.117v-.354a3.582,3.582,0,0,1-3.319-2.642l-6.11-16.806a11.464,11.464,0,0,1-2.555.883,2.818,2.818,0,0,1,.351.967,2.1,2.1,0,0,1-.234.706l-5.083,12.487c-.826,2-1.412,3.876-3.848,4.4v.354c1.261-.06,2.319-.117,3.494-.117,1.2,0,2.378.057,3.553.117v-.354c-.88-.146-2.756-.732-2.756-2.144a2.174,2.174,0,0,1,.229-.79l1.944-5.322Z" fill="#de3a00"/>
    <path id="Trazado_51999" data-name="Trazado 51999" d="M1074.946-576.111c0,4.26,3.731,6.4,7.693,6.4,4.411,0,7.993-2.175,7.993-6.844v-8.787c0-3.288,1.063-3.582,2.733-3.819v-.352c-1,.06-2,.117-3,.117-1.2,0-2.407-.057-3.611-.117v.352c2.35.294,2.822,1.326,2.822,4.467v8.225c0,1.91-1.235,5.289-6.23,5.289-3.144,0-5.757-1.41-5.757-5.054v-9.577c0-2.35.646-3.145,3.173-3.35v-.352c-1.175.06-2.321.117-3.5.117-1.618,0-3.233-.057-4.851-.117v.352c1.647.325,2.53.442,2.53,2.615v10.431" fill="#de3a00"/>
    <path id="Trazado_52000" data-name="Trazado 52000" d="M946.912-603.491a22.233,22.233,0,0,1-.13-2.772,8.585,8.585,0,0,1-1.876-.274,8.806,8.806,0,0,0-1.988-.255,2.81,2.81,0,0,0-2.98,2.756c0,3.332,6.234,2.819,6.234,5.88,0,1.4-1.12,1.91-2.371,1.91-1.922,0-3.3-1.988-4.085-3.463l-.211.112c.274,1.186.548,2.358.738,3.575a2,2,0,0,1,.674-.177c.495,0,1.858.466,2.916.466,1.956,0,3.59-.933,3.59-3.014,0-3.892-6.235-3.236-6.235-5.995,0-1.154.868-1.537,2.082-1.537,1.636,0,2.855,1.41,3.415,2.788h.227" fill="#060506"/>
    <path id="Trazado_52001" data-name="Trazado 52001" d="M958.651-601.167h-3.014l1.571-4.072,1.443,4.072m.177.481,1.04,2.95a1.571,1.571,0,0,1,.146.494c0,.6-.688.949-1.587,1.058v.193c.735-.031,1.152-.062,2.324-.062.865,0,1.7.031,2.548.062v-.193a1.954,1.954,0,0,1-1.811-1.44l-3.334-9.168a6.321,6.321,0,0,1-1.394.479,1.54,1.54,0,0,1,.192.529,1.067,1.067,0,0,1-.127.388l-2.772,6.808c-.448,1.091-.771,2.118-2.1,2.4v.193c.691-.031,1.269-.062,1.91-.062.659,0,1.3.031,1.938.062v-.193c-.479-.08-1.508-.4-1.508-1.17a1.2,1.2,0,0,1,.13-.432l1.058-2.9Z" fill="#060506"/>
    <path id="Trazado_52002" data-name="Trazado 52002" d="M967.2-606.344a5.943,5.943,0,0,1,2.371,1.058l-.193,7.357c-.031,1.472-.706,1.553-2.178,1.745v.193c.607-.031,1.217-.062,1.824-.062,1.06,0,2.118.031,3.173.062v-.193c-1.988-.208-2.144-.56-2.144-4.343v-2.8c0-.544.013-1.089.031-1.636a66.716,66.716,0,0,1,7.323,9.1h.594v-8.493c0-1.3.417-1.8,1.764-1.988v-.193c-.69.031-1.4.065-2.087.065-.75,0-1.505-.034-2.258-.065v.193c1.714.146,2,1.425,2,4.168v1.858c0,.641-.014,1.266-.014,1.907h-.031c-1.3-1.779-5.705-6.985-6.555-8.126-.466.031-.914.065-1.378.065-.9,0-1.492-.034-2.243-.065v.193" fill="#060506"/>
    <path id="Trazado_52003" data-name="Trazado 52003" d="M986.524-595.991c.769-.031,1.54-.062,2.327-.062.815,0,1.615.031,2.433.062v-.193c-1.571-.127-1.683-.609-1.683-2.4v-7.433c2.277,0,3,.156,3.8,2.691l.211-.065-.221-3.142c-.852.031-1.686.065-2.535.065h-3.767c-.881,0-1.78-.034-2.66-.065L984.2-603.4l.208.065c.8-2.535,1.521-2.691,3.749-2.691v7.433c0,1.795-.109,2.277-1.634,2.4v.193" fill="#060506"/>
    <path id="Trazado_52004" data-name="Trazado 52004" d="M1003.234-601.167h-3.011l1.568-4.072,1.443,4.072m.178.481,1.039,2.95a1.624,1.624,0,0,1,.143.494c0,.6-.685.949-1.584,1.058v.193c.738-.031,1.154-.062,2.327-.062.862,0,1.7.031,2.548.062v-.193a1.948,1.948,0,0,1-1.811-1.44l-3.337-9.168a6.3,6.3,0,0,1-1.394.479,1.469,1.469,0,0,1,.19.529,1,1,0,0,1-.125.388l-2.772,6.808c-.451,1.091-.771,2.118-2.1,2.4v.193c.691-.031,1.266-.062,1.907-.062.657,0,1.3.031,1.941.062v-.193c-.484-.08-1.508-.4-1.508-1.17a1.192,1.192,0,0,1,.127-.432l1.055-2.9Z" fill="#060506"/>
    <path id="Trazado_52005" data-name="Trazado 52005" d="M1029.386-602.882c-.115-.914-.292-2.548-.292-3.431-1.154-.031-2.29-.479-3.879-.479a5.322,5.322,0,0,0-5.289,5.528,5.323,5.323,0,0,0,5.289,5.531c2.532,0,3.926-1.219,5.369-3.382l-.4-.32a5.261,5.261,0,0,1-4.488,2.8c-2.663,0-4.039-2.243-4.039-4.809s1.027-4.775,3.656-4.775c2.05,0,3.266,1.412,3.842,3.334h.23" fill="#060506"/>
    <path id="Trazado_52006" data-name="Trazado 52006" d="M1037.819-602.723c0-1.2.033-2.225.067-3.254a5.445,5.445,0,0,1,1.538-.177,2.4,2.4,0,0,1,2.519,2.342c0,1.73-.982,2.454-2.629,2.454a4.783,4.783,0,0,1-1.495-.273v-1.092m8.128,6.474c-2.05-.221-3.994-3.155-4.89-4.676a2.7,2.7,0,0,0,2.485-2.579c0-2.2-2.159-3.129-4.022-3.129-.815,0-2.131.161-2.725.161-.69,0-1.363-.034-2.05-.065v.193c1.521.128,1.633.609,1.633,2.4v5.351c0,1.795-.112,2.277-1.633,2.4v.193c.765-.031,1.537-.062,2.323-.062.818,0,1.618.031,2.436.062v-.193c-1.571-.127-1.685-.609-1.685-2.4v-2.5a8.327,8.327,0,0,0,1.844.3,21.491,21.491,0,0,0,3.4,4.729h2.887Z" fill="#060506"/>
    <path id="Trazado_52007" data-name="Trazado 52007" d="M1053.059-601.631h1.027c1.714,0,2.389.32,2.753,2.133h.193c0-.771-.029-1.539-.029-2.31,0-.753.029-1.522.029-2.29h-.193c-.19,1.552-1.086,2.05-2.548,2.05-.416,0-.815.034-1.232.034v-4.01c.753-.065,1.49-.1,2.243-.1,1.618,0,2.965.417,3.512,2.485l.206-.065c-.034-.576-.1-1.042-.1-1.508,0-.415,0-.831.031-1.329-1.522.031-3.025.065-4.52.065-1.954,0-3.027-.034-4.471-.065v.2c1.553.126,1.655.6,1.655,2.4v5.351c0,1.8-.1,2.277-1.621,2.4v.193c.625-.031,1.232-.062,1.855-.062h6.026c.372,0,.758.031,1.125.062l1.457-3.223-.178-.143c-1.536,2.053-2.865,2.884-5.447,2.884a9.989,9.989,0,0,1-1.777-.206v-4.952" fill="#060506"/>
    <path id="Trazado_52008" data-name="Trazado 52008" d="M1066.078-599.227c0,2.324,2.034,3.494,4.2,3.494,2.405,0,4.359-1.188,4.359-3.736v-4.791c0-1.795.575-1.956,1.49-2.082v-.2c-.545.031-1.092.065-1.634.065-.656,0-1.313-.034-1.972-.065v.2c1.282.157,1.537.719,1.537,2.436v4.486c0,1.04-.672,2.885-3.4,2.885-1.714,0-3.142-.769-3.142-2.757v-5.226c0-1.282.355-1.711,1.733-1.824v-.2c-.641.031-1.264.065-1.91.065-.88,0-1.758-.034-2.639-.065v.2c.9.173,1.376.238,1.376,1.423v5.692" fill="#060506"/>
    <path id="Trazado_52009" data-name="Trazado 52009" d="M1088.86-595.991c.771-.031,1.537-.062,2.324-.062.818,0,1.618.031,2.434.062v-.193c-1.572-.127-1.684-.609-1.684-2.4v-5.351c0-1.8.112-2.277,1.6-2.4v-.193c-.693.031-1.394.065-2.1.065-.868,0-1.753-.034-2.616-.065v.193c1.553.128,1.668.609,1.668,2.4v5.351c0,1.795-.115,2.277-1.634,2.4v.193" fill="#060506"/>
    <g id="Grupo_7083" data-name="Grupo 7083">
      <path id="Trazado_52010" data-name="Trazado 52010" d="M900.875-555.748l-33.612-33.613,33.612-33.612,33.615,33.612Zm-31.632-33.613,31.632,31.633,31.635-31.633-31.635-31.633Z" fill="#060506"/>
    </g>
    <path id="Trazado_52011" data-name="Trazado 52011" d="M900.693-620.746l-.044,63.411,2.319-2.826-.008-58.724Z" fill="#060506"/>
    <path id="Trazado_52012" data-name="Trazado 52012" d="M914.633-607l.073,35.16,2.126-2.472V-604.8Z" fill="#060506"/>
    <path id="Trazado_52013" data-name="Trazado 52013" d="M905.4-588.915l.094,26.8,2.1-2.777v-24.015Z" fill="#060506"/>
    <path id="Trazado_52014" data-name="Trazado 52014" d="M910.072-589.6l.039,22.28,2.157-1.949v-20.323Z" fill="#060506"/>
    <path id="Trazado_52015" data-name="Trazado 52015" d="M907.852-589.4l.013-25.443,2.186,2.136v23.3Z" fill="#060506"/>
    <path id="Trazado_52016" data-name="Trazado 52016" d="M919.122-589.574l.076-13.821,2.123,2.36v11.452Z" fill="#060506"/>
    <path id="Trazado_52017" data-name="Trazado 52017" d="M923.76-589.853l.057-8.824,2.142,2.217v6.6Z" fill="#060506"/>
    <path id="Trazado_52018" data-name="Trazado 52018" d="M928.324-585.325l-.154-8,2.35,2.485v3.421Z" fill="#060506"/>
    <path id="Trazado_52019" data-name="Trazado 52019" d="M921.394-589.96l.052,11.2,2.144-2.105v-9.087Z" fill="#060506"/>
    <rect id="Rectángulo_840" data-name="Rectángulo 840" width="13.047" height="2.097" transform="translate(902.488 -600.399)" fill="#060506"/>
    <path id="Trazado_52020" data-name="Trazado 52020" d="M916.79-585.568h11.473l-1.891,2.1H916.79Z" fill="#060506"/>
    <rect id="Rectángulo_841" data-name="Rectángulo 841" width="26.914" height="1.516" transform="translate(902.371 -590.356)" fill="#060506"/>
    <path id="Trazado_52021" data-name="Trazado 52021" d="M883.5-601.748c.141-.24.508-.222.763-.159a10.292,10.292,0,0,0,3.478.526,18.3,18.3,0,0,0,3.728-.519c.258-.052.641-.039.769.167a.859.859,0,0,1-.016.774,7.985,7.985,0,0,0-2.561,5.041c-.463,3.415-.612,4.973-.612,4.973l-.117,2.509-2.228.1-.138-2.613s-.513-3.78-.68-4.973a8.4,8.4,0,0,0-2.339-5.041.718.718,0,0,1-.047-.789" fill="#060506"/>
    <path id="Trazado_52022" data-name="Trazado 52022" d="M892.218-577.843c-.141.24-.508.221-.763.159a10.355,10.355,0,0,0-3.478-.529,18.653,18.653,0,0,0-3.726.521c-.263.052-.643.039-.771-.166a.849.849,0,0,1,.016-.774,7.973,7.973,0,0,0,2.558-5.039,37.841,37.841,0,0,0,.446-4.885v-2.535h2.665v2.666s.5,3.556.664,4.754a8.416,8.416,0,0,0,2.342,5.039.712.712,0,0,1,.047.789" fill="#060506"/>
    <path id="Trazado_52023" data-name="Trazado 52023" d="M875.943-585.325c-.239-.141-.221-.508-.159-.761a10.252,10.252,0,0,0,.524-3.48,18.42,18.42,0,0,0-.516-3.726c-.052-.26-.042-.641.167-.771a.853.853,0,0,1,.773.016,7.986,7.986,0,0,0,5.042,2.561,32.458,32.458,0,0,0,5.046.4h2.41v2.8h-2.473s-3.788.417-4.983.583a8.41,8.41,0,0,0-5.042,2.34.714.714,0,0,1-.789.047" fill="#060506"/>
    <path id="Trazado_52024" data-name="Trazado 52024" d="M899.849-594.042c.239.14.221.508.159.763a10.31,10.31,0,0,0-.527,3.478,18.54,18.54,0,0,0,.519,3.728c.052.261.041.641-.167.769a.853.853,0,0,1-.774-.013,7.963,7.963,0,0,0-5.038-2.561c-3.418-.467-4.976-.613-4.976-.613l-2.509-.119-.1-2.228,2.613-.138c4.1-.555,3.663-.495,4.976-.677a8.415,8.415,0,0,0,5.038-2.342.712.712,0,0,1,.79-.047" fill="#060506"/>
    <rect id="Rectángulo_842" data-name="Rectángulo 842" width="2.245" height="3.095" transform="translate(886.7 -591.19)" fill="#060506"/>
    <rect id="Rectángulo_843" data-name="Rectángulo 843" width="4.369" height="2.097" transform="translate(885.825 -590.689)" fill="#060506"/>
  </g>
</svg>
