<svg xmlns="http://www.w3.org/2000/svg" width="224" height="49.128" viewBox="0 0 224 49.128">
  <g id="Grupo_7089" data-name="Grupo 7089" transform="translate(-1426.954 564.607)">
    <g id="Grupo_7087" data-name="Grupo 7087" transform="translate(1463.406 -562.027)">
      <path id="Trazado_52057" data-name="Trazado 52057" d="M1459.115-554.2h-.583l-.107-1.546h-.024a3.067,3.067,0,0,1-2.939,1.725c-2.677,0-4.01-2.106-4.01-4.425s1.333-4.425,4.01-4.425a3.327,3.327,0,0,1,3.544,2.82h-.808a2.65,2.65,0,0,0-2.736-2.131c-2.248,0-3.2,1.881-3.2,3.736s.952,3.736,3.2,3.736a2.822,2.822,0,0,0,2.939-3.117h-2.891v-.691h3.605Z" transform="translate(-1451.452 562.873)" fill="#0a0b0e"/>
      <path id="Trazado_52058" data-name="Trazado 52058" d="M1458.1-557.839a2.178,2.178,0,0,0,2.024,2.415,1.871,1.871,0,0,0,1.927-1.571h.749a2.506,2.506,0,0,1-2.675,2.2c-1.952,0-2.772-1.5-2.772-3.248,0-1.618.82-3.247,2.772-3.247,1.974,0,2.76,1.725,2.7,3.451Zm3.974-.631a2.063,2.063,0,0,0-1.95-2.19,2.179,2.179,0,0,0-2.024,2.19Z" transform="translate(-1448.574 563.646)" fill="#0a0b0e"/>
      <path id="Trazado_52059" data-name="Trazado 52059" d="M1461.7-561.113h.75v1.06h.024a2.083,2.083,0,0,1,1.963-1.237c1.726,0,2.249.9,2.249,2.367v3.949h-.749v-3.83c0-1.059-.345-1.857-1.558-1.857a1.939,1.939,0,0,0-1.928,2.107v3.58h-.75Z" transform="translate(-1446.451 563.646)" fill="#0a0b0e"/>
      <path id="Trazado_52060" data-name="Trazado 52060" d="M1466.546-557.839a2.177,2.177,0,0,0,2.022,2.415A1.871,1.871,0,0,0,1470.5-557h.75a2.509,2.509,0,0,1-2.678,2.2c-1.951,0-2.772-1.5-2.772-3.248,0-1.618.821-3.247,2.772-3.247,1.974,0,2.76,1.725,2.7,3.451Zm3.974-.631a2.064,2.064,0,0,0-1.952-2.19,2.179,2.179,0,0,0-2.022,2.19Z" transform="translate(-1444.453 563.646)" fill="#0a0b0e"/>
      <path id="Trazado_52061" data-name="Trazado 52061" d="M1470.156-561.143h.69v1.44h.024a2.265,2.265,0,0,1,2.32-1.522v.75a2.113,2.113,0,0,0-2.284,2.2V-555h-.75Z" transform="translate(-1442.325 563.676)" fill="#0a0b0e"/>
      <path id="Trazado_52062" data-name="Trazado 52062" d="M1472.714-559.232c.071-1.44,1.083-2.058,2.486-2.058,1.083,0,2.26.332,2.26,1.974v3.26a.4.4,0,0,0,.44.451.744.744,0,0,0,.238-.046v.629a2.054,2.054,0,0,1-.488.048c-.76,0-.879-.429-.879-1.07h-.025a2.339,2.339,0,0,1-2.235,1.248c-1.131,0-2.059-.56-2.059-1.8,0-1.724,1.678-1.784,3.3-1.974.619-.073.964-.155.964-.833,0-1.012-.726-1.262-1.607-1.262-.928,0-1.617.429-1.641,1.428Zm4,.9h-.025c-.094.18-.427.24-.629.274-1.274.226-2.855.216-2.855,1.417a1.279,1.279,0,0,0,1.369,1.214,1.974,1.974,0,0,0,2.141-1.928Z" transform="translate(-1441.205 563.646)" fill="#0a0b0e"/>
      <path id="Trazado_52063" data-name="Trazado 52063" d="M1476.836-562.754h.748v8.495h-.748Z" transform="translate(-1439.066 562.931)" fill="#0a0b0e"/>
      <path id="Trazado_52064" data-name="Trazado 52064" d="M1478.316-562.754h.75v1.2h-.75Zm0,2.355h.75v6.139h-.75Z" transform="translate(-1438.344 562.931)" fill="#0a0b0e"/>
      <path id="Trazado_52065" data-name="Trazado 52065" d="M1481.185-560.566h1.249v.631h-1.249v4.141c0,.487.07.772.606.808a5.818,5.818,0,0,0,.643-.036v.643c-.226,0-.44.024-.667.024-1,0-1.344-.333-1.332-1.379v-4.2h-1.071v-.631h1.071v-1.844h.75Z" transform="translate(-1437.832 563.099)" fill="#0a0b0e"/>
      <path id="Trazado_52066" data-name="Trazado 52066" d="M1482.194-559.232c.072-1.44,1.083-2.058,2.487-2.058,1.083,0,2.26.332,2.26,1.974v3.26a.4.4,0,0,0,.44.451.744.744,0,0,0,.238-.046v.629a2.056,2.056,0,0,1-.488.048c-.76,0-.88-.429-.88-1.07h-.025a2.339,2.339,0,0,1-2.235,1.248c-1.131,0-2.059-.56-2.059-1.8,0-1.724,1.678-1.784,3.3-1.974.619-.073.964-.155.964-.833,0-1.012-.726-1.262-1.607-1.262-.928,0-1.617.429-1.641,1.428Zm4,.9h-.024c-.1.18-.428.24-.631.274-1.272.226-2.855.216-2.855,1.417a1.279,1.279,0,0,0,1.369,1.214,1.974,1.974,0,0,0,2.141-1.928Z" transform="translate(-1436.579 563.646)" fill="#0a0b0e"/>
      <path id="Trazado_52067" data-name="Trazado 52067" d="M1487.705-560.566h1.248v.631h-1.248v4.141c0,.487.07.772.605.808a5.818,5.818,0,0,0,.643-.036v.643c-.226,0-.44.024-.667.024-1,0-1.344-.333-1.332-1.379v-4.2h-1.071v-.631h1.071v-1.844h.75Z" transform="translate(-1434.651 563.099)" fill="#0a0b0e"/>
      <path id="Trazado_52068" data-name="Trazado 52068" d="M1496.387-554.259h-.69v-1.165h-.024a2.434,2.434,0,0,1-2.189,1.344c-1.869,0-2.76-1.51-2.76-3.248s.891-3.247,2.76-3.247a2.191,2.191,0,0,1,2.129,1.344h.024v-3.522h.75Zm-2.9-.451c1.594,0,2.153-1.345,2.153-2.619s-.56-2.617-2.153-2.617c-1.428,0-2.01,1.345-2.01,2.617S1492.056-554.71,1493.484-554.71Z" transform="translate(-1432.289 562.931)" fill="#0a0b0e"/>
      <path id="Trazado_52069" data-name="Trazado 52069" d="M1496.032-557.839a2.179,2.179,0,0,0,2.024,2.415,1.871,1.871,0,0,0,1.927-1.571h.75a2.508,2.508,0,0,1-2.677,2.2c-1.951,0-2.772-1.5-2.772-3.248,0-1.618.821-3.247,2.772-3.247,1.975,0,2.76,1.725,2.7,3.451Zm3.974-.631a2.064,2.064,0,0,0-1.951-2.19,2.18,2.18,0,0,0-2.024,2.19Z" transform="translate(-1430.064 563.646)" fill="#0a0b0e"/>
      <path id="Trazado_52070" data-name="Trazado 52070" d="M1508.306-560.126a2.576,2.576,0,0,0-2.605-2.058c-2.248,0-3.2,1.881-3.2,3.736s.952,3.736,3.2,3.736a2.779,2.779,0,0,0,2.725-2.726h.809a3.467,3.467,0,0,1-3.534,3.415c-2.677,0-4.009-2.106-4.009-4.425s1.332-4.425,4.009-4.425a3.254,3.254,0,0,1,3.415,2.747Z" transform="translate(-1426.937 562.873)" fill="#0a0b0e"/>
      <path id="Trazado_52071" data-name="Trazado 52071" d="M1507.537-559.232c.073-1.44,1.083-2.058,2.488-2.058,1.082,0,2.26.332,2.26,1.974v3.26a.4.4,0,0,0,.44.451.742.742,0,0,0,.237-.046v.629a2.05,2.05,0,0,1-.487.048c-.762,0-.881-.429-.881-1.07h-.024a2.342,2.342,0,0,1-2.236,1.248c-1.131,0-2.059-.56-2.059-1.8,0-1.724,1.678-1.784,3.3-1.974.619-.073.964-.155.964-.833,0-1.012-.726-1.262-1.605-1.262-.928,0-1.619.429-1.643,1.428Zm4,.9h-.024c-.1.18-.428.24-.631.274-1.273.226-2.855.216-2.855,1.417a1.279,1.279,0,0,0,1.369,1.214,1.974,1.974,0,0,0,2.141-1.928Z" transform="translate(-1424.213 563.646)" fill="#0a0b0e"/>
      <path id="Trazado_52072" data-name="Trazado 52072" d="M1513.048-560.566h1.249v.631h-1.249v4.141c0,.487.072.772.607.808a5.772,5.772,0,0,0,.641-.036v.643c-.226,0-.439.024-.667.024-1,0-1.344-.333-1.332-1.379v-4.2h-1.07v-.631h1.07v-1.844h.75Z" transform="translate(-1422.284 563.099)" fill="#0a0b0e"/>
      <path id="Trazado_52073" data-name="Trazado 52073" d="M1514.056-559.232c.072-1.44,1.083-2.058,2.488-2.058,1.082,0,2.26.332,2.26,1.974v3.26a.4.4,0,0,0,.44.451.742.742,0,0,0,.237-.046v.629a2.048,2.048,0,0,1-.487.048c-.762,0-.881-.429-.881-1.07h-.024a2.343,2.343,0,0,1-2.237,1.248c-1.131,0-2.058-.56-2.058-1.8,0-1.724,1.677-1.784,3.294-1.974.619-.073.964-.155.964-.833,0-1.012-.726-1.262-1.605-1.262-.928,0-1.619.429-1.643,1.428Zm4,.9h-.024c-.1.18-.428.24-.631.274-1.272.226-2.855.216-2.855,1.417a1.279,1.279,0,0,0,1.369,1.214,1.974,1.974,0,0,0,2.141-1.928Z" transform="translate(-1421.031 563.646)" fill="#0a0b0e"/>
      <path id="Trazado_52074" data-name="Trazado 52074" d="M1518.179-562.754h.75v8.495h-.75Z" transform="translate(-1418.892 562.931)" fill="#0a0b0e"/>
      <path id="Trazado_52075" data-name="Trazado 52075" d="M1524.628-555.032h-.689v-1.106h-.024a2.286,2.286,0,0,1-2.119,1.284c-1.546,0-2.153-.9-2.153-2.332v-3.986h.75v4c.036,1.105.453,1.69,1.643,1.69,1.284,0,1.844-1.214,1.844-2.464v-3.224h.749Z" transform="translate(-1418.178 563.703)" fill="#0a0b0e"/>
      <path id="Trazado_52076" data-name="Trazado 52076" d="M1523.939-561.113h.75v1.06h.024a2.081,2.081,0,0,1,1.962-1.237c1.726,0,2.248.9,2.248,2.367v3.949h-.748v-3.83c0-1.059-.345-1.857-1.559-1.857a1.939,1.939,0,0,0-1.927,2.107v3.58h-.75Z" transform="translate(-1416.081 563.646)" fill="#0a0b0e"/>
      <path id="Trazado_52077" data-name="Trazado 52077" d="M1527.779-561.171h.8l2.022,5.236,1.891-5.236h.75l-2.665,7.08c-.428,1.034-.677,1.333-1.617,1.333a2.049,2.049,0,0,1-.571-.059v-.631a2.594,2.594,0,0,0,.512.06c.667,0,.822-.393,1.071-.964l.26-.7Z" transform="translate(-1414.207 563.703)" fill="#0a0b0e"/>
      <path id="Trazado_52078" data-name="Trazado 52078" d="M1531.985-559.232c.071-1.44,1.083-2.058,2.486-2.058,1.083,0,2.26.332,2.26,1.974v3.26a.4.4,0,0,0,.44.451.744.744,0,0,0,.238-.046v.629a2.056,2.056,0,0,1-.488.048c-.76,0-.88-.429-.88-1.07h-.025a2.339,2.339,0,0,1-2.235,1.248c-1.131,0-2.059-.56-2.059-1.8,0-1.724,1.678-1.784,3.3-1.974.619-.073.964-.155.964-.833,0-1.012-.726-1.262-1.607-1.262-.928,0-1.617.429-1.641,1.428Zm4,.9h-.024c-.1.18-.428.24-.631.274-1.272.226-2.855.216-2.855,1.417a1.279,1.279,0,0,0,1.369,1.214,1.974,1.974,0,0,0,2.141-1.928Z" transform="translate(-1412.283 563.646)" fill="#0a0b0e"/>
      <path id="Trazado_52079" data-name="Trazado 52079" d="M1451.724-554.754h2.939c2.558.06,3.9,1.464,3.9,4.248s-1.345,4.187-3.9,4.247h-2.939Zm.809,7.8h1.725c2.44.013,3.5-1.022,3.5-3.556s-1.058-3.57-3.5-3.558h-1.725Z" transform="translate(-1451.319 566.835)" fill="#0a0b0e"/>
      <path id="Trazado_52080" data-name="Trazado 52080" d="M1457.65-549.839a2.177,2.177,0,0,0,2.022,2.415A1.871,1.871,0,0,0,1461.6-549h.748a2.507,2.507,0,0,1-2.677,2.2c-1.951,0-2.772-1.5-2.772-3.248,0-1.617.821-3.247,2.772-3.247,1.975,0,2.76,1.725,2.7,3.451Zm3.974-.631a2.065,2.065,0,0,0-1.952-2.19,2.179,2.179,0,0,0-2.022,2.19Z" transform="translate(-1448.794 567.549)" fill="#0a0b0e"/>
      <path id="Trazado_52081" data-name="Trazado 52081" d="M1461.26-553.113h.69v1.167h.024a2.3,2.3,0,0,1,2.189-1.344c1.867,0,2.76,1.51,2.76,3.247s-.893,3.248-2.76,3.248a2.19,2.19,0,0,1-2.129-1.344h-.024v3.439h-.75Zm2.9.452c-1.653,0-2.153,1.226-2.153,2.617,0,1.274.56,2.619,2.153,2.619,1.428,0,2.01-1.345,2.01-2.619S1465.591-552.661,1464.163-552.661Z" transform="translate(-1446.666 567.549)" fill="#0a0b0e"/>
      <path id="Trazado_52082" data-name="Trazado 52082" d="M1465.89-551.232c.072-1.44,1.082-2.058,2.487-2.058,1.083,0,2.26.332,2.26,1.974v3.26a.4.4,0,0,0,.44.451.744.744,0,0,0,.238-.046v.629a2.051,2.051,0,0,1-.488.048c-.762,0-.881-.429-.881-1.07h-.024a2.34,2.34,0,0,1-2.237,1.248c-1.129,0-2.058-.56-2.058-1.8,0-1.725,1.677-1.784,3.3-1.974.617-.073.963-.155.963-.833,0-1.012-.725-1.262-1.605-1.262-.928,0-1.617.429-1.641,1.428Zm4,.9h-.024c-.094.18-.427.24-.629.274-1.274.226-2.855.216-2.855,1.417a1.279,1.279,0,0,0,1.367,1.214,1.973,1.973,0,0,0,2.141-1.928Z" transform="translate(-1444.535 567.549)" fill="#0a0b0e"/>
      <path id="Trazado_52083" data-name="Trazado 52083" d="M1470-553.143h.689v1.44h.025a2.264,2.264,0,0,1,2.32-1.522v.75a2.114,2.114,0,0,0-2.285,2.2V-547H1470Z" transform="translate(-1442.4 567.579)" fill="#0a0b0e"/>
      <path id="Trazado_52084" data-name="Trazado 52084" d="M1473.92-552.566h1.25v.631h-1.25v4.141c0,.487.071.772.607.808a5.814,5.814,0,0,0,.643-.036v.643c-.226,0-.44.024-.667.024-1,0-1.344-.333-1.333-1.379v-4.2h-1.07v-.631h1.07v-1.844h.75Z" transform="translate(-1441.377 567.003)" fill="#0a0b0e"/>
      <path id="Trazado_52085" data-name="Trazado 52085" d="M1474.928-551.232c.071-1.44,1.083-2.058,2.488-2.058,1.082,0,2.26.332,2.26,1.974v3.26a.4.4,0,0,0,.44.451.743.743,0,0,0,.237-.046v.629a2.04,2.04,0,0,1-.487.048c-.762,0-.881-.429-.881-1.07h-.024a2.342,2.342,0,0,1-2.236,1.248c-1.131,0-2.058-.56-2.058-1.8,0-1.725,1.677-1.784,3.294-1.974.619-.073.964-.155.964-.833,0-1.012-.726-1.262-1.605-1.262-.928,0-1.619.429-1.643,1.428Zm4,.9h-.024c-.1.18-.429.24-.631.274-1.272.226-2.855.216-2.855,1.417a1.279,1.279,0,0,0,1.369,1.214,1.974,1.974,0,0,0,2.141-1.928Z" transform="translate(-1440.124 567.549)" fill="#0a0b0e"/>
      <path id="Trazado_52086" data-name="Trazado 52086" d="M1479.044-553.113h.689v1.036h.036a2.143,2.143,0,0,1,2.01-1.213,1.706,1.706,0,0,1,1.762,1.2,2.073,2.073,0,0,1,1.95-1.2c1.344,0,2.034.7,2.034,2.153v4.163h-.75V-551.1c0-1.012-.381-1.559-1.451-1.559-1.3,0-1.665,1.071-1.665,2.213v3.474h-.75v-4.163c.012-.833-.333-1.524-1.286-1.524-1.3,0-1.82.976-1.832,2.262v3.425h-.749Z" transform="translate(-1437.988 567.549)" fill="#0a0b0e"/>
      <path id="Trazado_52087" data-name="Trazado 52087" d="M1486.248-549.839a2.178,2.178,0,0,0,2.022,2.415A1.871,1.871,0,0,0,1490.2-549h.75a2.509,2.509,0,0,1-2.678,2.2c-1.951,0-2.771-1.5-2.771-3.248,0-1.617.82-3.247,2.771-3.247,1.976,0,2.76,1.725,2.7,3.451Zm3.974-.631a2.064,2.064,0,0,0-1.952-2.19,2.179,2.179,0,0,0-2.022,2.19Z" transform="translate(-1434.838 567.549)" fill="#0a0b0e"/>
      <path id="Trazado_52088" data-name="Trazado 52088" d="M1489.851-553.113h.75v1.06h.024a2.083,2.083,0,0,1,1.963-1.237c1.726,0,2.249.9,2.249,2.367v3.949h-.749v-3.83c0-1.059-.345-1.857-1.559-1.857a1.939,1.939,0,0,0-1.927,2.107v3.58h-.75Z" transform="translate(-1432.715 567.549)" fill="#0a0b0e"/>
      <path id="Trazado_52089" data-name="Trazado 52089" d="M1495.552-552.566h1.249v.631h-1.249v4.141c0,.487.072.772.606.808a5.814,5.814,0,0,0,.643-.036v.643c-.226,0-.439.024-.667.024-1,0-1.344-.333-1.332-1.379v-4.2h-1.07v-.631h1.07v-1.844h.75Z" transform="translate(-1430.821 567.003)" fill="#0a0b0e"/>
      <path id="Trazado_52090" data-name="Trazado 52090" d="M1504.236-546.259h-.691v-1.165h-.024a2.435,2.435,0,0,1-2.19,1.344c-1.867,0-2.76-1.51-2.76-3.248s.893-3.247,2.76-3.247a2.192,2.192,0,0,1,2.131,1.344h.024v-3.522h.75Zm-2.9-.451c1.595,0,2.155-1.345,2.155-2.619s-.56-2.617-2.155-2.617c-1.427,0-2.01,1.345-2.01,2.617S1499.9-546.71,1501.331-546.71Z" transform="translate(-1428.46 566.835)" fill="#0a0b0e"/>
      <path id="Trazado_52091" data-name="Trazado 52091" d="M1503.881-549.839a2.178,2.178,0,0,0,2.022,2.415,1.871,1.871,0,0,0,1.928-1.571h.75a2.509,2.509,0,0,1-2.678,2.2c-1.951,0-2.772-1.5-2.772-3.248,0-1.617.821-3.247,2.772-3.247,1.975,0,2.76,1.725,2.7,3.451Zm3.974-.631a2.064,2.064,0,0,0-1.952-2.19,2.179,2.179,0,0,0-2.022,2.19Z" transform="translate(-1426.235 567.549)" fill="#0a0b0e"/>
      <path id="Trazado_52092" data-name="Trazado 52092" d="M1513.437-554.754h.809v6.128c0,1.726-.643,2.546-2.474,2.546-1.952,0-2.381-1.427-2.369-2.9h.81c.024.726-.048,2.214,1.631,2.214,1.26,0,1.594-.643,1.594-2.2Z" transform="translate(-1423.174 566.835)" fill="#0a0b0e"/>
      <path id="Trazado_52093" data-name="Trazado 52093" d="M1518.692-547.032H1518v-1.106h-.022a2.286,2.286,0,0,1-2.119,1.284c-1.546,0-2.153-.9-2.153-2.332v-3.986h.75v4c.036,1.106.452,1.69,1.641,1.69,1.286,0,1.845-1.214,1.845-2.464v-3.224h.749Z" transform="translate(-1421.074 567.607)" fill="#0a0b0e"/>
      <path id="Trazado_52094" data-name="Trazado 52094" d="M1521.8-551.315a1.414,1.414,0,0,0-1.607-1.345c-.665,0-1.451.262-1.451,1.059,0,.667.762.9,1.272,1.036l1,.226a1.8,1.8,0,0,1,1.75,1.7c0,1.333-1.322,1.844-2.464,1.844a2.224,2.224,0,0,1-2.522-2.165h.75a1.618,1.618,0,0,0,1.808,1.536c.7,0,1.678-.31,1.678-1.167,0-.714-.667-.952-1.345-1.119l-.964-.214c-.975-.26-1.713-.6-1.713-1.641,0-1.25,1.226-1.725,2.308-1.725a2.01,2.01,0,0,1,2.248,1.974Z" transform="translate(-1419.087 567.549)" fill="#0a0b0e"/>
      <path id="Trazado_52095" data-name="Trazado 52095" d="M1523.256-552.566h1.248v.631h-1.248v4.141c0,.487.071.772.607.808a5.772,5.772,0,0,0,.641-.036v.643c-.226,0-.439.024-.667.024-1,0-1.344-.333-1.332-1.379v-4.2h-1.07v-.631h1.07v-1.844h.75Z" transform="translate(-1417.303 567.003)" fill="#0a0b0e"/>
      <path id="Trazado_52096" data-name="Trazado 52096" d="M1524.62-553.2h-.609l1.25-1.677h.928Zm-.275,6.995v-6.139h.75v6.139Z" transform="translate(-1416.046 566.777)" fill="#0a0b0e"/>
      <path id="Trazado_52097" data-name="Trazado 52097" d="M1530.14-551.185a1.67,1.67,0,0,0-1.738-1.476c-1.439,0-2.153,1.309-2.153,2.617s.714,2.619,2.153,2.619a1.83,1.83,0,0,0,1.786-1.75h.748a2.5,2.5,0,0,1-2.534,2.379c-1.879,0-2.9-1.487-2.9-3.248s1.022-3.247,2.9-3.247a2.3,2.3,0,0,1,2.488,2.105Z" transform="translate(-1415.32 567.549)" fill="#0a0b0e"/>
      <path id="Trazado_52098" data-name="Trazado 52098" d="M1529.867-554.754h.75v1.2h-.75Zm0,2.355h.75v6.139h-.75Z" transform="translate(-1413.189 566.835)" fill="#0a0b0e"/>
      <path id="Trazado_52099" data-name="Trazado 52099" d="M1531.377-551.232c.071-1.44,1.083-2.058,2.488-2.058,1.082,0,2.26.332,2.26,1.974v3.26a.4.4,0,0,0,.439.451.744.744,0,0,0,.238-.046v.629a2.051,2.051,0,0,1-.488.048c-.76,0-.879-.429-.879-1.07h-.024a2.342,2.342,0,0,1-2.236,1.248c-1.131,0-2.059-.56-2.059-1.8,0-1.725,1.678-1.784,3.3-1.974.619-.073.964-.155.964-.833,0-1.012-.726-1.262-1.605-1.262-.928,0-1.619.429-1.643,1.428Zm4,.9h-.024c-.1.18-.429.24-.631.274-1.274.226-2.855.216-2.855,1.417a1.279,1.279,0,0,0,1.369,1.214,1.974,1.974,0,0,0,2.141-1.928Z" transform="translate(-1412.58 567.549)" fill="#0a0b0e"/>
      <path id="Trazado_52100" data-name="Trazado 52100" d="M1451.7-546.754h1.869v8.495H1451.7Z" transform="translate(-1451.331 570.738)" fill="#0a0b0e"/>
      <path id="Trazado_52101" data-name="Trazado 52101" d="M1453.94-545.125h1.607v.857h.036a2.191,2.191,0,0,1,1.879-1.022c1.8,0,2.248,1.01,2.248,2.534v3.782h-1.689v-3.474c0-1.01-.3-1.51-1.083-1.51-.917,0-1.308.512-1.308,1.76v3.224h-1.69Z" transform="translate(-1450.238 571.453)" fill="#0a0b0e"/>
      <path id="Trazado_52102" data-name="Trazado 52102" d="M1460.091-540.972c.012.738.629,1.036,1.3,1.036.488,0,1.107-.19,1.107-.786,0-.512-.7-.691-1.915-.952-.976-.214-1.952-.56-1.952-1.641,0-1.57,1.357-1.974,2.678-1.974,1.344,0,2.58.451,2.711,1.963h-1.605c-.048-.655-.548-.833-1.155-.833-.381,0-.939.071-.939.571,0,.607.952.69,1.915.915.988.226,1.951.585,1.951,1.726,0,1.619-1.4,2.141-2.808,2.141-1.427,0-2.82-.536-2.891-2.165Z" transform="translate(-1448.021 571.453)" fill="#0a0b0e"/>
      <path id="Trazado_52103" data-name="Trazado 52103" d="M1465.31-544.574h1.236v1.131h-1.236v3.046c0,.571.141.714.713.714a2.6,2.6,0,0,0,.524-.048v1.32a6.473,6.473,0,0,1-.986.06c-1.036,0-1.94-.238-1.94-1.463v-3.629H1462.6v-1.131h1.024v-1.844h1.69Z" transform="translate(-1446.014 570.902)" fill="#0a0b0e"/>
      <path id="Trazado_52104" data-name="Trazado 52104" d="M1467.517-545.361h-1.689v-1.393h1.689Zm-1.689.951h1.689v6.151h-1.689Z" transform="translate(-1444.437 570.738)" fill="#0a0b0e"/>
      <path id="Trazado_52105" data-name="Trazado 52105" d="M1470.188-544.574h1.238v1.131h-1.238v3.046c0,.571.143.714.714.714a2.6,2.6,0,0,0,.524-.048v1.32a6.481,6.481,0,0,1-.988.06c-1.034,0-1.939-.238-1.939-1.463v-3.629h-1.024v-1.131h1.024v-1.844h1.689Z" transform="translate(-1443.633 570.902)" fill="#0a0b0e"/>
      <path id="Trazado_52106" data-name="Trazado 52106" d="M1476.446-539.028h-1.607v-.856h-.036a2.193,2.193,0,0,1-1.879,1.022c-1.8,0-2.248-1.012-2.248-2.534v-3.784h1.689v3.474c0,1.012.3,1.512,1.083,1.512.917,0,1.309-.512,1.309-1.762v-3.224h1.689Z" transform="translate(-1442.072 571.507)" fill="#0a0b0e"/>
      <path id="Trazado_52107" data-name="Trazado 52107" d="M1477.748-544.574h1.238v1.131h-1.238v3.046c0,.571.143.714.713.714a2.619,2.619,0,0,0,.525-.048v1.32a6.484,6.484,0,0,1-.988.06c-1.035,0-1.94-.238-1.94-1.463v-3.629h-1.022v-1.131h1.022v-1.844h1.69Z" transform="translate(-1439.944 570.902)" fill="#0a0b0e"/>
      <path id="Trazado_52108" data-name="Trazado 52108" d="M1484.935-539.045h-.024a2.041,2.041,0,0,1-1.867.952c-1.857,0-2.76-1.594-2.76-3.3,0-1.653.917-3.187,2.724-3.187a2.117,2.117,0,0,1,1.82.915h.024v-3.094h1.689v8.495h-1.605Zm-1.475-4.259c-1.107,0-1.488.952-1.488,1.963,0,.964.44,1.976,1.488,1.976,1.118,0,1.451-.976,1.451-1.988S1484.555-543.3,1483.461-543.3Z" transform="translate(-1437.383 570.738)" fill="#0a0b0e"/>
      <path id="Trazado_52109" data-name="Trazado 52109" d="M1486.837-541.639c.048,1.071.572,1.559,1.51,1.559a1.392,1.392,0,0,0,1.333-.8h1.487a2.765,2.765,0,0,1-2.879,2.07,3,3,0,0,1-3.14-3.236,3.083,3.083,0,0,1,3.14-3.247c2.095,0,3.105,1.76,2.986,3.651Zm2.748-1.07c-.155-.857-.524-1.309-1.345-1.309a1.332,1.332,0,0,0-1.4,1.309Z" transform="translate(-1435.01 571.453)" fill="#0a0b0e"/>
      <path id="Trazado_52110" data-name="Trazado 52110" d="M1492.283-546.754h2.629l1.986,5.842h.024l1.881-5.842h2.629v8.495h-1.75v-6.02h-.024l-2.082,6.02h-1.439l-2.082-5.961h-.024v5.961h-1.75Z" transform="translate(-1431.528 570.738)" fill="#0a0b0e"/>
      <path id="Trazado_52111" data-name="Trazado 52111" d="M1500.909-541.639c.048,1.071.57,1.559,1.51,1.559a1.393,1.393,0,0,0,1.333-.8h1.486a2.766,2.766,0,0,1-2.879,2.07,3,3,0,0,1-3.141-3.236,3.084,3.084,0,0,1,3.141-3.247c2.094,0,3.105,1.76,2.986,3.651Zm2.748-1.07c-.155-.857-.524-1.309-1.345-1.309a1.331,1.331,0,0,0-1.4,1.309Z" transform="translate(-1428.144 571.453)" fill="#0a0b0e"/>
      <path id="Trazado_52112" data-name="Trazado 52112" d="M1508.488-539.045h-.026a2.04,2.04,0,0,1-1.867.952c-1.855,0-2.76-1.594-2.76-3.3,0-1.653.917-3.187,2.725-3.187a2.117,2.117,0,0,1,1.82.915h.024v-3.094h1.69v8.495h-1.605Zm-1.476-4.259c-1.107,0-1.488.952-1.488,1.963,0,.964.44,1.976,1.488,1.976,1.117,0,1.451-.976,1.451-1.988S1508.107-543.3,1507.012-543.3Z" transform="translate(-1425.891 570.738)" fill="#0a0b0e"/>
      <path id="Trazado_52113" data-name="Trazado 52113" d="M1510.621-545.361h-1.69v-1.393h1.69Zm-1.69.951h1.69v6.151h-1.69Z" transform="translate(-1423.405 570.738)" fill="#0a0b0e"/>
      <path id="Trazado_52114" data-name="Trazado 52114" d="M1515.212-542.958a1.15,1.15,0,0,0-1.248-1.059c-1.082,0-1.44,1.1-1.44,2,0,.881.345,1.94,1.4,1.94a1.3,1.3,0,0,0,1.344-1.25h1.631a2.75,2.75,0,0,1-2.962,2.522,2.986,2.986,0,0,1-3.105-3.153,3.043,3.043,0,0,1,3.141-3.33,2.612,2.612,0,0,1,2.891,2.332Z" transform="translate(-1422.476 571.453)" fill="#0a0b0e"/>
      <path id="Trazado_52115" data-name="Trazado 52115" d="M1517.276-545.361h-1.689v-1.393h1.689Zm-1.689.951h1.689v6.151h-1.689Z" transform="translate(-1420.157 570.738)" fill="#0a0b0e"/>
      <path id="Trazado_52116" data-name="Trazado 52116" d="M1517.619-545.125h1.605v.857h.036a2.193,2.193,0,0,1,1.879-1.022c1.8,0,2.25,1.01,2.25,2.534v3.782h-1.69v-3.474c0-1.01-.3-1.51-1.082-1.51-.917,0-1.308.512-1.308,1.76v3.224h-1.69Z" transform="translate(-1419.165 571.453)" fill="#0a0b0e"/>
      <path id="Trazado_52117" data-name="Trazado 52117" d="M1522.377-543.232c.1-1.583,1.512-2.058,2.891-2.058,1.226,0,2.7.274,2.7,1.748v3.2a3.149,3.149,0,0,0,.214,1.367h-1.713a2.5,2.5,0,0,1-.121-.6,2.817,2.817,0,0,1-2.07.762c-1.165,0-2.094-.583-2.094-1.844,0-1.393,1.047-1.725,2.094-1.869s2-.119,2-.808c0-.726-.5-.833-1.095-.833-.643,0-1.06.262-1.119.928Zm3.9,1.248a3.362,3.362,0,0,1-1.4.357c-.524.107-1,.286-1,.9s.488.786,1.036.786a1.256,1.256,0,0,0,1.369-1.416Z" transform="translate(-1416.936 571.453)" fill="#0a0b0e"/>
      <path id="Trazado_52118" data-name="Trazado 52118" d="M1529.3-546.754h1.867v6.925h4.141v1.57H1529.3Z" transform="translate(-1413.466 570.738)" fill="#0a0b0e"/>
      <path id="Trazado_52119" data-name="Trazado 52119" d="M1535.412-541.639c.048,1.071.571,1.559,1.512,1.559a1.391,1.391,0,0,0,1.332-.8h1.488a2.767,2.767,0,0,1-2.879,2.07,3,3,0,0,1-3.141-3.236,3.084,3.084,0,0,1,3.141-3.247c2.094,0,3.105,1.76,2.985,3.651Zm2.748-1.07c-.155-.857-.524-1.309-1.345-1.309a1.331,1.331,0,0,0-1.4,1.309Z" transform="translate(-1411.307 571.453)" fill="#0a0b0e"/>
      <path id="Trazado_52120" data-name="Trazado 52120" d="M1544.49-539.365c0,1.01-.357,2.724-3.189,2.724-1.213,0-2.629-.571-2.711-1.976h1.677a1.142,1.142,0,0,0,1.26.845c.94,0,1.369-.643,1.357-1.524v-.808h-.024a2.078,2.078,0,0,1-1.845.951c-1.844,0-2.629-1.4-2.629-3.092,0-1.6.917-3.046,2.643-3.046a1.916,1.916,0,0,1,1.832.986h.024v-.821h1.605Zm-1.605-2.76c0-1-.345-1.893-1.439-1.893-.952,0-1.369.833-1.369,1.748,0,.881.333,1.845,1.369,1.845A1.514,1.514,0,0,0,1542.884-542.125Z" transform="translate(-1409.032 571.453)" fill="#0a0b0e"/>
      <path id="Trazado_52121" data-name="Trazado 52121" d="M1543.417-543.232c.1-1.583,1.512-2.058,2.891-2.058,1.226,0,2.7.274,2.7,1.748v3.2a3.15,3.15,0,0,0,.214,1.367h-1.713a2.487,2.487,0,0,1-.119-.6,2.822,2.822,0,0,1-2.071.762c-1.165,0-2.094-.583-2.094-1.844,0-1.393,1.048-1.725,2.094-1.869s2-.119,2-.808c0-.726-.5-.833-1.1-.833-.643,0-1.059.262-1.119.928Zm3.9,1.248a3.362,3.362,0,0,1-1.4.357c-.523.107-1,.286-1,.9s.49.786,1.036.786a1.256,1.256,0,0,0,1.369-1.416Z" transform="translate(-1406.67 571.453)" fill="#0a0b0e"/>
      <path id="Trazado_52122" data-name="Trazado 52122" d="M1548.026-546.754h1.689v8.495h-1.689Z" transform="translate(-1404.328 570.738)" fill="#0a0b0e"/>
      <path id="Trazado_52123" data-name="Trazado 52123" d="M1453.3-537.361h-1.69v-1.393h1.69Zm-1.69.951h1.69v6.151h-1.69Z" transform="translate(-1451.374 574.642)" fill="#0a0b0e"/>
      <path id="Trazado_52124" data-name="Trazado 52124" d="M1461.772-535.833a1.835,1.835,0,0,0-1.855-1.486c-1.677,0-2.308,1.427-2.308,2.915,0,1.415.631,2.844,2.308,2.844a1.913,1.913,0,0,0,1.927-1.9h1.809a3.588,3.588,0,0,1-3.736,3.473,4.1,4.1,0,0,1-4.177-4.413c0-2.522,1.548-4.485,4.177-4.485a3.444,3.444,0,0,1,3.663,3.056Z" transform="translate(-1449.36 574.576)" fill="#0a0b0e"/>
      <path id="Trazado_52125" data-name="Trazado 52125" d="M1463.518-537.361h-1.689v-1.393h1.689Zm-1.689.951h1.689v6.151h-1.689Z" transform="translate(-1446.388 574.642)" fill="#0a0b0e"/>
      <path id="Trazado_52126" data-name="Trazado 52126" d="M1465.35-532.89c.048,1.071.572,1.559,1.512,1.559a1.391,1.391,0,0,0,1.332-.8h1.488a2.767,2.767,0,0,1-2.879,2.07,3,3,0,0,1-3.141-3.236,3.084,3.084,0,0,1,3.141-3.247c2.094,0,3.105,1.76,2.985,3.651Zm-.726-5.935h1.869l1.141,1.689h-1.177Zm3.474,4.866c-.155-.857-.524-1.309-1.345-1.309a1.332,1.332,0,0,0-1.4,1.309Z" transform="translate(-1445.495 574.607)" fill="#0a0b0e"/>
      <path id="Trazado_52127" data-name="Trazado 52127" d="M1468.452-537.125h1.607v.857h.036a2.189,2.189,0,0,1,1.879-1.022c1.8,0,2.248,1.01,2.248,2.534v3.782h-1.689v-3.474c0-1.01-.3-1.51-1.083-1.51-.915,0-1.308.512-1.308,1.76v3.224h-1.69Z" transform="translate(-1443.157 575.356)" fill="#0a0b0e"/>
      <path id="Trazado_52128" data-name="Trazado 52128" d="M1477.446-534.958a1.15,1.15,0,0,0-1.248-1.059c-1.083,0-1.439,1.1-1.439,2,0,.881.344,1.94,1.4,1.94a1.3,1.3,0,0,0,1.344-1.25h1.631a2.75,2.75,0,0,1-2.962,2.522,2.986,2.986,0,0,1-3.105-3.153,3.043,3.043,0,0,1,3.141-3.33,2.612,2.612,0,0,1,2.891,2.332Z" transform="translate(-1440.904 575.356)" fill="#0a0b0e"/>
      <path id="Trazado_52129" data-name="Trazado 52129" d="M1479.509-537.361h-1.689v-1.393h1.689Zm-1.689.951h1.689v6.151h-1.689Z" transform="translate(-1438.586 574.642)" fill="#0a0b0e"/>
      <path id="Trazado_52130" data-name="Trazado 52130" d="M1481.341-533.639c.048,1.071.572,1.559,1.512,1.559a1.391,1.391,0,0,0,1.332-.8h1.488a2.767,2.767,0,0,1-2.879,2.07,3,3,0,0,1-3.141-3.236,3.083,3.083,0,0,1,3.141-3.247c2.094,0,3.105,1.76,2.987,3.651Zm2.748-1.07c-.155-.857-.524-1.309-1.344-1.309a1.332,1.332,0,0,0-1.4,1.309Z" transform="translate(-1437.692 575.356)" fill="#0a0b0e"/>
      <path id="Trazado_52131" data-name="Trazado 52131" d="M1485.85-532.972c.012.738.631,1.036,1.3,1.036.49,0,1.107-.19,1.107-.786,0-.512-.7-.69-1.915-.952-.976-.214-1.952-.56-1.952-1.641,0-1.57,1.357-1.974,2.678-1.974,1.344,0,2.582.451,2.713,1.963h-1.607c-.048-.655-.547-.833-1.153-.833-.381,0-.94.071-.94.571,0,.607.952.69,1.915.915.988.226,1.952.585,1.952,1.726,0,1.619-1.4,2.141-2.808,2.141-1.428,0-2.82-.536-2.891-2.165Z" transform="translate(-1435.451 575.356)" fill="#0a0b0e"/>
      <path id="Trazado_52132" data-name="Trazado 52132" d="M1491.084-538.754h5.971v1.571h-4.1v1.963h3.558v1.451h-3.558v3.51h-1.867Z" transform="translate(-1432.113 574.642)" fill="#0a0b0e"/>
      <path id="Trazado_52133" data-name="Trazado 52133" d="M1498.755-537.29a3.02,3.02,0,0,1,3.19,3.247,3.017,3.017,0,0,1-3.19,3.236,3.014,3.014,0,0,1-3.176-3.236A3.016,3.016,0,0,1,1498.755-537.29Zm0,5.211c1.155,0,1.5-.988,1.5-1.964s-.345-1.975-1.5-1.975-1.487.988-1.487,1.975S1497.614-532.079,1498.755-532.079Z" transform="translate(-1429.919 575.356)" fill="#0a0b0e"/>
      <path id="Trazado_52134" data-name="Trazado 52134" d="M1500.595-537.125h1.607v1.143h.024a2.176,2.176,0,0,1,1.962-1.308,1.261,1.261,0,0,1,.369.06v1.57a3.087,3.087,0,0,0-.607-.059c-1.236,0-1.665.891-1.665,1.974v2.772h-1.69Z" transform="translate(-1427.472 575.356)" fill="#0a0b0e"/>
      <path id="Trazado_52135" data-name="Trazado 52135" d="M1505.053-533.639c.048,1.071.57,1.559,1.51,1.559a1.392,1.392,0,0,0,1.333-.8h1.487a2.766,2.766,0,0,1-2.879,2.07,3,3,0,0,1-3.141-3.236,3.084,3.084,0,0,1,3.141-3.247c2.094,0,3.105,1.76,2.986,3.651Zm2.748-1.07c-.155-.857-.524-1.309-1.345-1.309a1.332,1.332,0,0,0-1.4,1.309Z" transform="translate(-1426.122 575.356)" fill="#0a0b0e"/>
      <path id="Trazado_52136" data-name="Trazado 52136" d="M1508.155-537.125h1.605v.857h.036a2.193,2.193,0,0,1,1.881-1.022c1.8,0,2.248,1.01,2.248,2.534v3.782h-1.689v-3.474c0-1.01-.3-1.51-1.083-1.51-.917,0-1.308.512-1.308,1.76v3.224h-1.69Z" transform="translate(-1423.783 575.356)" fill="#0a0b0e"/>
      <path id="Trazado_52137" data-name="Trazado 52137" d="M1514.3-532.972c.012.738.631,1.036,1.3,1.036.488,0,1.105-.19,1.105-.786,0-.512-.7-.69-1.915-.952-.976-.214-1.95-.56-1.95-1.641,0-1.57,1.355-1.974,2.677-1.974,1.344,0,2.582.451,2.712,1.963h-1.605c-.049-.655-.549-.833-1.155-.833-.381,0-.94.071-.94.571,0,.607.952.69,1.915.915.988.226,1.952.585,1.952,1.726,0,1.619-1.4,2.141-2.808,2.141-1.428,0-2.82-.536-2.891-2.165Z" transform="translate(-1421.566 575.356)" fill="#0a0b0e"/>
      <path id="Trazado_52138" data-name="Trazado 52138" d="M1518.684-533.639c.048,1.071.571,1.559,1.512,1.559a1.391,1.391,0,0,0,1.332-.8h1.488a2.766,2.766,0,0,1-2.879,2.07,3,3,0,0,1-3.141-3.236,3.084,3.084,0,0,1,3.141-3.247c2.094,0,3.1,1.76,2.985,3.651Zm2.748-1.07c-.155-.857-.524-1.309-1.345-1.309a1.331,1.331,0,0,0-1.4,1.309Z" transform="translate(-1419.47 575.356)" fill="#0a0b0e"/>
      <path id="Trazado_52139" data-name="Trazado 52139" d="M1523.192-532.972c.012.738.629,1.036,1.3,1.036.488,0,1.107-.19,1.107-.786,0-.512-.7-.69-1.915-.952-.976-.214-1.952-.56-1.952-1.641,0-1.57,1.357-1.974,2.678-1.974,1.344,0,2.58.451,2.711,1.963h-1.605c-.048-.655-.548-.833-1.155-.833-.381,0-.939.071-.939.571,0,.607.952.69,1.915.915.988.226,1.952.585,1.952,1.726,0,1.619-1.4,2.141-2.809,2.141-1.427,0-2.82-.536-2.89-2.165Z" transform="translate(-1417.229 575.356)" fill="#0a0b0e"/>
      <path id="Trazado_52140" data-name="Trazado 52140" d="M1532.783-531.045h-.024a2.043,2.043,0,0,1-1.869.952c-1.855,0-2.76-1.594-2.76-3.3,0-1.653.917-3.187,2.726-3.187a2.119,2.119,0,0,1,1.82.915h.024v-3.094h1.689v8.495h-1.606Zm-1.476-4.258c-1.106,0-1.487.952-1.487,1.963,0,.964.44,1.976,1.487,1.976,1.119,0,1.452-.976,1.452-1.988S1532.4-535.3,1531.307-535.3Z" transform="translate(-1414.036 574.642)" fill="#0a0b0e"/>
      <path id="Trazado_52141" data-name="Trazado 52141" d="M1534.684-533.639c.048,1.071.572,1.559,1.512,1.559a1.391,1.391,0,0,0,1.332-.8h1.488a2.767,2.767,0,0,1-2.879,2.07,3,3,0,0,1-3.141-3.236,3.084,3.084,0,0,1,3.141-3.247c2.094,0,3.1,1.76,2.985,3.651Zm2.749-1.07c-.155-.857-.524-1.309-1.345-1.309a1.332,1.332,0,0,0-1.4,1.309Z" transform="translate(-1411.662 575.356)" fill="#0a0b0e"/>
      <path id="Trazado_52142" data-name="Trazado 52142" d="M1545.914-535.833a1.834,1.834,0,0,0-1.855-1.486c-1.677,0-2.308,1.427-2.308,2.915,0,1.415.631,2.844,2.308,2.844a1.913,1.913,0,0,0,1.927-1.9h1.809a3.588,3.588,0,0,1-3.736,3.473,4.1,4.1,0,0,1-4.177-4.413c0-2.522,1.547-4.485,4.177-4.485a3.444,3.444,0,0,1,3.663,3.056Z" transform="translate(-1408.302 574.576)" fill="#0a0b0e"/>
      <path id="Trazado_52143" data-name="Trazado 52143" d="M1545.953-535.232c.1-1.583,1.51-2.058,2.891-2.058,1.225,0,2.7.274,2.7,1.748v3.2a3.15,3.15,0,0,0,.214,1.367h-1.714a2.488,2.488,0,0,1-.119-.6,2.819,2.819,0,0,1-2.07.762c-1.167,0-2.094-.583-2.094-1.844,0-1.393,1.046-1.725,2.094-1.869s2-.119,2-.808c0-.726-.5-.833-1.094-.833-.643,0-1.059.262-1.119.929Zm3.9,1.248a3.362,3.362,0,0,1-1.4.357c-.524.107-1,.286-1,.9s.488.786,1.036.786a1.256,1.256,0,0,0,1.367-1.417Z" transform="translate(-1405.432 575.356)" fill="#0a0b0e"/>
      <path id="Trazado_52144" data-name="Trazado 52144" d="M1552.859-536.574h1.237v1.131h-1.237v3.046c0,.571.143.714.713.714a2.6,2.6,0,0,0,.524-.048v1.32a6.476,6.476,0,0,1-.987.059c-1.035,0-1.939-.238-1.939-1.463v-3.629h-1.024v-1.131h1.024v-1.844h1.689Z" transform="translate(-1403.293 574.806)" fill="#0a0b0e"/>
      <path id="Trazado_52145" data-name="Trazado 52145" d="M1553.36-535.232c.1-1.583,1.512-2.058,2.891-2.058,1.226,0,2.7.274,2.7,1.748v3.2a3.15,3.15,0,0,0,.214,1.367h-1.713a2.512,2.512,0,0,1-.119-.6,2.819,2.819,0,0,1-2.07.762c-1.167,0-2.094-.583-2.094-1.844,0-1.393,1.046-1.725,2.094-1.869s2-.119,2-.808c0-.726-.5-.833-1.1-.833-.641,0-1.058.262-1.118.929Zm3.9,1.248a3.365,3.365,0,0,1-1.4.357c-.524.107-1,.286-1,.9s.488.786,1.035.786a1.256,1.256,0,0,0,1.368-1.417Z" transform="translate(-1401.817 575.356)" fill="#0a0b0e"/>
      <path id="Trazado_52146" data-name="Trazado 52146" d="M1557.97-538.754h1.69v8.495h-1.69Z" transform="translate(-1399.476 574.642)" fill="#0a0b0e"/>
      <path id="Trazado_52147" data-name="Trazado 52147" d="M1565.772-531.028h-1.607v-.856h-.036a2.193,2.193,0,0,1-1.879,1.022c-1.8,0-2.248-1.012-2.248-2.534v-3.784h1.689v3.474c0,1.012.3,1.512,1.083,1.512.917,0,1.31-.512,1.31-1.762v-3.224h1.689Z" transform="translate(-1398.484 575.411)" fill="#0a0b0e"/>
      <path id="Trazado_52148" data-name="Trazado 52148" d="M1564.746-537.125h1.607v.857h.035a2.19,2.19,0,0,1,1.879-1.022c1.8,0,2.248,1.01,2.248,2.534v3.782h-1.689v-3.474c0-1.01-.3-1.51-1.083-1.51-.915,0-1.31.512-1.31,1.76v3.224h-1.689Z" transform="translate(-1396.169 575.356)" fill="#0a0b0e"/>
      <path id="Trazado_52149" data-name="Trazado 52149" d="M1572.758-530.254a1.929,1.929,0,0,1-2.118,1.391,9.6,9.6,0,0,1-1.034-.06v-1.391a8.957,8.957,0,0,0,.986.06.8.8,0,0,0,.583-1.155l-2.165-5.77h1.808l1.393,4.212h.022l1.345-4.212h1.748Z" transform="translate(-1394.088 575.411)" fill="#0a0b0e"/>
      <path id="Trazado_52150" data-name="Trazado 52150" d="M1573.656-535.232c.1-1.583,1.512-2.058,2.891-2.058,1.226,0,2.7.274,2.7,1.748v3.2a3.15,3.15,0,0,0,.214,1.367h-1.713a2.5,2.5,0,0,1-.119-.6,2.819,2.819,0,0,1-2.07.762c-1.167,0-2.1-.583-2.1-1.844,0-1.393,1.048-1.725,2.1-1.869s2-.119,2-.808c0-.726-.5-.833-1.1-.833-.643,0-1.058.262-1.117.929Zm3.9,1.248a3.362,3.362,0,0,1-1.4.357c-.525.107-1,.286-1,.9s.488.786,1.034.786a1.256,1.256,0,0,0,1.369-1.417Z" transform="translate(-1391.914 575.356)" fill="#0a0b0e"/>
    </g>
    <g id="Grupo_7088" data-name="Grupo 7088" transform="translate(1426.954 -564.607)">
      <path id="Trazado_52151" data-name="Trazado 52151" d="M1442.105-564.486c-8.255,0-14.947,7.8-14.947,17.425s6.691,17.428,14.947,17.428,14.947-7.8,14.947-17.428-6.691-17.425-14.947-17.425Z" transform="translate(-1426.854 564.666)" fill="#c00000"/>
      <path id="Trazado_52152" data-name="Trazado 52152" d="M1430.9-541.7a17.058,17.058,0,0,1-2.12-8.34,17.049,17.049,0,0,1,2.12-8.339V-541.7Z" transform="translate(-1426.065 567.646)" fill="#fff"/>
      <path id="Trazado_52153" data-name="Trazado 52153" d="M1432.337-560.425a12.059,12.059,0,0,1,2.713-1.742v27.951a12.165,12.165,0,0,1-2.713-1.742v-24.466Z" transform="translate(-1424.327 565.798)" fill="#fff"/>
      <path id="Trazado_52154" data-name="Trazado 52154" d="M1436.3-562.758a10.715,10.715,0,0,1,1.351-.086,10.6,10.6,0,0,1,1.362.088v29.792a11.152,11.152,0,0,1-1.362.088,10.693,10.693,0,0,1-1.351-.088v-29.793Z" transform="translate(-1422.395 565.468)" fill="#fff"/>
      <path id="Trazado_52155" data-name="Trazado 52155" d="M1440.255-562.164a12.054,12.054,0,0,1,2.711,1.745v24.452a11.944,11.944,0,0,1-2.711,1.745v-27.942Z" transform="translate(-1420.464 565.799)" fill="#fff"/>
      <path id="Trazado_52156" data-name="Trazado 52156" d="M1444.214-558.367a17.056,17.056,0,0,1,2.11,8.321,17.049,17.049,0,0,1-2.11,8.322v-16.643Z" transform="translate(-1418.532 567.652)" fill="#fff"/>
      <path id="Trazado_52157" data-name="Trazado 52157" d="M1442.966-561.5v.836a12.253,12.253,0,0,0-2.711-1.649v-.726a12.81,12.81,0,0,1,2.711,1.538Z" transform="translate(-1420.464 565.374)" fill="#fff"/>
      <path id="Trazado_52158" data-name="Trazado 52158" d="M1437.647-563.646a11.771,11.771,0,0,1,1.362.08v.672a11.453,11.453,0,0,0-1.362-.083,11.293,11.293,0,0,0-1.351.082v-.674a12.34,12.34,0,0,1,1.351-.077Z" transform="translate(-1422.395 565.076)" fill="#fff"/>
      <path id="Trazado_52159" data-name="Trazado 52159" d="M1435.05-563.039v.726a12.447,12.447,0,0,0-2.713,1.646v-.835a13.018,13.018,0,0,1,2.713-1.537Z" transform="translate(-1424.327 565.372)" fill="#fff"/>
      <path id="Trazado_52160" data-name="Trazado 52160" d="M1427.991-549.329a17.907,17.907,0,0,1,3.288-10.509v1.176a17.425,17.425,0,0,0-2.628,9.334,17.427,17.427,0,0,0,2.628,9.336v1.175a17.912,17.912,0,0,1-3.288-10.511Z" transform="translate(-1426.448 566.934)" fill="#fff"/>
      <path id="Trazado_52161" data-name="Trazado 52161" d="M1432.337-543.269v-.835a12.562,12.562,0,0,0,2.713,1.646v.723a12.875,12.875,0,0,1-2.713-1.534Z" transform="translate(-1424.327 574.612)" fill="#fff"/>
      <path id="Trazado_52162" data-name="Trazado 52162" d="M1437.647-541.655a11.986,11.986,0,0,1-1.351-.079v-.676a11,11,0,0,0,1.351.083,11.453,11.453,0,0,0,1.362-.083v.673a11.479,11.479,0,0,1-1.362.082Z" transform="translate(-1422.395 575.439)" fill="#fff"/>
      <path id="Trazado_52163" data-name="Trazado 52163" d="M1440.255-541.736v-.726a12.354,12.354,0,0,0,2.711-1.647v.835a12.816,12.816,0,0,1-2.711,1.539Z" transform="translate(-1420.464 574.609)" fill="#fff"/>
      <path id="Trazado_52164" data-name="Trazado 52164" d="M1444.214-540.012a17.438,17.438,0,0,0,2.619-9.321,17.434,17.434,0,0,0-2.619-9.319v-1.177a17.92,17.92,0,0,1,3.278,10.5,17.925,17.925,0,0,1-3.278,10.5v-1.177Z" transform="translate(-1418.532 566.939)" fill="#fff"/>
      <path id="Trazado_52165" data-name="Trazado 52165" d="M1450.1-539.076a4.165,4.165,0,0,1,.7-1.205,4.742,4.742,0,0,1-.964-.588,4.263,4.263,0,0,0,.895-2.4l-.079-5.526h-.079a17.636,17.636,0,0,1-2.049,4.851c-.262.384-.314.485-.461.713a3.041,3.041,0,0,0-.559,1.83,4.434,4.434,0,0,1-1.117-.048,2.867,2.867,0,0,1-.009,1.184c-1.6.06-1.9,1.037-3.623,1.928a15.191,15.191,0,0,1-2.163.963v.091c3.235-.1,4.663.427,6.465-.784a4.709,4.709,0,0,1,.458.991,4.03,4.03,0,0,1,1.22-.668,2.478,2.478,0,0,0,2,.656,2.3,2.3,0,0,0-.631-1.991Z" transform="translate(-1420.298 572.324)" fill="#c00000"/>
      <path id="Trazado_52166" data-name="Trazado 52166" d="M1447.632-542.853c-.211.086-1.314.454-1.314.454l-.015.013a.663.663,0,0,0-.062-.255l-.006-.018a1.447,1.447,0,0,0,.588-.588l.04-.043,0,.006a2.209,2.209,0,0,0,.766.43Z" transform="translate(-1417.546 575.009)" fill="#fff"/>
      <path id="Trazado_52167" data-name="Trazado 52167" d="M1447.228-545.32a14.963,14.963,0,0,0,.945-3.192,27.8,27.8,0,0,1-2.058,7.952.855.855,0,0,0-.311-.042,1.125,1.125,0,0,1-.225-.519c-.461-1.5.978-2.469,1.649-4.2Z" transform="translate(-1417.909 572.461)" fill="#fff"/>
      <path id="Trazado_52168" data-name="Trazado 52168" d="M1444.714-543.631l.98.817,0,.009a.741.741,0,0,0-.083.07.731.731,0,0,0-.119.153l0,.015a1.954,1.954,0,0,0-.787-.229,1.616,1.616,0,0,0,.009-.835Z" transform="translate(-1418.292 574.843)" fill="#fff"/>
      <path id="Trazado_52169" data-name="Trazado 52169" d="M1440.915-540.327l1.256-.39c1.982-.713,2.693-2.193,4.187-2.11a2.1,2.1,0,0,1,.851.245h0a.844.844,0,0,0,.048.307h-.021a20.087,20.087,0,0,1-6.321,1.948Z" transform="translate(-1420.142 575.233)" fill="#fff"/>
      <path id="Trazado_52170" data-name="Trazado 52170" d="M1445.435-540.731a1.894,1.894,0,0,0-.313-.765,1.374,1.374,0,0,0,.466-.644l.007,0a.719.719,0,0,0,.305.1l.01,0-.476,1.308Z" transform="translate(-1418.089 575.57)" fill="#fff"/>
      <path id="Trazado_52171" data-name="Trazado 52171" d="M1445.532-542.122a.492.492,0,0,1,0-.693.489.489,0,0,1,.693,0,.489.489,0,0,1,0,.692.492.492,0,0,1-.693,0Z" transform="translate(-1417.958 575.171)" fill="#fff"/>
      <path id="Trazado_52172" data-name="Trazado 52172" d="M1446.217-541.34a1.169,1.169,0,0,1-.287-.689.778.778,0,0,0,.35-.256l1.53,1.65a2.017,2.017,0,0,1-1.592-.705Z" transform="translate(-1417.694 575.499)" fill="#fff"/>
      <path id="Trazado_52173" data-name="Trazado 52173" d="M1450.1-562.584a4.17,4.17,0,0,0,.7,1.207,4.8,4.8,0,0,0-.964.586,4.275,4.275,0,0,1,.895,2.4l-.079,5.525h-.079a17.664,17.664,0,0,0-2.049-4.852c-.262-.382-.314-.484-.461-.713a3.024,3.024,0,0,1-.559-1.829,4.441,4.441,0,0,0-1.117.049,2.875,2.875,0,0,0-.009-1.186c-1.6-.058-1.9-1.037-3.623-1.927a14.855,14.855,0,0,0-2.163-.963v-.092c3.235.1,4.663-.424,6.465.786a4.785,4.785,0,0,0,.458-.991,4.031,4.031,0,0,0,1.22.668,2.468,2.468,0,0,1,2-.656,2.3,2.3,0,0,1-.631,1.989Z" transform="translate(-1420.298 564.617)" fill="#c00000"/>
      <path id="Trazado_52174" data-name="Trazado 52174" d="M1447.632-562.352c-.211-.086-1.314-.454-1.314-.454l-.015-.015a.684.684,0,0,1-.062.257l-.006.016a1.447,1.447,0,0,1,.588.586l.04.045,0-.006a2.181,2.181,0,0,1,.766-.43Z" transform="translate(-1417.546 565.479)" fill="#fff"/>
      <path id="Trazado_52175" data-name="Trazado 52175" d="M1447.228-557.574a14.989,14.989,0,0,1,.945,3.192,27.773,27.773,0,0,0-2.058-7.952.918.918,0,0,1-.311.043,1.11,1.11,0,0,0-.225.518c-.461,1.5.978,2.467,1.649,4.2Z" transform="translate(-1417.909 565.716)" fill="#fff"/>
      <path id="Trazado_52176" data-name="Trazado 52176" d="M1444.714-561.524l.98-.817,0-.007a.608.608,0,0,1-.083-.07.769.769,0,0,1-.119-.153l0-.015a1.91,1.91,0,0,1-.787.226,1.621,1.621,0,0,1,.009.836Z" transform="translate(-1418.292 565.593)" fill="#fff"/>
      <path id="Trazado_52177" data-name="Trazado 52177" d="M1440.915-564.354l1.256.39c1.982.711,2.693,2.192,4.187,2.108a2.078,2.078,0,0,0,.851-.246h0a.825.825,0,0,1,.048-.3h-.021a19.97,19.97,0,0,0-6.321-1.948Z" transform="translate(-1420.142 564.731)" fill="#fff"/>
      <path id="Trazado_52178" data-name="Trazado 52178" d="M1445.435-564.31a1.891,1.891,0,0,1-.313.766,1.355,1.355,0,0,1,.466.643l.007,0a.7.7,0,0,1,.305-.1l.01,0-.476-1.309Z" transform="translate(-1418.089 564.752)" fill="#fff"/>
      <path id="Trazado_52179" data-name="Trazado 52179" d="M1445.532-563.058a.488.488,0,0,0,0,.69.49.49,0,0,0,.693,0,.489.489,0,0,0,0-.692.492.492,0,0,0-.693,0Z" transform="translate(-1417.958 565.293)" fill="#fff"/>
      <path id="Trazado_52180" data-name="Trazado 52180" d="M1446.217-563.619a1.166,1.166,0,0,0-.287.689.769.769,0,0,1,.35.253l1.53-1.647a2.012,2.012,0,0,0-1.592.705Z" transform="translate(-1417.694 564.743)" fill="#fff"/>
      <path id="Trazado_52181" data-name="Trazado 52181" d="M1427.652-539.094a4.146,4.146,0,0,0-.7-1.207,4.8,4.8,0,0,0,.964-.586,4.275,4.275,0,0,1-.894-2.4l.079-5.526h.079a17.751,17.751,0,0,0,2.048,4.852c.262.384.314.484.462.713a3.03,3.03,0,0,1,.558,1.827,4.347,4.347,0,0,0,1.116-.046,3.032,3.032,0,0,0,.009,1.184c1.6.061,1.9,1.036,3.625,1.927a15.14,15.14,0,0,0,2.165.963v.094c-3.235-.1-4.663.425-6.465-.787a4.624,4.624,0,0,0-.458.993,4.073,4.073,0,0,0-1.219-.668,2.5,2.5,0,0,1-2,.658,2.3,2.3,0,0,1,.631-1.991Z" transform="translate(-1426.954 572.315)" fill="#c00000"/>
      <path id="Trazado_52182" data-name="Trazado 52182" d="M1427.235-542.875c.213.086,1.315.455,1.315.455l.013.015a.716.716,0,0,1,.064-.258l0-.018a1.48,1.48,0,0,1-.588-.585c0-.007-.037-.048-.04-.045v.006a2.17,2.17,0,0,1-.768.428Z" transform="translate(-1426.817 575)" fill="#fff"/>
      <path id="Trazado_52183" data-name="Trazado 52183" d="M1428.062-545.34a15,15,0,0,1-.946-3.192,27.8,27.8,0,0,0,2.059,7.952.92.92,0,0,1,.31-.043,1.132,1.132,0,0,0,.226-.518c.46-1.5-.979-2.467-1.649-4.2Z" transform="translate(-1426.875 572.451)" fill="#fff"/>
      <path id="Trazado_52184" data-name="Trazado 52184" d="M1430.021-543.65l-.98.815,0,.007a.971.971,0,0,1,.083.071.823.823,0,0,1,.118.153l0,.015a1.953,1.953,0,0,1,.787-.229,1.615,1.615,0,0,1-.009-.833Z" transform="translate(-1425.938 574.833)" fill="#fff"/>
      <path id="Trazado_52185" data-name="Trazado 52185" d="M1435.575-540.346l-1.256-.391c-1.983-.714-2.695-2.193-4.188-2.11a2.1,2.1,0,0,0-.85.246h0a.839.839,0,0,1-.047.307h.021a20.1,20.1,0,0,0,6.321,1.949Z" transform="translate(-1425.842 575.224)" fill="#fff"/>
      <path id="Trazado_52186" data-name="Trazado 52186" d="M1429.233-540.751a1.929,1.929,0,0,1,.314-.765,1.334,1.334,0,0,1-.463-.644l-.009,0a.7.7,0,0,1-.3.1l-.013,0,.476,1.311Z" transform="translate(-1426.074 575.56)" fill="#fff"/>
      <path id="Trazado_52187" data-name="Trazado 52187" d="M1429.2-542.144a.487.487,0,0,0,0-.69.489.489,0,0,0-.692,0,.489.489,0,0,0,0,.69.489.489,0,0,0,.692,0Z" transform="translate(-1426.268 575.162)" fill="#fff"/>
      <path id="Trazado_52188" data-name="Trazado 52188" d="M1428.81-541.361a1.177,1.177,0,0,0,.287-.689.776.776,0,0,1-.351-.253l-1.53,1.646a2.014,2.014,0,0,0,1.594-.7Z" transform="translate(-1426.826 575.491)" fill="#fff"/>
      <path id="Trazado_52189" data-name="Trazado 52189" d="M1427.652-562.606a4.117,4.117,0,0,1-.7,1.208,4.793,4.793,0,0,1,.964.585,4.279,4.279,0,0,0-.894,2.4l.079,5.528h.079a17.684,17.684,0,0,1,2.048-4.851c.262-.385.314-.487.462-.714a3.031,3.031,0,0,0,.558-1.829,4.415,4.415,0,0,1,1.116.048,3.033,3.033,0,0,1,.009-1.184c1.6-.061,1.9-1.037,3.625-1.928a14.984,14.984,0,0,1,2.165-.963v-.094c-3.235.1-4.663-.424-6.465.789a4.656,4.656,0,0,1-.458-.992,4.144,4.144,0,0,1-1.219.67,2.481,2.481,0,0,0-2-.659,2.3,2.3,0,0,0,.631,1.989Z" transform="translate(-1426.954 564.607)" fill="#c00000"/>
      <path id="Trazado_52190" data-name="Trazado 52190" d="M1427.235-562.372c.213-.086,1.315-.455,1.315-.455l.013-.015a.708.708,0,0,0,.064.257l0,.019a1.46,1.46,0,0,0-.588.585l-.04.045v0a2.166,2.166,0,0,0-.768-.432Z" transform="translate(-1426.817 565.468)" fill="#fff"/>
      <path id="Trazado_52191" data-name="Trazado 52191" d="M1428.062-557.594a15.024,15.024,0,0,0-.946,3.192,27.761,27.761,0,0,1,2.059-7.952.9.9,0,0,0,.31.042,1.131,1.131,0,0,1,.226.518c.46,1.5-.979,2.467-1.649,4.2Z" transform="translate(-1426.875 565.707)" fill="#fff"/>
      <path id="Trazado_52192" data-name="Trazado 52192" d="M1430.021-561.544l-.98-.818,0-.006a.765.765,0,0,0,.083-.07.834.834,0,0,0,.118-.155l0-.013a1.912,1.912,0,0,0,.787.226,1.622,1.622,0,0,0-.009.836Z" transform="translate(-1425.938 565.584)" fill="#fff"/>
      <path id="Trazado_52193" data-name="Trazado 52193" d="M1435.575-564.375l-1.256.393c-1.983.711-2.695,2.192-4.188,2.107a2.1,2.1,0,0,1-.85-.244h0a.829.829,0,0,0-.047-.307h.021a20.1,20.1,0,0,1,6.321-1.949Z" transform="translate(-1425.842 564.72)" fill="#fff"/>
      <path id="Trazado_52194" data-name="Trazado 52194" d="M1429.233-564.33a1.916,1.916,0,0,0,.314.766,1.312,1.312,0,0,0-.463.643l-.009,0a.715.715,0,0,0-.3-.1h-.013l.476-1.309Z" transform="translate(-1426.074 564.742)" fill="#fff"/>
      <path id="Trazado_52195" data-name="Trazado 52195" d="M1429.2-563.078a.491.491,0,0,1,0,.693.49.49,0,0,1-.692,0,.49.49,0,0,1,0-.692.488.488,0,0,1,.692,0Z" transform="translate(-1426.268 565.282)" fill="#fff"/>
      <path id="Trazado_52196" data-name="Trazado 52196" d="M1428.81-563.638a1.172,1.172,0,0,1,.287.688.8.8,0,0,0-.351.254l-1.53-1.649a2.022,2.022,0,0,1,1.594.707Z" transform="translate(-1426.826 564.732)" fill="#fff"/>
    </g>
  </g>
</svg>
