<?xml version="1.0" encoding="utf-8"?>
<!-- Generator: Adobe Illustrator 23.0.0, SVG Export Plug-In . SVG Version: 6.00 Build 0)  -->
<svg version="1.0" xmlns="http://www.w3.org/2000/svg" xmlns:xlink="http://www.w3.org/1999/xlink" x="0px" y="0px" width="24px"
	 height="24px" viewBox="0 0 24 24" enable-background="new 0 0 24 24" xml:space="preserve">
<g id="White">
</g>
<g id="Black">
</g>
<g id="Color">
	<g>
		<path fill="#17A2B8" d="M12,16l-4.5-4.5c-0.3-0.3-0.3-0.7,0-1s0.7-0.3,1,0L12,14l3.5-3.5c0.3-0.3,0.7-0.3,1,0s0.3,0.7,0,1L12,16z"
			/>
	</g>
</g>
</svg>
