<?xml version="1.0" encoding="utf-8"?>
<!-- Generator: Adobe Illustrator 23.0.0, SVG Export Plug-In . SVG Version: 6.00 Build 0)  -->
<svg version="1.0" xmlns="http://www.w3.org/2000/svg" xmlns:xlink="http://www.w3.org/1999/xlink" x="0px" y="0px" width="24px"
	 height="24px" viewBox="0 0 24 24" enable-background="new 0 0 24 24" xml:space="preserve">
<g id="White">
</g>
<g id="Black">
	<g>
		<path d="M7.3,12L18.1,1.2c0.3-0.3,0.3-0.7,0-1c-0.3-0.3-0.7-0.3-1,0L5.9,11.5c-0.3,0.3-0.3,0.7,0,1l11.3,11.3
			c0.1,0.1,0.3,0.2,0.5,0.2c0.2,0,0.3-0.1,0.5-0.2c0.3-0.3,0.3-0.7,0-1L7.3,12z"/>
	</g>
</g>
<g id="Color">
</g>
</svg>
