<?xml version="1.0" encoding="utf-8"?>
<!-- Generator: Adobe Illustrator 23.0.0, SVG Export Plug-In . SVG Version: 6.00 Build 0)  -->
<svg version="1.0" xmlns="http://www.w3.org/2000/svg" xmlns:xlink="http://www.w3.org/1999/xlink" x="0px" y="0px" width="24px"
	 height="24px" viewBox="0 0 24 24" enable-background="new 0 0 24 24" xml:space="preserve">
<g id="White">
	<g>
		<path fill="#FFFFFF" d="M19.7,6.4c-0.4-0.4-0.9-0.6-1.5-0.6H6.1C5,5.7,4,6.7,4,7.9v8.3c0,1.2,1,2.1,2.1,2.1h12.1
			c1.2,0,2.1-1,2.1-2.1V7.9C20.4,7.3,20.1,6.8,19.7,6.4z M5.3,7.9C5.3,7.4,5.7,7,6.1,7h12.1c0.5,0,0.9,0.4,0.9,0.9v8.3
			c0,0.5-0.4,0.8-0.9,0.8H6.1c-0.5,0-0.9-0.4-0.9-0.9V7.9z"/>
		<path fill="#FFFFFF" d="M17.5,14.9l-3.1-3l3.1-2.8c0.3-0.2,0.3-0.6,0-0.9c-0.2-0.3-0.7-0.3-0.9,0l-4.4,3.9l-0.7-0.6
			c0,0-0.1-0.1-0.1-0.1L7.8,8.2C7.7,8,7.5,8,7.3,8C7.1,8,7,8.1,6.9,8.2C6.7,8.3,6.7,8.5,6.7,8.7c0,0.2,0.1,0.3,0.2,0.4l3.1,2.8
			l-3.1,2.9c-0.3,0.2-0.3,0.7,0,0.9c0.2,0.2,0.7,0.3,0.9,0l3.2-3l0.7,0.7c0.2,0.2,0.6,0.2,0.9,0l0.8-0.7l3.2,3
			c0.1,0.1,0.3,0.2,0.4,0.2c0.2,0,0.3-0.1,0.5-0.2c0.1-0.1,0.2-0.3,0.2-0.5C17.7,15.2,17.6,15,17.5,14.9z"/>
	</g>
</g>
<g id="Black">
</g>
<g id="Color">
</g>
</svg>
