<?xml version="1.0" encoding="utf-8"?>
<!-- Generator: Adobe Illustrator 23.0.0, SVG Export Plug-In . SVG Version: 6.00 Build 0)  -->
<svg version="1.0" xmlns="http://www.w3.org/2000/svg" xmlns:xlink="http://www.w3.org/1999/xlink" x="0px" y="0px" width="24px"
	 height="24px" viewBox="0 0 24 24" enable-background="new 0 0 24 24" xml:space="preserve">
<g id="White">
</g>
<g id="Black">
	<g>
		<g>
			<path d="M8.1,9.9c-0.3,0.3-0.3,0.7,0,0.9l3.4,3.4c0.1,0.1,0.3,0.2,0.5,0.2c0.2,0,0.3-0.1,0.5-0.2l3.4-3.4c0.3-0.3,0.3-0.7,0-0.9
				c-0.3-0.3-0.7-0.3-0.9,0l-2.3,2.3V1.1c0-0.4-0.3-0.6-0.6-0.6c-0.4,0-0.6,0.3-0.6,0.6v11.1L9,9.9C8.8,9.7,8.3,9.7,8.1,9.9z"/>
			<path d="M22.6,15.3l-2.3-8.2c-0.1-0.2-0.2-0.3-0.4-0.4l-0.1,0c-0.1,0-0.2-0.1-0.3-0.1h-4.1c-0.4,0-0.6,0.3-0.6,0.6
				s0.3,0.6,0.6,0.6h3.6l1.9,6.9h-5c-0.4,0-0.6,0.3-0.6,0.6V16c0,0.9-0.7,1.6-1.6,1.6h-4c-0.9,0-1.6-0.7-1.6-1.6v-0.6
				c0-0.4-0.3-0.6-0.6-0.6H2.9l1.9-6.9h3.6c0.4,0,0.6-0.3,0.6-0.6c0-0.4-0.3-0.6-0.6-0.6H4.3c-0.1,0-0.2,0-0.3,0.1L4,6.7
				C3.8,6.7,3.7,6.9,3.6,7.1l-2.3,8.2c0,0.1,0,0.1,0,0.2v3.4c0,2.6,2.1,4.7,4.7,4.7H18c2.6,0,4.7-2.1,4.7-4.7v-3.4
				C22.6,15.4,22.6,15.3,22.6,15.3z M21.3,18.8c0,1.9-1.5,3.4-3.4,3.4H6c-1.9,0-3.4-1.5-3.4-3.4v-2.7h4.4c0,1.5,1.3,2.8,2.9,2.8h4
				c1.6,0,2.8-1.2,2.9-2.8h4.6L21.3,18.8L21.3,18.8z"/>
		</g>
	</g>
</g>
<g id="Color">
</g>
</svg>
