<?xml version="1.0" standalone="no"?>
<!DOCTYPE svg PUBLIC "-//W3C//DTD SVG 1.1//EN" "http://www.w3.org/Graphics/SVG/1.1/DTD/svg11.dtd" >
<svg xmlns="http://www.w3.org/2000/svg">
<metadata></metadata>
<defs>
<font id="open_sanslight_italic" horiz-adv-x="1128" >
<font-face units-per-em="2048" ascent="1638" descent="-410" />
<missing-glyph horiz-adv-x="532" />
<glyph unicode="&#xfb01;" horiz-adv-x="1040" d="M-250 -383q53 -16 100 -16q88 0 134 53t75 186l246 1166h-205l14 67l205 14l35 160q35 168 116.5 244t227.5 76q73 0 166 -31l-25 -80q-87 27 -147 27q-96 0 -153.5 -53.5t-84.5 -178.5l-35 -164h248l-16 -81h-248l-252 -1190q-33 -161 -104 -234.5t-195 -73.5 q-48 0 -102 19v90zM641 0l231 1087h96l-229 -1087h-98zM915 1366q0 55 22 88t60 33q57 0 57 -72q0 -57 -22 -90t-57 -33q-29 0 -44.5 19.5t-15.5 54.5z" />
<glyph unicode="&#xfb02;" horiz-adv-x="1042" d="M-250 -383q53 -16 100 -16q88 0 134 53t75 186l246 1166h-205l14 67l205 14l35 160q35 168 116.5 244t227.5 76q73 0 166 -31l-25 -80q-87 27 -147 27q-96 0 -153.5 -53.5t-84.5 -178.5l-35 -164h248l-16 -81h-248l-252 -1190q-33 -161 -104 -234.5t-195 -73.5 q-48 0 -102 19v90zM643 0l334 1556h94l-334 -1556h-94z" />
<glyph unicode="&#xfb03;" horiz-adv-x="1616" d="M-250 -383q53 -16 100 -16q88 0 134 53t75 186l246 1166h-205l14 67l205 14l35 160q35 168 116.5 244t227.5 76q73 0 166 -31l-25 -80q-87 27 -147 27q-96 0 -153.5 -53.5t-84.5 -178.5l-35 -164h477l35 160q35 168 116.5 244t227.5 76q73 0 166 -31l-24 -80 q-87 27 -148 27q-97 0 -154.5 -54.5t-82.5 -177.5l-35 -164h248l-17 -81h-248l-252 -1190q-34 -165 -105.5 -236.5t-193.5 -71.5q-48 0 -102 19v90q53 -16 100 -16q88 0 134 53t75 186l244 1166h-477l-252 -1190q-33 -161 -104 -234.5t-195 -73.5q-48 0 -102 19v90zM1217 0 l231 1087h96l-229 -1087h-98zM1491 1366q0 55 22 88t60 33q57 0 57 -72q0 -57 -22 -90t-57 -33q-29 0 -44.5 19.5t-15.5 54.5z" />
<glyph unicode="&#xfb04;" horiz-adv-x="1626" d="M-250 -383q53 -16 100 -16q88 0 134 53t75 186l246 1166h-205l14 67l205 14l35 160q35 168 116.5 244t227.5 76q73 0 166 -31l-25 -80q-87 27 -147 27q-96 0 -153.5 -53.5t-84.5 -178.5l-35 -164h477l35 160q35 168 116.5 244t227.5 76q73 0 166 -31l-24 -80 q-87 27 -148 27q-97 0 -154.5 -54.5t-82.5 -177.5l-35 -164h248l-17 -81h-248l-252 -1190q-34 -165 -105.5 -236.5t-193.5 -71.5q-48 0 -102 19v90q53 -16 100 -16q88 0 134 53t75 186l244 1166h-477l-252 -1190q-33 -161 -104 -234.5t-195 -73.5q-48 0 -102 19v90zM1227 0 l334 1556h94l-334 -1556h-94z" />
<glyph horiz-adv-x="2048" />
<glyph horiz-adv-x="2048" />
<glyph unicode="&#xd;" horiz-adv-x="1044" />
<glyph unicode=" "  horiz-adv-x="532" />
<glyph unicode="&#x09;" horiz-adv-x="532" />
<glyph unicode="&#xa0;" horiz-adv-x="532" />
<glyph unicode="!" horiz-adv-x="502" d="M80 57q0 56 25 88.5t69 32.5q66 0 66 -72q0 -53 -25 -87.5t-68 -34.5q-67 0 -67 73zM186 377l203 1085h119l-260 -1085h-62z" />
<glyph unicode="&#x22;" horiz-adv-x="721" d="M248 934l80 528h127l-146 -528h-61zM578 934l79 528h127l-145 -528h-61z" />
<glyph unicode="#" horiz-adv-x="1323" d="M82 451l8 79h299l119 398h-297l8 80h311l134 454h90l-136 -454h365l135 454h86l-135 -454h285l-8 -80h-302l-118 -398h303l-8 -79h-320l-133 -451h-90l135 451h-360l-134 -451h-88l134 451h-283zM475 530h363l120 398h-362z" />
<glyph unicode="$" d="M141 182v94q65 -34 153.5 -53.5t160.5 -19.5l110 512q-110 53 -153 91t-66.5 87.5t-23.5 116.5q0 155 105.5 250.5t272.5 99.5l41 192h80l-41 -192q149 -5 277 -68l-35 -78q-110 61 -256 70l-109 -514q124 -60 172.5 -99.5t73.5 -88.5t25 -115q0 -151 -110.5 -243 t-297.5 -103l-53 -240h-82l51 240q-79 2 -158 18t-137 43zM410 1018q0 -78 37 -128.5t137 -96.5l102 491q-134 -9 -205 -80t-71 -186zM537 203q142 7 223.5 74.5t81.5 183.5q0 76 -48 129.5t-157 97.5z" />
<glyph unicode="%" horiz-adv-x="1556" d="M145 862q0 160 52 312t138 229.5t193 77.5q232 0 232 -283q0 -175 -50 -327t-136 -230t-197 -78q-112 0 -172 75.5t-60 223.5zM213 0l1135 1462h110l-1139 -1462h-106zM231 868q0 -115 41 -173t113 -58q84 0 148.5 72t102.5 204t38 277q0 109 -36 163t-114 54 q-79 0 -145 -71.5t-107 -203t-41 -264.5zM905 276q0 160 52 312t138 229.5t193 77.5q121 0 176.5 -71.5t55.5 -211.5q0 -175 -50 -327t-136 -230t-197 -78q-112 0 -172 75.5t-60 223.5zM991 283q0 -116 41 -174t113 -58q130 0 209.5 166.5t79.5 386.5q0 109 -36 163t-114 54 q-80 0 -146.5 -72.5t-106.5 -202.5t-40 -263z" />
<glyph unicode="&#x26;" horiz-adv-x="1331" d="M78 324q0 162 99 277.5t325 215.5l-41 67q-78 128 -78 251q0 157 101 253.5t264 96.5q145 0 227 -76.5t82 -206.5q0 -85 -41 -154t-121 -128t-256 -138l330 -463q73 75 135.5 176.5t91.5 186.5h111q-102 -247 -285 -436l184 -246h-123l-131 184q-121 -108 -242 -156 t-266 -48q-167 0 -266.5 94t-99.5 250zM176 328q0 -119 78 -192t211 -73q108 0 211.5 42.5t222.5 146.5l-352 493q-164 -79 -232 -134.5t-103.5 -124t-35.5 -158.5zM485 1135q0 -132 109 -281q203 89 279.5 163.5t76.5 182.5q0 91 -56.5 143t-145.5 52q-125 0 -194 -68 t-69 -192z" />
<glyph unicode="'" horiz-adv-x="403" d="M254 934l80 528h127l-146 -528h-61z" />
<glyph unicode="(" horiz-adv-x="526" d="M104 270q0 343 122 633t382 559h105q-259 -276 -384.5 -568t-125.5 -618q0 -317 127 -600h-80q-146 262 -146 594z" />
<glyph unicode=")" horiz-adv-x="526" d="M-156 -324q257 274 383.5 566.5t126.5 619.5q0 148 -28.5 294t-98.5 306h80q146 -262 146 -594q0 -345 -123.5 -636t-380.5 -556h-105z" />
<glyph unicode="*" horiz-adv-x="1137" d="M233 1217l39 102l394 -168l47 408l121 -19l-109 -405l438 8l-8 -107l-416 29l181 -401l-115 -37l-135 417l-285 -348l-78 78l318 318z" />
<glyph unicode="+" d="M162 672v100h401v404h101v-404h401v-100h-401v-400h-101v400h-401z" />
<glyph unicode="," horiz-adv-x="451" d="M-90 -264q79 132 141 271t88 231h111l8 -23q-34 -92 -114 -233.5t-160 -245.5h-74z" />
<glyph unicode="-" horiz-adv-x="629" d="M82 502l18 90h457l-16 -90h-459z" />
<glyph unicode="." horiz-adv-x="485" d="M82 55q0 56 25 88.5t69 32.5q66 0 66 -72q0 -53 -25 -87.5t-67 -34.5q-68 0 -68 73z" />
<glyph unicode="/" horiz-adv-x="641" d="M-100 0l815 1462h112l-817 -1462h-110z" />
<glyph unicode="0" d="M139 494q0 186 44.5 381.5t124 334t187 207t240.5 68.5q340 0 340 -469q0 -201 -41 -405t-116.5 -346t-183.5 -213.5t-242 -71.5q-176 0 -264.5 126.5t-88.5 387.5zM242 504q0 -222 62.5 -329t197.5 -107q139 0 244 112t166 337t61 489q0 199 -59.5 295t-190.5 96 q-134 0 -241.5 -113t-173.5 -329t-66 -451z" />
<glyph unicode="1" d="M354 1204l406 258h90l-313 -1462h-105l225 1055q19 92 74 293q-42 -36 -75.5 -61t-249.5 -161z" />
<glyph unicode="2" d="M39 0l22 104l449 402q198 177 284 276.5t126.5 186.5t40.5 180q0 112 -66 178t-197 66q-176 0 -333 -129l-54 73q180 146 394 146q173 0 268.5 -85t95.5 -237q0 -110 -43.5 -208.5t-141.5 -211.5t-311 -303l-383 -338v-4h736l-17 -96h-870z" />
<glyph unicode="3" d="M55 53v101q172 -86 344 -86q197 0 303.5 89.5t106.5 252.5q0 145 -89 223t-247 78h-117l21 96h110q209 0 333 95.5t124 258.5q0 114 -63.5 175t-188.5 61q-167 0 -344 -131l-49 75q84 67 188 104.5t218 37.5q161 0 252.5 -82.5t91.5 -226.5q0 -162 -106 -275t-286 -143 v-4q117 -24 185.5 -115.5t68.5 -226.5q0 -134 -64 -233t-179.5 -148t-274.5 -49q-96 0 -184.5 20.5t-153.5 52.5z" />
<glyph unicode="4" d="M23 371l20 96l881 1010h118l-215 -1018h265l-21 -88h-264l-80 -371h-96l80 371h-688zM150 459h579q79 369 119 558.5t86 354.5h-4q-66 -91 -129 -166z" />
<glyph unicode="5" d="M88 51v107q170 -90 340 -90q208 0 328.5 114.5t120.5 313.5q0 140 -85 219.5t-225 79.5q-133 0 -243 -41l-66 49l193 659h624l-18 -96h-541l-149 -516q98 29 215 29q188 0 292.5 -102t104.5 -279q0 -237 -148 -377.5t-407 -140.5q-84 0 -177.5 20t-158.5 51z" />
<glyph unicode="6" d="M170 428q0 283 105 544.5t269.5 385t383.5 123.5q123 0 182 -21l-18 -90q-86 23 -170 23q-233 0 -393.5 -174t-233.5 -502h8q68 94 164 143t211 49q161 0 250.5 -100.5t89.5 -282.5q0 -156 -60 -281t-171 -195t-257 -70q-171 0 -265.5 119t-94.5 329zM270 414 q0 -164 72.5 -255t200.5 -91q112 0 196.5 58.5t130 162t45.5 229.5q0 146 -67 224.5t-195 78.5q-81 0 -154 -31.5t-129 -87t-78 -115t-22 -173.5z" />
<glyph unicode="7" d="M244 0l796 1366h-766l23 96h858l-20 -110l-779 -1352h-112z" />
<glyph unicode="8" d="M98 326q0 159 100.5 268.5t321.5 187.5q-100 72 -144 152t-44 180q0 159 114 265t291 106q163 0 258 -85t95 -229q0 -138 -84 -234.5t-285 -172.5q130 -78 190 -170.5t60 -208.5t-58 -208t-165.5 -144.5t-260.5 -52.5q-178 0 -283.5 92.5t-105.5 253.5zM201 340 q0 -136 77.5 -206.5t219.5 -70.5q168 0 270 91t102 233q0 104 -62 189t-198 157q-218 -73 -313.5 -167.5t-95.5 -225.5zM428 1114q0 -91 41.5 -159t157.5 -142q192 62 279 144t87 206q0 109 -70.5 172.5t-195.5 63.5q-130 0 -214.5 -82t-84.5 -203z" />
<glyph unicode="9" d="M115 2v90q87 -29 192 -29q474 0 627 674h-8q-140 -192 -367 -192q-162 0 -255 105t-93 284q0 155 59.5 281t170.5 196t257 70q174 0 267.5 -115.5t93.5 -333.5q0 -288 -101.5 -548t-263.5 -382t-393 -122q-114 0 -186 22zM313 942q0 -145 67.5 -225t192.5 -80 q83 0 157.5 32.5t129 87.5t76.5 114t22 176q0 166 -71 256t-201 90q-112 0 -197.5 -58.5t-130.5 -162.5t-45 -230z" />
<glyph unicode=":" horiz-adv-x="485" d="M102 55q0 56 25.5 88.5t69.5 32.5q65 0 65 -72q0 -55 -25.5 -88.5t-66.5 -33.5q-68 0 -68 73zM260 989q0 57 25.5 89t68.5 32q66 0 66 -72q0 -55 -25 -89t-67 -34q-68 0 -68 74z" />
<glyph unicode=";" horiz-adv-x="485" d="M-53 -264q79 132 141 271t88 231h111l8 -23q-35 -96 -118.5 -242t-156.5 -237h-73zM266 989q0 57 25.5 89t68.5 32q66 0 66 -72q0 -55 -25 -89t-67 -34q-68 0 -68 74z" />
<glyph unicode="&#x3c;" d="M137 676v74l914 471v-103l-801 -399l801 -350v-107z" />
<glyph unicode="=" d="M168 461v98h903v-98h-903zM168 885v100h903v-100h-903z" />
<glyph unicode="&#x3e;" d="M170 262v107l801 350l-801 399v103l915 -471v-74z" />
<glyph unicode="?" horiz-adv-x="799" d="M170 59q0 56 25 88.5t69 32.5q66 0 66 -71q0 -54 -24.5 -88.5t-67.5 -34.5q-68 0 -68 73zM182 1376q85 49 171.5 78t187.5 29q159 0 250.5 -84.5t91.5 -229.5q0 -127 -66 -234t-231 -226q-85 -61 -132.5 -108.5t-73 -95t-46.5 -143.5h-92l6 29q29 132 82 206.5t157 147.5 q118 84 175 145.5t86.5 127.5t29.5 141q0 108 -67.5 170t-182.5 62q-139 0 -307 -101z" />
<glyph unicode="@" horiz-adv-x="1724" d="M125 508q0 276 121.5 493.5t337 337t473.5 119.5q189 0 330.5 -72.5t221 -213t79.5 -314.5q0 -179 -56 -323.5t-154.5 -227t-211.5 -82.5q-98 0 -154.5 55t-56.5 144h-4q-54 -97 -132.5 -148t-168.5 -51q-112 0 -178 73t-66 202q0 156 63 283t178 198.5t261 71.5 q122 0 252 -52l-84 -315q-39 -140 -39 -221q0 -71 34.5 -111.5t100.5 -40.5q86 0 160 73.5t117.5 198t43.5 251.5q0 156 -65 277t-187 188t-292 67q-235 0 -424.5 -108.5t-295.5 -304t-106 -439.5q0 -288 155 -449t435 -161q207 0 420 82v-90q-210 -82 -428 -82 q-203 0 -357.5 82.5t-238.5 239t-84 370.5zM610 506q0 -92 40.5 -142.5t113.5 -50.5q101 0 180.5 89t124.5 255l78 289q-66 23 -139 23q-113 0 -204.5 -59t-142.5 -165.5t-51 -238.5z" />
<glyph unicode="A" horiz-adv-x="1059" d="M-111 0l822 1468h67l201 -1468h-105l-69 520h-512l-287 -520h-117zM344 612h449l-39 291q-31 242 -39 402q-30 -63 -64.5 -130t-306.5 -563z" />
<glyph unicode="B" horiz-adv-x="1202" d="M102 0l310 1462h379q190 0 290.5 -84t100.5 -241q0 -153 -90 -249t-254 -124v-4q125 -31 188.5 -113.5t63.5 -204.5q0 -205 -140.5 -323.5t-390.5 -118.5h-457zM223 90h342q201 0 309.5 87.5t108.5 256.5q0 145 -90 216t-275 71h-260zM377 811h278q206 0 313 81t107 238 q0 119 -78 180.5t-229 61.5h-272z" />
<glyph unicode="C" horiz-adv-x="1169" d="M170 535q0 266 104.5 488t284.5 341t402 119q177 0 307 -68l-45 -90q-55 30 -124.5 47t-137.5 17q-197 0 -351.5 -104.5t-245 -304.5t-90.5 -441q0 -225 110.5 -346t317.5 -121q140 0 304 51v-94q-156 -49 -316 -49q-252 0 -386 145t-134 410z" />
<glyph unicode="D" horiz-adv-x="1350" d="M102 0l310 1462h305q282 0 426.5 -147.5t144.5 -435.5q0 -253 -109.5 -461.5t-300.5 -313t-446 -104.5h-330zM221 90h209q226 0 394.5 94.5t261 275.5t92.5 412q0 498 -476 498h-206z" />
<glyph unicode="E" horiz-adv-x="1067" d="M102 0l310 1462h727l-21 -94h-624l-117 -553h590l-21 -94h-588l-135 -627h627l-21 -94h-727z" />
<glyph unicode="F" horiz-adv-x="981" d="M102 0l310 1462h708l-20 -94h-604l-134 -620h570l-21 -95h-569l-137 -653h-103z" />
<glyph unicode="G" horiz-adv-x="1374" d="M170 547q0 265 105 483.5t283.5 335.5t395.5 117q113 0 203 -19t184 -59l-38 -94q-110 46 -189.5 62t-167.5 16q-184 0 -339 -107.5t-244 -301.5t-89 -433q0 -229 114.5 -352t326.5 -123q155 0 309 47l117 526h-303l18 90h406l-150 -682q-211 -73 -405 -73 q-257 0 -397 146t-140 421z" />
<glyph unicode="H" horiz-adv-x="1366" d="M102 0l310 1462h102l-139 -649h760l137 649h100l-309 -1462h-100l151 719h-760l-149 -719h-103z" />
<glyph unicode="I" horiz-adv-x="504" d="M102 0l310 1462h98l-309 -1462h-99z" />
<glyph unicode="J" horiz-adv-x="477" d="M-324 -336l11 92q57 -20 137 -20q213 0 262 241l309 1485h105l-314 -1491q-35 -170 -125 -250.5t-241 -80.5q-48 0 -88 8t-56 16z" />
<glyph unicode="K" horiz-adv-x="1122" d="M102 0l310 1462h102l-158 -723l133 121l680 602h138l-699 -610l371 -852h-111l-342 788l-190 -153l-131 -635h-103z" />
<glyph unicode="L" horiz-adv-x="938" d="M102 0l310 1462h102l-289 -1366h621l-23 -96h-721z" />
<glyph unicode="M" horiz-adv-x="1669" d="M109 0l309 1462h143l205 -1257h6l733 1257h150l-301 -1462h-101l191 901q79 369 100 447h-6l-780 -1348h-51l-222 1348h-6q-20 -154 -78 -426l-196 -922h-96z" />
<glyph unicode="N" horiz-adv-x="1372" d="M102 0l310 1462h80l522 -1294h8q23 176 74 416l188 878h94l-309 -1462h-86l-516 1284h-8q-23 -149 -48 -273t-214 -1011h-95z" />
<glyph unicode="O" horiz-adv-x="1464" d="M172 559q0 262 93 477.5t255 331t373 115.5q247 0 378.5 -148.5t131.5 -423.5q0 -255 -94 -481.5t-252 -338t-365 -111.5q-250 0 -385 149t-135 430zM276 573q0 -245 109.5 -373t319.5 -128q169 0 300 98.5t210 300t79 430.5q0 240 -104.5 364t-310.5 124 q-174 0 -308.5 -101t-214.5 -298t-80 -417z" />
<glyph unicode="P" horiz-adv-x="1145" d="M102 0l310 1462h315q202 0 310 -92.5t108 -267.5q0 -500 -610 -500h-201l-129 -602h-103zM350 694h191q252 0 373.5 96.5t121.5 305.5q0 274 -329 274h-211z" />
<glyph unicode="Q" horiz-adv-x="1464" d="M172 559q0 262 93 477.5t255 331t373 115.5q247 0 378.5 -148.5t131.5 -423.5q0 -216 -70 -418t-186.5 -324t-274.5 -167l267 -350h-142l-231 332l-74 -4q-250 0 -385 149t-135 430zM276 573q0 -245 109.5 -373t319.5 -128q169 0 300 98.5t210 300t79 430.5 q0 240 -104.5 364t-310.5 124q-174 0 -308.5 -101t-214.5 -298t-80 -417z" />
<glyph unicode="R" horiz-adv-x="1145" d="M102 0l310 1462h303q430 0 430 -360q0 -182 -103.5 -303t-281.5 -152q201 -591 221 -647h-111l-211 633h-323l-131 -633h-103zM358 725h252q208 0 317 95.5t109 281.5q0 268 -329 268h-211z" />
<glyph unicode="S" horiz-adv-x="1020" d="M37 55v109q163 -92 348 -92q188 0 295.5 86.5t107.5 232.5q0 61 -17 104.5t-52.5 78.5t-91 68t-131.5 75q-150 76 -209.5 164t-59.5 206t59 207.5t165 139t237 49.5q99 0 180 -17.5t168 -60.5l-32 -94q-66 40 -151.5 63t-164.5 23q-163 0 -259.5 -82.5t-96.5 -218.5 q0 -103 49 -170t182 -133q154 -79 213.5 -130t89 -113t29.5 -147q0 -126 -65.5 -224.5t-179.5 -148.5t-269 -50q-88 0 -172.5 17t-171.5 58z" />
<glyph unicode="T" horiz-adv-x="985" d="M193 1368l20 94h973l-19 -94h-440l-289 -1368h-102l289 1368h-432z" />
<glyph unicode="U" horiz-adv-x="1370" d="M176 381q0 83 27 201l186 880h103l-193 -899q-20 -89 -20 -184q0 -309 342 -309q195 0 307.5 96.5t158.5 318.5l207 977h101l-207 -977q-58 -270 -197 -387.5t-375 -117.5q-440 0 -440 401z" />
<glyph unicode="V" horiz-adv-x="1079" d="M201 1462h100l117 -950q26 -217 35 -365h4q51 111 124 247l572 1068h117l-799 -1462h-88z" />
<glyph unicode="W" horiz-adv-x="1702" d="M238 1462h100l47 -1031l4 -165l-2 -86h6q85 226 170 398l434 884h105l61 -878q19 -266 19 -410h6q30 86 61.5 163t493.5 1125h108q-169 -365 -330.5 -731t-328.5 -731h-78l-78 1075q-11 142 -11 219l1 47h-8q-27 -76 -62 -153.5t-563 -1187.5h-82z" />
<glyph unicode="X" horiz-adv-x="971" d="M-135 0l608 766l-272 696h106l240 -626l483 626h119l-555 -719l285 -743h-107l-254 678l-526 -678h-127z" />
<glyph unicode="Y" horiz-adv-x="965" d="M193 1462h100l201 -817l544 817h117l-631 -932l-108 -530h-105l119 545z" />
<glyph unicode="Z" d="M-12 0l22 92l1069 1276h-764l23 94h887l-19 -88l-1069 -1280h799l-23 -94h-925z" />
<glyph unicode="[" horiz-adv-x="537" d="M-57 -324l376 1786h429l-19 -90h-330l-340 -1605h330l-20 -91h-426z" />
<glyph unicode="\" horiz-adv-x="641" d="M209 1462h86l242 -1462h-82z" />
<glyph unicode="]" horiz-adv-x="537" d="M-176 -324l18 91h330l340 1605h-330l21 90h426l-377 -1786h-428z" />
<glyph unicode="^" horiz-adv-x="1047" d="M70 569l587 906h91l260 -906h-105l-217 809l-500 -809h-116z" />
<glyph unicode="_" horiz-adv-x="801" d="M-182 -291l18 86h807l-18 -86h-807z" />
<glyph unicode="`" horiz-adv-x="1135" d="M487 1548v21h115q46 -129 164 -303v-25h-66q-50 52 -114 144.5t-99 162.5z" />
<glyph unicode="a" horiz-adv-x="1133" d="M102 354q0 197 75 376t200.5 276.5t277.5 97.5q232 0 279 -219h6l59 202h80l-229 -1087h-82l45 274h-6q-84 -142 -187 -218t-237 -76q-281 0 -281 374zM205 365q0 -152 50 -223.5t151 -71.5q89 0 177.5 62t159 166t107.5 230t37 213q0 79 -26 141.5t-77 99t-127 36.5 q-124 0 -224 -82t-164 -245.5t-64 -325.5z" />
<glyph unicode="b" horiz-adv-x="1151" d="M76 0l327 1556h95q-131 -628 -162 -751h6q93 156 199 229.5t231 73.5q281 0 281 -375q0 -203 -76 -380t-201 -273t-276 -96q-113 0 -186 59t-97 166h-6l-55 -209h-80zM268 346q0 -129 64 -202.5t166 -73.5q124 0 224 83t164 245t64 325q0 152 -49 223.5t-151 71.5 q-91 0 -180 -61.5t-160.5 -169.5t-106.5 -235t-35 -206z" />
<glyph unicode="c" horiz-adv-x="887" d="M102 397q0 193 73.5 361.5t198.5 257t290 88.5q134 0 241 -43l-28 -90q-107 47 -218 47q-129 0 -232.5 -77t-162.5 -222t-59 -320q0 -158 73.5 -243.5t208.5 -85.5q71 0 131.5 13t131.5 46v-92q-116 -57 -273 -57q-174 0 -274.5 110.5t-100.5 306.5z" />
<glyph unicode="d" horiz-adv-x="1133" d="M102 354q0 193 71.5 370t197.5 278.5t284 101.5q230 0 279 -219h4q12 66 143 671h99l-330 -1556h-82l45 274h-6q-173 -294 -424 -294q-281 0 -281 374zM205 365q0 -295 201 -295q89 0 178.5 62.5t160 168t106.5 231t36 209.5q0 126 -61.5 201.5t-168.5 75.5 q-124 0 -224 -83t-164 -242.5t-64 -327.5z" />
<glyph unicode="e" horiz-adv-x="928" d="M102 395q0 181 71 347t195.5 264t274.5 98q114 0 182 -61t68 -166q0 -181 -163.5 -276t-485.5 -95h-33q-6 -44 -6 -98q0 -165 74 -251.5t213 -86.5q132 0 276 73v-94q-140 -69 -299 -69q-173 0 -270 109.5t-97 305.5zM225 594h49q517 0 517 270q0 67 -43.5 110.5 t-116.5 43.5q-131 0 -243.5 -115.5t-162.5 -308.5z" />
<glyph unicode="f" horiz-adv-x="578" d="M-233 -383q53 -16 100 -16q88 0 134 53t75 186l246 1166h-205l14 67l205 14l35 160q35 168 116.5 244t227.5 76q73 0 166 -31l-25 -80q-87 27 -147 27q-96 0 -153.5 -53.5t-84.5 -178.5l-35 -164h248l-16 -81h-248l-252 -1190q-33 -161 -104 -234.5t-195 -73.5 q-48 0 -102 19v90z" />
<glyph unicode="g" horiz-adv-x="1040" d="M-88 -217q0 236 309 334q-78 42 -78 123q0 123 191 202q-71 36 -110.5 105.5t-39.5 157.5q0 111 53.5 204t148 146t206.5 53q69 0 147 -21h361l-17 -79l-243 -11q26 -28 43.5 -84t17.5 -114q0 -109 -54.5 -206.5t-148 -145.5t-213.5 -48q-63 0 -77 9q-80 -33 -124 -73 t-44 -81t31.5 -64.5t113.5 -31.5l121 -11q346 -31 346 -264q0 -112 -65 -197.5t-187 -131.5t-291 -46q-186 0 -291.5 72t-105.5 203zM14 -207q0 -101 81 -150t224 -49q203 0 317 74.5t114 204.5q0 85 -62.5 130.5t-218.5 57.5l-160 15q-157 -45 -226 -114.5t-69 -168.5z M285 711q0 -112 58.5 -170t164.5 -58q88 0 154 37t102.5 114t36.5 169q0 104 -56 161.5t-157 57.5q-93 0 -161 -43t-105 -116t-37 -152z" />
<glyph unicode="h" horiz-adv-x="1143" d="M76 0l332 1556h96l-86 -411q-44 -200 -66 -279h6q78 113 186.5 175.5t229.5 62.5q124 0 192 -65t68 -183q0 -70 -24 -182l-148 -674h-98l149 692q21 92 21 156q0 80 -43.5 125t-134.5 45q-112 0 -210.5 -67t-166 -188t-103.5 -286l-102 -477h-98z" />
<glyph unicode="i" horiz-adv-x="475" d="M76 0l231 1087h96l-229 -1087h-98zM350 1366q0 55 22 88t60 33q57 0 57 -72q0 -57 -22 -90t-57 -33q-29 0 -44.5 19.5t-15.5 54.5z" />
<glyph unicode="j" horiz-adv-x="475" d="M-279 -381q47 -22 113 -22q82 0 128.5 51.5t72.5 177.5l266 1261h96l-268 -1271q-35 -165 -106.5 -236.5t-188.5 -71.5q-62 0 -113 19v92zM350 1366q0 55 22 88t60 33q57 0 57 -72q0 -57 -22 -90t-57 -33q-29 0 -44.5 19.5t-15.5 54.5z" />
<glyph unicode="k" horiz-adv-x="944" d="M76 0l330 1556h96l-166 -780l-70 -299h4l609 610h125l-474 -469l297 -618h-106l-264 559l-205 -188l-80 -371h-96z" />
<glyph unicode="l" horiz-adv-x="475" d="M76 0l334 1556h94l-334 -1556h-94z" />
<glyph unicode="m" horiz-adv-x="1751" d="M72 0l231 1087h80l-33 -210h6q80 113 181.5 170t212.5 57q106 0 163 -67t60 -195h6q77 129 181 195.5t222 66.5q117 0 182.5 -61.5t65.5 -176.5q0 -29 -2.5 -56.5t-19.5 -119.5l-152 -690h-100l149 680q25 120 25 176q0 77 -43 119.5t-119 42.5q-157 0 -277.5 -137.5 t-168.5 -362.5l-109 -518h-102l147 674q25 125 25 162q0 182 -154 182q-106 0 -200 -67.5t-159 -188.5t-100 -287l-100 -475h-98z" />
<glyph unicode="n" horiz-adv-x="1143" d="M76 0l231 1087h82l-37 -221h6q164 238 416 238q130 0 195 -64t65 -184q0 -70 -24 -182l-148 -674h-98l149 692q21 92 21 156q0 80 -43.5 125t-134.5 45q-112 0 -210.5 -67t-166 -187.5t-103.5 -286.5l-102 -477h-98z" />
<glyph unicode="o" horiz-adv-x="1124" d="M98 403q0 191 73 358t197 257t281 90q180 0 278.5 -108.5t98.5 -299.5q0 -197 -71.5 -368.5t-195.5 -261.5t-286 -90q-184 0 -279.5 109.5t-95.5 313.5zM201 408q0 -342 282 -342q127 0 225.5 77.5t157 228t58.5 330.5q0 154 -73 237t-210 83q-124 0 -223 -78.5 t-158 -225t-59 -310.5z" />
<glyph unicode="p" horiz-adv-x="1149" d="M-33 -492l336 1579h82l-45 -274h6q91 153 195.5 224t228.5 71q135 0 208 -92.5t73 -282.5q0 -195 -72 -371t-197.5 -277t-283.5 -101q-230 0 -279 219h-4q-13 -72 -149 -695h-99zM266 346q0 -125 61.5 -200.5t168.5 -75.5q124 0 225 84t164 243.5t63 325.5 q0 295 -200 295q-87 0 -174 -58.5t-161.5 -167.5t-110.5 -237.5t-36 -208.5z" />
<glyph unicode="q" horiz-adv-x="1157" d="M98 354q0 201 75.5 379t200.5 274.5t277 96.5q109 0 183.5 -58t99.5 -167h6l55 208h80l-327 -1556h-95l98 470l64 282h-6q-93 -156 -199 -229.5t-231 -73.5q-281 0 -281 374zM201 365q0 -143 45.5 -219t154.5 -76q92 0 182 62.5t160.5 171.5t105 236.5t34.5 200.5 q0 130 -63.5 203.5t-166.5 73.5q-124 0 -224 -83t-164 -245t-64 -325z" />
<glyph unicode="r" horiz-adv-x="752" d="M72 0l231 1087h80l-29 -204h6q73 94 123 135.5t106.5 64.5t123.5 23q69 0 123 -14l-21 -93q-47 15 -113 15q-94 0 -179 -64t-153 -192t-100 -277l-100 -481h-98z" />
<glyph unicode="s" horiz-adv-x="827" d="M25 55v107q74 -46 153 -71t148 -25q138 0 211 57.5t73 163.5q0 42 -15.5 74t-50 61.5t-132.5 85.5q-148 80 -200 145.5t-52 159.5q0 128 98.5 209.5t259.5 81.5q75 0 158.5 -17.5t140.5 -46.5l-35 -88q-136 64 -264 64q-116 0 -186 -53t-70 -138q0 -55 17 -88t60.5 -68.5 t119.5 -76.5q114 -63 161.5 -103.5t70 -86.5t22.5 -107q0 -144 -103 -229.5t-280 -85.5q-173 0 -305 75z" />
<glyph unicode="t" horiz-adv-x="616" d="M113 1006l14 67l184 17l97 253h55l-55 -256h286l-18 -81h-283l-135 -635q-22 -99 -22 -164q0 -139 126 -139q68 0 152 26v-86q-101 -28 -170 -28q-99 0 -153 54.5t-54 158.5q0 73 29 206l129 607h-182z" />
<glyph unicode="u" horiz-adv-x="1143" d="M109 227q0 60 22 170l150 690h100l-152 -698q-22 -106 -22 -158q0 -74 47.5 -117.5t138.5 -43.5q110 0 207.5 65.5t164 187t99.5 279.5l105 485h98l-231 -1087h-80l28 205h-6q-167 -221 -403 -221q-131 0 -198.5 62t-67.5 181z" />
<glyph unicode="v" horiz-adv-x="895" d="M104 1087h101l108 -735q26 -165 33 -254h6q51 115 129 256l406 733h102l-600 -1087h-113z" />
<glyph unicode="w" horiz-adv-x="1393" d="M121 1087h92l13 -821l-3 -157h6q61 134 150 297l373 681h77l64 -681q14 -147 14 -297h6l24 61l101 236l320 681h96l-508 -1087h-108l-60 686q-14 224 -14 266h-6q-34 -92 -144 -290l-356 -662h-117z" />
<glyph unicode="x" horiz-adv-x="922" d="M-72 0l471 559l-245 528h100l207 -462l373 462h120l-448 -534l258 -553h-98l-224 483l-393 -483h-121z" />
<glyph unicode="y" horiz-adv-x="920" d="M-217 -379q71 -27 137 -27q80 0 147 49.5t130 164.5t100 184l-174 1095h100l82 -548q51 -351 55 -449h11q43 105 186 367l348 630h103l-713 -1290q-72 -127 -122.5 -178t-114 -81t-146.5 -30q-68 0 -129 21v92z" />
<glyph unicode="z" horiz-adv-x="887" d="M-29 0l15 72l776 932h-543l17 83h659l-18 -83l-762 -920h602l-17 -84h-729z" />
<glyph unicode="{" horiz-adv-x="709" d="M59 528l21 78q126 0 191 49t89 158l89 393q30 135 106 195.5t215 60.5h29l-17 -86q-86 -2 -129 -20.5t-69.5 -61.5t-44.5 -120l-74 -338q-30 -134 -91.5 -194.5t-164.5 -78.5v-4q68 -18 105.5 -68.5t37.5 -121.5q0 -52 -24 -164l-47 -225q-13 -58 -13 -101 q0 -61 37.5 -89t138.5 -28v-86h-20q-256 0 -256 199q0 45 16 115l56 252q18 90 18 127q0 159 -199 159z" />
<glyph unicode="|" d="M584 -510v2071h100v-2071h-100z" />
<glyph unicode="}" horiz-adv-x="709" d="M-41 -238q96 2 138 21t68.5 61t43.5 121l74 338q27 126 87.5 189.5t168.5 82.5v5q-75 20 -109.5 72.5t-34.5 117.5q0 55 18 131l54 258q12 61 12 101q0 44 -18 69t-54 36t-116 11l20 86h21q131 0 189.5 -51t58.5 -147q0 -41 -17 -115l-55 -252q-19 -95 -19 -127 q0 -77 49.5 -118.5t149.5 -41.5l-20 -78q-125 0 -191 -48.5t-90 -157.5l-88 -394q-32 -139 -108.5 -197.5t-213.5 -58.5h-18v86z" />
<glyph unicode="~" d="M127 625v94q108 110 233 110q61 0 115 -13.5t156 -57.5q126 -58 219 -58q54 0 107.5 29t117.5 96v-96q-111 -113 -233 -113q-117 0 -271 72q-62 29 -112.5 43t-108.5 14q-49 0 -108 -30.5t-115 -89.5z" />
<glyph unicode="&#xa1;" horiz-adv-x="502" d="M4 -375l260 1086h62l-203 -1086h-119zM272 981q0 55 25 89t68 34q67 0 67 -74q0 -56 -25 -88.5t-69 -32.5q-66 0 -66 72z" />
<glyph unicode="&#xa2;" d="M250 600q0 184 63.5 341t178 253t256.5 111l36 178h90l-38 -176q116 -4 217 -43l-29 -90q-107 47 -217 47q-130 0 -233 -76t-162.5 -221t-59.5 -322q0 -164 74.5 -247t208.5 -83q127 0 264 60v-92q-118 -58 -281 -58l-40 -202h-93l45 215q-132 25 -206 132.5t-74 272.5z " />
<glyph unicode="&#xa3;" d="M-4 0l16 84q93 11 165.5 95.5t107.5 236.5l57 260h-199l17 82h198l76 350q41 187 155 279t290 92q170 0 313 -78l-39 -84l-54 26q-108 50 -231 50q-134 0 -220.5 -74.5t-117.5 -220.5l-73 -340h409l-18 -82h-408l-57 -268q-50 -225 -188 -314h759l-20 -94h-938z" />
<glyph unicode="&#xa4;" d="M207 1077l63 64l127 -129q105 78 230 78q118 0 223 -78l131 129l61 -62l-129 -129q78 -106 78 -227q0 -135 -78 -227l129 -127l-61 -62l-131 127q-104 -76 -223 -76q-126 0 -228 80l-129 -129l-61 62l127 127q-74 98 -74 225q0 118 74 225zM350 723q0 -116 80 -196.5 t197 -80.5t198.5 81t81.5 196q0 75 -36.5 140t-102.5 104t-141 39q-114 0 -195.5 -82t-81.5 -201z" />
<glyph unicode="&#xa5;" d="M166 289l18 84h299l41 190h-301l17 76h258l-215 823h100l201 -817l544 817h117l-559 -823h266l-16 -76h-315l-39 -190h317l-18 -84h-316l-59 -289h-105l64 289h-299z" />
<glyph unicode="&#xa6;" d="M578 246h100v-756h-100v756zM578 805v756h100v-756h-100z" />
<glyph unicode="&#xa7;" horiz-adv-x="995" d="M102 51v99q47 -27 126 -46.5t153 -19.5q149 0 228 52.5t79 150.5q0 62 -42.5 106t-166.5 96q-155 65 -211.5 130t-56.5 159q0 101 69.5 182t198.5 130q-64 31 -103.5 85.5t-39.5 120.5q0 74 46 134.5t132.5 94.5t202.5 34q163 0 289 -58l-31 -80q-138 54 -264 54 q-124 0 -202.5 -46.5t-78.5 -123.5q0 -59 46 -104.5t183 -106.5q112 -52 158.5 -89.5t71 -85t24.5 -110.5q0 -197 -249 -317q122 -64 122 -197q0 -86 -48 -153.5t-139.5 -105.5t-221.5 -38q-157 0 -275 53zM303 786q0 -57 24.5 -96.5t81 -73t187.5 -81.5q103 49 162 113.5 t59 156.5q0 72 -57.5 126t-200.5 107q-119 -30 -187.5 -97.5t-68.5 -154.5z" />
<glyph unicode="&#xa8;" horiz-adv-x="1135" d="M492 1366q0 49 20.5 78t56.5 29q54 0 54 -64q0 -48 -21 -77t-55 -29q-55 0 -55 63zM836 1366q0 49 20.5 78t56.5 29q54 0 54 -64q0 -48 -21 -77t-55 -29q-55 0 -55 63z" />
<glyph unicode="&#xa9;" horiz-adv-x="1704" d="M147 731q0 200 100 375t275 276t377 101q200 0 375 -100t276 -275t101 -377q0 -197 -97 -370t-272 -277t-383 -104q-207 0 -382 103.5t-272.5 276.5t-97.5 371zM240 731q0 -178 88.5 -329.5t240.5 -240.5t330 -89q174 0 325 85.5t243 239t92 334.5q0 178 -89 330 t-240.5 241t-330.5 89q-182 0 -335 -92t-238.5 -243t-85.5 -325zM537 725q0 207 110 332t297 125q119 0 227 -52l-36 -83q-99 45 -191 45q-142 0 -222.5 -94.5t-80.5 -264.5q0 -186 74.5 -275t220.5 -89q85 0 199 43v-88q-104 -45 -209 -45q-187 0 -288 116t-101 330z" />
<glyph unicode="&#xaa;" horiz-adv-x="643" d="M170 1032q0 189 90.5 321t226.5 132q55 0 97.5 -29t66.5 -86h6l35 103h66l-137 -650h-72l22 125h-4q-96 -137 -223 -137q-80 0 -127 56.5t-47 164.5zM258 1028q0 -143 111 -143q66 0 133.5 75.5t97.5 184.5q16 51 16 123q0 58 -36 100.5t-93 42.5q-94 0 -161.5 -111.5 t-67.5 -271.5z" />
<glyph unicode="&#xab;" horiz-adv-x="860" d="M61 541l2 26l363 365l57 -49l-317 -336l213 -385l-64 -39zM422 541l2 26l362 365l58 -49l-314 -336l209 -385l-63 -39z" />
<glyph unicode="&#xac;" d="M125 672v100h903v-500h-100v400h-803z" />
<glyph unicode="&#xad;" horiz-adv-x="629" d="M77 502l18 90h457l-16 -90h-459z" />
<glyph unicode="&#xae;" horiz-adv-x="1704" d="M150 731q0 207 103.5 382t276.5 272.5t371 97.5q200 0 375 -100t276 -275t101 -377q0 -197 -97 -370t-272 -277t-383 -104q-204 0 -376.5 100.5t-273.5 273t-101 377.5zM242 731q0 -178 88.5 -329.5t240.5 -240.5t330 -89q174 0 325 85.5t243 239t92 334.5q0 178 -89 330 t-240.5 241t-330.5 89q-182 0 -335 -92t-238.5 -243t-85.5 -325zM657 291v880h211q143 0 222 -62t79 -191q0 -80 -39.5 -141t-109.5 -93l237 -393h-120l-211 360h-168v-360h-101zM758 731h112q93 0 144 46.5t51 135.5q0 172 -197 172h-110v-354z" />
<glyph unicode="&#xaf;" horiz-adv-x="655" d="M348 1556l53 97h654l-54 -97h-653z" />
<glyph unicode="&#xb0;" horiz-adv-x="877" d="M242 1190q0 120 85 206.5t208 86.5q122 0 207 -86.5t85 -206.5q0 -122 -85.5 -207.5t-206.5 -85.5q-122 0 -207.5 85.5t-85.5 207.5zM315 1190q0 -89 64.5 -153t155.5 -64q92 0 155.5 64t63.5 153q0 90 -64 155.5t-155 65.5q-90 0 -155 -65.5t-65 -155.5z" />
<glyph unicode="&#xb1;" d="M127 0v100h903v-100h-903zM127 629v98h401v406h101v-406h401v-98h-401v-400h-101v400h-401z" />
<glyph unicode="&#xb2;" horiz-adv-x="643" d="M82 586l16 80l297 258q137 118 182.5 190.5t45.5 153.5q0 59 -38.5 97t-105.5 38q-95 0 -194 -76l-41 62q108 90 239 90q73 0 125 -27t78.5 -72t26.5 -100q0 -106 -59 -198.5t-183 -194.5l-266 -223h416l-17 -78h-522z" />
<glyph unicode="&#xb3;" horiz-adv-x="643" d="M109 625v90q46 -28 108 -48t125 -20q99 0 159 52.5t60 142.5q0 162 -196 162h-84l16 79h86q102 0 168.5 49.5t66.5 129.5q0 68 -37.5 102.5t-105.5 34.5q-100 0 -199 -68l-40 64q109 86 251 86q100 0 159 -56.5t59 -148.5q0 -85 -48.5 -148t-154.5 -88v-4 q66 -16 105.5 -68t39.5 -124q0 -77 -39 -141t-109 -99t-161 -35q-59 0 -123.5 15.5t-105.5 40.5z" />
<glyph unicode="&#xb4;" horiz-adv-x="1135" d="M580 1241v21q66 51 150.5 142t129.5 165h137v-23q-51 -66 -157.5 -158.5t-192.5 -146.5h-67z" />
<glyph unicode="&#xb5;" horiz-adv-x="1171" d="M-29 -492l338 1579h101l-152 -698q-20 -96 -20 -147q0 -82 48.5 -127t135.5 -45q110 0 207 64.5t162.5 182.5t101.5 285l104 485h99l-234 -1087h-78l29 205h-6q-164 -221 -404 -221q-85 0 -139 32.5t-76 89.5h-6q-18 -132 -51 -284l-63 -314h-97z" />
<glyph unicode="&#xb6;" horiz-adv-x="1341" d="M215 1042q0 260 109 387t342 127h542v-1816h-100v1722h-227v-1722h-101v819q-64 -18 -145 -18q-216 0 -318 125t-102 376z" />
<glyph unicode="&#xb7;" horiz-adv-x="485" d="M207 698q0 56 25 88.5t69 32.5q66 0 66 -72q0 -53 -25 -87.5t-67 -34.5q-68 0 -68 73z" />
<glyph unicode="&#xb8;" horiz-adv-x="420" d="M-174 -406q30 -6 72 -6q198 0 198 115q0 97 -151 107l110 190h80l-78 -137q140 -30 140 -152q0 -94 -75.5 -148.5t-217.5 -54.5q-46 0 -78 7v79z" />
<glyph unicode="&#xb9;" horiz-adv-x="643" d="M254 1288l258 174h80l-186 -876h-84l118 569q5 21 11.5 50.5t14 60t15.5 59t15 49.5q-34 -31 -60 -51.5t-143 -93.5z" />
<glyph unicode="&#xba;" horiz-adv-x="655" d="M190 1059q0 112 41.5 209.5t116 154t170.5 56.5q105 0 165 -64t60 -180q0 -115 -40 -214t-114 -156.5t-175 -57.5q-114 0 -169 67.5t-55 184.5zM270 1067q0 -186 156 -186q73 0 125.5 46.5t81.5 127.5t29 176q0 83 -39 128.5t-115 45.5q-70 0 -124 -46.5t-84 -124.5 t-30 -167z" />
<glyph unicode="&#xbb;" horiz-adv-x="860" d="M33 172l313 336l-209 385l64 39l254 -418l-2 -27l-363 -364zM393 172l314 336l-209 385l63 39l254 -418l-2 -27l-362 -364z" />
<glyph unicode="&#xbc;" horiz-adv-x="1481" d="M129 0l1086 1462h108l-1087 -1462h-107zM251 1288l258 174h80l-186 -876h-84l118 569q5 21 11.5 50.5t14 60t15.5 59t15 49.5q-34 -31 -60 -51.5t-143 -93.5zM715 230l21 76l506 577h86l-125 -581h133l-17 -72h-131l-49 -229h-82l49 229h-391zM830 302h291 q61 294 79 365.5t29 105.5q-10 -16 -61 -79t-338 -392z" />
<glyph unicode="&#xbd;" horiz-adv-x="1458" d="M53 0l1086 1462h108l-1087 -1462h-107zM173 1288l258 174h80l-186 -876h-84l118 569q5 21 11.5 50.5t14 60t15.5 59t15 49.5q-34 -31 -60 -51.5t-143 -93.5zM756 1l16 80l297 258q137 118 182.5 190.5t45.5 153.5q0 59 -38.5 97t-105.5 38q-95 0 -194 -76l-41 62 q108 90 239 90q73 0 125 -27t78.5 -72t26.5 -100q0 -106 -59 -198.5t-183 -194.5l-266 -223h416l-17 -78h-522z" />
<glyph unicode="&#xbe;" horiz-adv-x="1458" d="M71 625v90q46 -28 108 -48t125 -20q99 0 159 52.5t60 142.5q0 162 -196 162h-84l16 79h86q102 0 168.5 49.5t66.5 129.5q0 68 -37.5 102.5t-105.5 34.5q-100 0 -199 -68l-40 64q109 86 251 86q100 0 159 -56.5t59 -148.5q0 -85 -48.5 -148t-154.5 -88v-4 q66 -16 105.5 -68t39.5 -124q0 -77 -39 -141t-109 -99t-161 -35q-59 0 -123.5 15.5t-105.5 40.5zM213 0l1086 1462h108l-1087 -1462h-107zM776 230l21 76l506 577h86l-125 -581h133l-17 -72h-131l-49 -229h-82l49 229h-391zM891 302h291q61 294 79 365.5t29 105.5 q-10 -16 -61 -79t-338 -392z" />
<glyph unicode="&#xbf;" horiz-adv-x="799" d="M0 -90q0 133 70 240.5t227 220.5q85 61 133.5 109t73 95t45.5 142h92l-6 -29q-28 -127 -79 -200t-161 -154q-118 -84 -175 -145.5t-86.5 -127.5t-29.5 -141q0 -106 65.5 -168.5t184.5 -62.5q141 0 308 100l38 -86q-85 -49 -170.5 -77.5t-187.5 -28.5q-159 0 -250.5 84.5 t-91.5 228.5zM553 971q0 56 25 89.5t67 33.5q68 0 68 -74q0 -56 -25.5 -88.5t-69.5 -32.5q-65 0 -65 72z" />
<glyph unicode="&#xc0;" horiz-adv-x="1059" d="M-111 0l822 1468h67l201 -1468h-105l-69 520h-512l-287 -520h-117zM344 612h449l-39 291q-31 242 -39 402q-30 -63 -64.5 -130t-306.5 -563zM536 1886v21h115q46 -129 164 -303v-25h-66q-50 52 -114 144.5t-99 162.5z" />
<glyph unicode="&#xc1;" horiz-adv-x="1059" d="M-111 0l822 1468h67l201 -1468h-105l-69 520h-512l-287 -520h-117zM344 612h449l-39 291q-31 242 -39 402q-30 -63 -64.5 -130t-306.5 -563zM668 1579v21q66 51 150.5 142t129.5 165h137v-23q-51 -66 -157.5 -158.5t-192.5 -146.5h-67z" />
<glyph unicode="&#xc2;" horiz-adv-x="1059" d="M-111 0l822 1468h67l201 -1468h-105l-69 520h-512l-287 -520h-117zM344 612h449l-39 291q-31 242 -39 402q-30 -63 -64.5 -130t-306.5 -563zM493 1579v29q68 56 157.5 148.5t127.5 150.5h64q23 -64 72.5 -152.5t92.5 -146.5v-29h-49q-70 60 -161 207q-55 -57 -125 -114.5 t-125 -92.5h-54z" />
<glyph unicode="&#xc3;" horiz-adv-x="1059" d="M-111 0l822 1468h67l201 -1468h-105l-69 520h-512l-287 -520h-117zM344 612h449l-39 291q-31 242 -39 402q-30 -63 -64.5 -130t-306.5 -563zM426 1581q19 108 71 166.5t134 58.5q41 0 73.5 -14t117.5 -72q52 -36 94 -36q43 0 71.5 30.5t46.5 100.5h76 q-26 -118 -74.5 -173t-124.5 -55q-40 0 -77.5 19t-75.5 45q-34 23 -64.5 41t-68.5 18q-45 0 -74 -28.5t-51 -100.5h-74z" />
<glyph unicode="&#xc4;" horiz-adv-x="1059" d="M-111 0l822 1468h67l201 -1468h-105l-69 520h-512l-287 -520h-117zM344 612h449l-39 291q-31 242 -39 402q-30 -63 -64.5 -130t-306.5 -563zM535 1704q0 49 20.5 78t56.5 29q54 0 54 -64q0 -48 -21 -77t-55 -29q-55 0 -55 63zM879 1704q0 49 20.5 78t56.5 29q54 0 54 -64 q0 -48 -21 -77t-55 -29q-55 0 -55 63z" />
<glyph unicode="&#xc5;" horiz-adv-x="1059" d="M-111 0l822 1468h67l201 -1468h-105l-69 520h-512l-287 -520h-117zM344 612h449l-39 291q-31 242 -39 402q-30 -63 -64.5 -130t-306.5 -563zM539 1592q0 88 59.5 144t149.5 56q88 0 142.5 -50t54.5 -142t-57.5 -148.5t-145.5 -56.5q-93 0 -148 52t-55 145zM619 1592 q0 -57 33 -90t90 -33q56 0 90.5 36t34.5 93t-33.5 90t-87.5 33q-60 0 -93.5 -36t-33.5 -93z" />
<glyph unicode="&#xc6;" horiz-adv-x="1640" d="M-117 0l946 1462h883l-20 -94h-625l-117 -553h590l-20 -94h-588l-135 -627h626l-20 -94h-727l110 522h-444l-328 -522h-131zM408 627h401l156 741h-88z" />
<glyph unicode="&#xc7;" horiz-adv-x="1169" d="M170 535q0 266 104.5 488t284.5 341t402 119q177 0 307 -68l-45 -90q-55 30 -124.5 47t-137.5 17q-197 0 -351.5 -104.5t-245 -304.5t-90.5 -441q0 -225 110.5 -346t317.5 -121q140 0 304 51v-94q-156 -49 -316 -49q-252 0 -386 145t-134 410zM381 -406q30 -6 72 -6 q198 0 198 115q0 97 -151 107l110 190h80l-78 -137q140 -30 140 -152q0 -94 -75.5 -148.5t-217.5 -54.5q-46 0 -78 7v79z" />
<glyph unicode="&#xc8;" horiz-adv-x="1067" d="M102 0l310 1462h727l-21 -94h-624l-117 -553h590l-21 -94h-588l-135 -627h627l-21 -94h-727zM612 1886v21h115q46 -129 164 -303v-25h-66q-50 52 -114 144.5t-99 162.5z" />
<glyph unicode="&#xc9;" horiz-adv-x="1067" d="M102 0l310 1462h727l-21 -94h-624l-117 -553h590l-21 -94h-588l-135 -627h627l-21 -94h-727zM654 1579v21q66 51 150.5 142t129.5 165h137v-23q-51 -66 -157.5 -158.5t-192.5 -146.5h-67z" />
<glyph unicode="&#xca;" horiz-adv-x="1067" d="M102 0l310 1462h727l-21 -94h-624l-117 -553h590l-21 -94h-588l-135 -627h627l-21 -94h-727zM522 1579v29q68 56 157.5 148.5t127.5 150.5h64q23 -64 72.5 -152.5t92.5 -146.5v-29h-49q-70 60 -161 207q-55 -57 -125 -114.5t-125 -92.5h-54z" />
<glyph unicode="&#xcb;" horiz-adv-x="1067" d="M102 0l310 1462h727l-21 -94h-624l-117 -553h590l-21 -94h-588l-135 -627h627l-21 -94h-727zM558 1704q0 49 20.5 78t56.5 29q54 0 54 -64q0 -48 -21 -77t-55 -29q-55 0 -55 63zM902 1704q0 49 20.5 78t56.5 29q54 0 54 -64q0 -48 -21 -77t-55 -29q-55 0 -55 63z" />
<glyph unicode="&#xcc;" horiz-adv-x="504" d="M102 0l310 1462h98l-309 -1462h-99zM246 1886v21h115q46 -129 164 -303v-25h-66q-50 52 -114 144.5t-99 162.5z" />
<glyph unicode="&#xcd;" horiz-adv-x="504" d="M102 0l310 1462h98l-309 -1462h-99zM419 1579v21q66 51 150.5 142t129.5 165h137v-23q-51 -66 -157.5 -158.5t-192.5 -146.5h-67z" />
<glyph unicode="&#xce;" horiz-adv-x="504" d="M102 0l310 1462h98l-309 -1462h-99zM224 1579v29q68 56 157.5 148.5t127.5 150.5h64q23 -64 72.5 -152.5t92.5 -146.5v-29h-49q-70 60 -161 207q-55 -57 -125 -114.5t-125 -92.5h-54z" />
<glyph unicode="&#xcf;" horiz-adv-x="504" d="M102 0l310 1462h98l-309 -1462h-99zM260 1704q0 49 20.5 78t56.5 29q54 0 54 -64q0 -48 -21 -77t-55 -29q-55 0 -55 63zM604 1704q0 49 20.5 78t56.5 29q54 0 54 -64q0 -48 -21 -77t-55 -29q-55 0 -55 63z" />
<glyph unicode="&#xd0;" horiz-adv-x="1352" d="M90 676l21 96h155l146 690h305q282 0 426.5 -147.5t144.5 -435.5q0 -253 -109.5 -461.5t-300.5 -313t-446 -104.5h-330l144 676h-156zM221 90h209q226 0 394.5 94.5t261 275.5t92.5 412q0 498 -476 498h-206l-129 -598h378l-20 -96h-379z" />
<glyph unicode="&#xd1;" horiz-adv-x="1372" d="M102 0l310 1462h80l522 -1294h8q23 176 74 416l188 878h94l-309 -1462h-86l-516 1284h-8q-23 -149 -48 -273t-214 -1011h-95zM577 1581q19 108 71 166.5t134 58.5q41 0 73.5 -14t117.5 -72q52 -36 94 -36q43 0 71.5 30.5t46.5 100.5h76q-26 -118 -74.5 -173t-124.5 -55 q-40 0 -77.5 19t-75.5 45q-34 23 -64.5 41t-68.5 18q-45 0 -74 -28.5t-51 -100.5h-74z" />
<glyph unicode="&#xd2;" horiz-adv-x="1464" d="M172 559q0 262 93 477.5t255 331t373 115.5q247 0 378.5 -148.5t131.5 -423.5q0 -255 -94 -481.5t-252 -338t-365 -111.5q-250 0 -385 149t-135 430zM276 573q0 -245 109.5 -373t319.5 -128q169 0 300 98.5t210 300t79 430.5q0 240 -104.5 364t-310.5 124 q-174 0 -308.5 -101t-214.5 -298t-80 -417zM710 1886v21h115q46 -129 164 -303v-25h-66q-50 52 -114 144.5t-99 162.5z" />
<glyph unicode="&#xd3;" horiz-adv-x="1464" d="M172 559q0 262 93 477.5t255 331t373 115.5q247 0 378.5 -148.5t131.5 -423.5q0 -255 -94 -481.5t-252 -338t-365 -111.5q-250 0 -385 149t-135 430zM276 573q0 -245 109.5 -373t319.5 -128q169 0 300 98.5t210 300t79 430.5q0 240 -104.5 364t-310.5 124 q-174 0 -308.5 -101t-214.5 -298t-80 -417zM844 1579v21q66 51 150.5 142t129.5 165h137v-23q-51 -66 -157.5 -158.5t-192.5 -146.5h-67z" />
<glyph unicode="&#xd4;" horiz-adv-x="1464" d="M172 559q0 262 93 477.5t255 331t373 115.5q247 0 378.5 -148.5t131.5 -423.5q0 -255 -94 -481.5t-252 -338t-365 -111.5q-250 0 -385 149t-135 430zM276 573q0 -245 109.5 -373t319.5 -128q169 0 300 98.5t210 300t79 430.5q0 240 -104.5 364t-310.5 124 q-174 0 -308.5 -101t-214.5 -298t-80 -417zM657 1579v29q68 56 157.5 148.5t127.5 150.5h64q23 -64 72.5 -152.5t92.5 -146.5v-29h-49q-70 60 -161 207q-55 -57 -125 -114.5t-125 -92.5h-54z" />
<glyph unicode="&#xd5;" horiz-adv-x="1464" d="M172 559q0 262 93 477.5t255 331t373 115.5q247 0 378.5 -148.5t131.5 -423.5q0 -255 -94 -481.5t-252 -338t-365 -111.5q-250 0 -385 149t-135 430zM276 573q0 -245 109.5 -373t319.5 -128q169 0 300 98.5t210 300t79 430.5q0 240 -104.5 364t-310.5 124 q-174 0 -308.5 -101t-214.5 -298t-80 -417zM592 1581q19 108 71 166.5t134 58.5q41 0 73.5 -14t117.5 -72q52 -36 94 -36q43 0 71.5 30.5t46.5 100.5h76q-26 -118 -74.5 -173t-124.5 -55q-40 0 -77.5 19t-75.5 45q-34 23 -64.5 41t-68.5 18q-45 0 -74 -28.5t-51 -100.5h-74z " />
<glyph unicode="&#xd6;" horiz-adv-x="1464" d="M172 559q0 262 93 477.5t255 331t373 115.5q247 0 378.5 -148.5t131.5 -423.5q0 -255 -94 -481.5t-252 -338t-365 -111.5q-250 0 -385 149t-135 430zM276 573q0 -245 109.5 -373t319.5 -128q169 0 300 98.5t210 300t79 430.5q0 240 -104.5 364t-310.5 124 q-174 0 -308.5 -101t-214.5 -298t-80 -417zM687 1704q0 49 20.5 78t56.5 29q54 0 54 -64q0 -48 -21 -77t-55 -29q-55 0 -55 63zM1031 1704q0 49 20.5 78t56.5 29q54 0 54 -64q0 -48 -21 -77t-55 -29q-55 0 -55 63z" />
<glyph unicode="&#xd7;" d="M221 1055l70 69l330 -329l333 329l68 -67l-332 -334l332 -332l-68 -67l-333 329l-330 -327l-68 67l328 330z" />
<glyph unicode="&#xd8;" horiz-adv-x="1464" d="M139 -14l146 172q-113 149 -113 401q0 263 94 479.5t256.5 330.5t370.5 114q219 0 352 -121l133 168l70 -53l-145 -183q45 -51 72.5 -161t27.5 -222q0 -187 -52 -365.5t-144.5 -304.5t-223 -193.5t-291.5 -67.5q-215 0 -348 112l-139 -170zM276 573q0 -105 21.5 -191 t56.5 -138l826 1032q-107 113 -301 113q-134 0 -244 -59.5t-188.5 -170t-124.5 -267.5t-46 -319zM412 172q107 -100 293 -100q170 0 301 100t209.5 296.5t78.5 432.5q0 85 -17.5 172t-43.5 129z" />
<glyph unicode="&#xd9;" horiz-adv-x="1370" d="M176 381q0 83 27 201l186 880h103l-193 -899q-20 -89 -20 -184q0 -309 342 -309q195 0 307.5 96.5t158.5 318.5l207 977h101l-207 -977q-58 -270 -197 -387.5t-375 -117.5q-440 0 -440 401zM667 1886v21h115q46 -129 164 -303v-25h-66q-50 52 -114 144.5t-99 162.5z" />
<glyph unicode="&#xda;" horiz-adv-x="1370" d="M176 381q0 83 27 201l186 880h103l-193 -899q-20 -89 -20 -184q0 -309 342 -309q195 0 307.5 96.5t158.5 318.5l207 977h101l-207 -977q-58 -270 -197 -387.5t-375 -117.5q-440 0 -440 401zM838 1579v21q66 51 150.5 142t129.5 165h137v-23q-51 -66 -157.5 -158.5 t-192.5 -146.5h-67z" />
<glyph unicode="&#xdb;" horiz-adv-x="1370" d="M176 381q0 83 27 201l186 880h103l-193 -899q-20 -89 -20 -184q0 -309 342 -309q195 0 307.5 96.5t158.5 318.5l207 977h101l-207 -977q-58 -270 -197 -387.5t-375 -117.5q-440 0 -440 401zM634 1579v29q68 56 157.5 148.5t127.5 150.5h64q23 -64 72.5 -152.5 t92.5 -146.5v-29h-49q-70 60 -161 207q-55 -57 -125 -114.5t-125 -92.5h-54z" />
<glyph unicode="&#xdc;" horiz-adv-x="1370" d="M176 381q0 83 27 201l186 880h103l-193 -899q-20 -89 -20 -184q0 -309 342 -309q195 0 307.5 96.5t158.5 318.5l207 977h101l-207 -977q-58 -270 -197 -387.5t-375 -117.5q-440 0 -440 401zM678 1704q0 49 20.5 78t56.5 29q54 0 54 -64q0 -48 -21 -77t-55 -29 q-55 0 -55 63zM1022 1704q0 49 20.5 78t56.5 29q54 0 54 -64q0 -48 -21 -77t-55 -29q-55 0 -55 63z" />
<glyph unicode="&#xdd;" horiz-adv-x="965" d="M193 1462h100l201 -817l544 817h117l-631 -932l-108 -530h-105l119 545zM563 1579v21q66 51 150.5 142t129.5 165h137v-23q-51 -66 -157.5 -158.5t-192.5 -146.5h-67z" />
<glyph unicode="&#xde;" horiz-adv-x="1145" d="M102 0l310 1462h102l-57 -266h213q200 0 308.5 -92.5t108.5 -267.5q0 -247 -153 -373.5t-457 -126.5h-201l-71 -336h-103zM293 428h190q256 0 376 98.5t120 302.5q0 275 -330 275h-211z" />
<glyph unicode="&#xdf;" horiz-adv-x="1094" d="M-281 -379q53 -24 115 -24q79 0 123 50.5t66 153.5l305 1409q80 357 405 357q137 0 215 -61.5t78 -174.5q0 -75 -44.5 -140.5t-166.5 -148.5q-107 -76 -141.5 -124.5t-34.5 -106.5q0 -51 34 -88.5t93 -75.5q96 -63 138 -133.5t42 -165.5q0 -170 -106.5 -269t-286.5 -99 q-143 0 -234 65v109q45 -36 112.5 -59t129.5 -23q132 0 208.5 71t76.5 195q0 75 -31.5 129t-109.5 108q-82 58 -119 110.5t-37 121.5q0 57 21 103t60.5 88.5t137.5 113.5q101 70 131.5 116t30.5 101q0 70 -55 110t-150 40q-129 0 -205 -76t-108 -229l-291 -1377 q-33 -152 -103.5 -220.5t-179.5 -68.5q-73 0 -119 23v90z" />
<glyph unicode="&#xe0;" horiz-adv-x="1133" d="M102 354q0 197 75 376t200.5 276.5t277.5 97.5q232 0 279 -219h6l59 202h80l-229 -1087h-82l45 274h-6q-84 -142 -187 -218t-237 -76q-281 0 -281 374zM205 365q0 -152 50 -223.5t151 -71.5q89 0 177.5 62t159 166t107.5 230t37 213q0 79 -26 141.5t-77 99t-127 36.5 q-124 0 -224 -82t-164 -245.5t-64 -325.5zM530 1548v21h115q46 -129 164 -303v-25h-66q-50 52 -114 144.5t-99 162.5z" />
<glyph unicode="&#xe1;" horiz-adv-x="1133" d="M102 354q0 197 75 376t200.5 276.5t277.5 97.5q232 0 279 -219h6l59 202h80l-229 -1087h-82l45 274h-6q-84 -142 -187 -218t-237 -76q-281 0 -281 374zM205 365q0 -152 50 -223.5t151 -71.5q89 0 177.5 62t159 166t107.5 230t37 213q0 79 -26 141.5t-77 99t-127 36.5 q-124 0 -224 -82t-164 -245.5t-64 -325.5zM586 1241v21q66 51 150.5 142t129.5 165h137v-23q-51 -66 -157.5 -158.5t-192.5 -146.5h-67z" />
<glyph unicode="&#xe2;" horiz-adv-x="1133" d="M102 354q0 197 75 376t200.5 276.5t277.5 97.5q232 0 279 -219h6l59 202h80l-229 -1087h-82l45 274h-6q-84 -142 -187 -218t-237 -76q-281 0 -281 374zM205 365q0 -152 50 -223.5t151 -71.5q89 0 177.5 62t159 166t107.5 230t37 213q0 79 -26 141.5t-77 99t-127 36.5 q-124 0 -224 -82t-164 -245.5t-64 -325.5zM441 1243v29q68 56 157.5 148.5t127.5 150.5h64q23 -64 72.5 -152.5t92.5 -146.5v-29h-49q-70 60 -161 207q-55 -57 -125 -114.5t-125 -92.5h-54z" />
<glyph unicode="&#xe3;" horiz-adv-x="1133" d="M102 354q0 197 75 376t200.5 276.5t277.5 97.5q232 0 279 -219h6l59 202h80l-229 -1087h-82l45 274h-6q-84 -142 -187 -218t-237 -76q-281 0 -281 374zM205 365q0 -152 50 -223.5t151 -71.5q89 0 177.5 62t159 166t107.5 230t37 213q0 79 -26 141.5t-77 99t-127 36.5 q-124 0 -224 -82t-164 -245.5t-64 -325.5zM373 1243q19 108 71 166.5t134 58.5q41 0 73.5 -14t117.5 -72q52 -36 94 -36q43 0 71.5 30.5t46.5 100.5h76q-26 -118 -74.5 -173t-124.5 -55q-40 0 -77.5 19t-75.5 45q-34 23 -64.5 41t-68.5 18q-45 0 -74 -28.5t-51 -100.5h-74z " />
<glyph unicode="&#xe4;" horiz-adv-x="1133" d="M102 354q0 197 75 376t200.5 276.5t277.5 97.5q232 0 279 -219h6l59 202h80l-229 -1087h-82l45 274h-6q-84 -142 -187 -218t-237 -76q-281 0 -281 374zM205 365q0 -152 50 -223.5t151 -71.5q89 0 177.5 62t159 166t107.5 230t37 213q0 79 -26 141.5t-77 99t-127 36.5 q-124 0 -224 -82t-164 -245.5t-64 -325.5zM491 1366q0 49 20.5 78t56.5 29q54 0 54 -64q0 -48 -21 -77t-55 -29q-55 0 -55 63zM835 1366q0 49 20.5 78t56.5 29q54 0 54 -64q0 -48 -21 -77t-55 -29q-55 0 -55 63z" />
<glyph unicode="&#xe5;" horiz-adv-x="1133" d="M102 354q0 197 75 376t200.5 276.5t277.5 97.5q232 0 279 -219h6l59 202h80l-229 -1087h-82l45 274h-6q-84 -142 -187 -218t-237 -76q-281 0 -281 374zM205 365q0 -152 50 -223.5t151 -71.5q89 0 177.5 62t159 166t107.5 230t37 213q0 79 -26 141.5t-77 99t-127 36.5 q-124 0 -224 -82t-164 -245.5t-64 -325.5zM521 1440q0 88 59.5 144t149.5 56q88 0 142.5 -50t54.5 -142t-57.5 -148.5t-145.5 -56.5q-93 0 -148 52t-55 145zM601 1440q0 -57 33 -90t90 -33q56 0 90.5 36t34.5 93t-33.5 90t-87.5 33q-60 0 -93.5 -36t-33.5 -93z" />
<glyph unicode="&#xe6;" horiz-adv-x="1602" d="M102 344q0 206 70.5 384.5t192.5 277t274 98.5q106 0 166 -56.5t74 -156.5h10l59 192h66l-35 -186q139 207 350 207q112 0 175 -61.5t63 -172.5q0 -179 -158.5 -271.5t-470.5 -92.5h-39q-8 -51 -8 -96q0 -161 69.5 -250.5t217.5 -89.5q69 0 133.5 21t130.5 52v-94 q-80 -37 -147 -53t-140 -16q-123 0 -211 60t-117 165l-39 -205h-77l41 254h-9q-94 -142 -189 -208t-208 -66q-120 0 -182 94t-62 270zM205 352q0 -150 42.5 -216t121.5 -66q67 0 138.5 42t134 117.5t106 170.5t63.5 199t20 165q0 118 -49 186t-141 68q-123 0 -223 -86 t-156.5 -240t-56.5 -340zM913 594h48q263 0 383 67t120 203q0 71 -38.5 112.5t-108.5 41.5q-119 0 -232 -115.5t-172 -308.5z" />
<glyph unicode="&#xe7;" horiz-adv-x="887" d="M102 397q0 193 73.5 361.5t198.5 257t290 88.5q134 0 241 -43l-28 -90q-107 47 -218 47q-129 0 -232.5 -77t-162.5 -222t-59 -320q0 -158 73.5 -243.5t208.5 -85.5q71 0 131.5 13t131.5 46v-92q-116 -57 -273 -57q-174 0 -274.5 110.5t-100.5 306.5zM203 -406 q30 -6 72 -6q198 0 198 115q0 97 -151 107l110 190h80l-78 -137q140 -30 140 -152q0 -94 -75.5 -148.5t-217.5 -54.5q-46 0 -78 7v79z" />
<glyph unicode="&#xe8;" horiz-adv-x="928" d="M102 395q0 181 71 347t195.5 264t274.5 98q114 0 182 -61t68 -166q0 -181 -163.5 -276t-485.5 -95h-33q-6 -44 -6 -98q0 -165 74 -251.5t213 -86.5q132 0 276 73v-94q-140 -69 -299 -69q-173 0 -270 109.5t-97 305.5zM225 594h49q517 0 517 270q0 67 -43.5 110.5 t-116.5 43.5q-131 0 -243.5 -115.5t-162.5 -308.5zM472 1548v21h115q46 -129 164 -303v-25h-66q-50 52 -114 144.5t-99 162.5z" />
<glyph unicode="&#xe9;" horiz-adv-x="928" d="M102 395q0 181 71 347t195.5 264t274.5 98q114 0 182 -61t68 -166q0 -181 -163.5 -276t-485.5 -95h-33q-6 -44 -6 -98q0 -165 74 -251.5t213 -86.5q132 0 276 73v-94q-140 -69 -299 -69q-173 0 -270 109.5t-97 305.5zM225 594h49q517 0 517 270q0 67 -43.5 110.5 t-116.5 43.5q-131 0 -243.5 -115.5t-162.5 -308.5zM532 1241v21q66 51 150.5 142t129.5 165h137v-23q-51 -66 -157.5 -158.5t-192.5 -146.5h-67z" />
<glyph unicode="&#xea;" horiz-adv-x="928" d="M102 395q0 181 71 347t195.5 264t274.5 98q114 0 182 -61t68 -166q0 -181 -163.5 -276t-485.5 -95h-33q-6 -44 -6 -98q0 -165 74 -251.5t213 -86.5q132 0 276 73v-94q-140 -69 -299 -69q-173 0 -270 109.5t-97 305.5zM225 594h49q517 0 517 270q0 67 -43.5 110.5 t-116.5 43.5q-131 0 -243.5 -115.5t-162.5 -308.5zM390 1241v29q68 56 157.5 148.5t127.5 150.5h64q23 -64 72.5 -152.5t92.5 -146.5v-29h-49q-70 60 -161 207q-55 -57 -125 -114.5t-125 -92.5h-54z" />
<glyph unicode="&#xeb;" horiz-adv-x="928" d="M102 395q0 181 71 347t195.5 264t274.5 98q114 0 182 -61t68 -166q0 -181 -163.5 -276t-485.5 -95h-33q-6 -44 -6 -98q0 -165 74 -251.5t213 -86.5q132 0 276 73v-94q-140 -69 -299 -69q-173 0 -270 109.5t-97 305.5zM225 594h49q517 0 517 270q0 67 -43.5 110.5 t-116.5 43.5q-131 0 -243.5 -115.5t-162.5 -308.5zM436 1366q0 49 20.5 78t56.5 29q54 0 54 -64q0 -48 -21 -77t-55 -29q-55 0 -55 63zM780 1366q0 49 20.5 78t56.5 29q54 0 54 -64q0 -48 -21 -77t-55 -29q-55 0 -55 63z" />
<glyph unicode="&#xec;" horiz-adv-x="475" d="M76 0l231 1087h96l-229 -1087h-98zM175 1548v21h115q46 -129 164 -303v-25h-66q-50 52 -114 144.5t-99 162.5z" />
<glyph unicode="&#xed;" horiz-adv-x="475" d="M76 0l231 1087h96l-229 -1087h-98zM284 1241v21q66 51 150.5 142t129.5 165h137v-23q-51 -66 -157.5 -158.5t-192.5 -146.5h-67z" />
<glyph unicode="&#xee;" horiz-adv-x="475" d="M76 0l231 1087h96l-229 -1087h-98zM128 1241v29q68 56 157.5 148.5t127.5 150.5h64q23 -64 72.5 -152.5t92.5 -146.5v-29h-49q-70 60 -161 207q-55 -57 -125 -114.5t-125 -92.5h-54z" />
<glyph unicode="&#xef;" horiz-adv-x="475" d="M76 0l231 1087h96l-229 -1087h-98zM171 1366q0 49 20.5 78t56.5 29q54 0 54 -64q0 -48 -21 -77t-55 -29q-55 0 -55 63zM515 1366q0 49 20.5 78t56.5 29q54 0 54 -64q0 -48 -21 -77t-55 -29q-55 0 -55 63z" />
<glyph unicode="&#xf0;" horiz-adv-x="1124" d="M102 381q0 170 63 301.5t178.5 203.5t262.5 72q107 0 188 -49.5t121 -142.5h5q0 139 -43 289t-115 243l-295 -163l-39 73l285 156q-54 60 -158 139l59 68q32 -26 81 -66t100 -94l266 150l39 -74l-256 -141q87 -116 131.5 -276t44.5 -335q0 -355 -141.5 -555t-399.5 -200 q-177 0 -277 106.5t-100 294.5zM205 389q0 -153 73.5 -236t210.5 -83q118 0 208.5 61t144 186.5t53.5 270.5q0 77 -35 142t-100 101.5t-156 36.5q-124 0 -213.5 -61.5t-137.5 -169.5t-48 -248z" />
<glyph unicode="&#xf1;" horiz-adv-x="1143" d="M76 0l231 1087h82l-37 -221h6q164 238 416 238q130 0 195 -64t65 -184q0 -70 -24 -182l-148 -674h-98l149 692q21 92 21 156q0 80 -43.5 125t-134.5 45q-112 0 -210.5 -67t-166 -187.5t-103.5 -286.5l-102 -477h-98zM389 1243q19 108 71 166.5t134 58.5q41 0 73.5 -14 t117.5 -72q52 -36 94 -36q43 0 71.5 30.5t46.5 100.5h76q-26 -118 -74.5 -173t-124.5 -55q-40 0 -77.5 19t-75.5 45q-34 23 -64.5 41t-68.5 18q-45 0 -74 -28.5t-51 -100.5h-74z" />
<glyph unicode="&#xf2;" horiz-adv-x="1124" d="M98 403q0 191 73 358t197 257t281 90q180 0 278.5 -108.5t98.5 -299.5q0 -197 -71.5 -368.5t-195.5 -261.5t-286 -90q-184 0 -279.5 109.5t-95.5 313.5zM201 408q0 -342 282 -342q127 0 225.5 77.5t157 228t58.5 330.5q0 154 -73 237t-210 83q-124 0 -223 -78.5 t-158 -225t-59 -310.5zM465 1548v21h115q46 -129 164 -303v-25h-66q-50 52 -114 144.5t-99 162.5z" />
<glyph unicode="&#xf3;" horiz-adv-x="1124" d="M98 403q0 191 73 358t197 257t281 90q180 0 278.5 -108.5t98.5 -299.5q0 -197 -71.5 -368.5t-195.5 -261.5t-286 -90q-184 0 -279.5 109.5t-95.5 313.5zM201 408q0 -342 282 -342q127 0 225.5 77.5t157 228t58.5 330.5q0 154 -73 237t-210 83q-124 0 -223 -78.5 t-158 -225t-59 -310.5zM573 1241v21q66 51 150.5 142t129.5 165h137v-23q-51 -66 -157.5 -158.5t-192.5 -146.5h-67z" />
<glyph unicode="&#xf4;" horiz-adv-x="1124" d="M98 403q0 191 73 358t197 257t281 90q180 0 278.5 -108.5t98.5 -299.5q0 -197 -71.5 -368.5t-195.5 -261.5t-286 -90q-184 0 -279.5 109.5t-95.5 313.5zM201 408q0 -342 282 -342q127 0 225.5 77.5t157 228t58.5 330.5q0 154 -73 237t-210 83q-124 0 -223 -78.5 t-158 -225t-59 -310.5zM427 1241v29q68 56 157.5 148.5t127.5 150.5h64q23 -64 72.5 -152.5t92.5 -146.5v-29h-49q-70 60 -161 207q-55 -57 -125 -114.5t-125 -92.5h-54z" />
<glyph unicode="&#xf5;" horiz-adv-x="1124" d="M98 403q0 191 73 358t197 257t281 90q180 0 278.5 -108.5t98.5 -299.5q0 -197 -71.5 -368.5t-195.5 -261.5t-286 -90q-184 0 -279.5 109.5t-95.5 313.5zM201 408q0 -342 282 -342q127 0 225.5 77.5t157 228t58.5 330.5q0 154 -73 237t-210 83q-124 0 -223 -78.5 t-158 -225t-59 -310.5zM354 1243q19 108 71 166.5t134 58.5q41 0 73.5 -14t117.5 -72q52 -36 94 -36q43 0 71.5 30.5t46.5 100.5h76q-26 -118 -74.5 -173t-124.5 -55q-40 0 -77.5 19t-75.5 45q-34 23 -64.5 41t-68.5 18q-45 0 -74 -28.5t-51 -100.5h-74z" />
<glyph unicode="&#xf6;" horiz-adv-x="1124" d="M98 403q0 191 73 358t197 257t281 90q180 0 278.5 -108.5t98.5 -299.5q0 -197 -71.5 -368.5t-195.5 -261.5t-286 -90q-184 0 -279.5 109.5t-95.5 313.5zM201 408q0 -342 282 -342q127 0 225.5 77.5t157 228t58.5 330.5q0 154 -73 237t-210 83q-124 0 -223 -78.5 t-158 -225t-59 -310.5zM468 1366q0 49 20.5 78t56.5 29q54 0 54 -64q0 -48 -21 -77t-55 -29q-55 0 -55 63zM812 1366q0 49 20.5 78t56.5 29q54 0 54 -64q0 -48 -21 -77t-55 -29q-55 0 -55 63z" />
<glyph unicode="&#xf7;" d="M168 672v100h903v-100h-903zM522 373q0 106 96 106q48 0 73.5 -27.5t25.5 -78.5q0 -57 -29 -82t-70 -25q-96 0 -96 107zM522 1071q0 107 96 107q46 0 72.5 -27.5t26.5 -79.5q0 -57 -29 -81.5t-70 -24.5q-96 0 -96 106z" />
<glyph unicode="&#xf8;" horiz-adv-x="1124" d="M45 -18l119 145q-66 106 -66 276q0 191 73 358t197 257t281 90q150 0 250 -82l109 133l65 -53l-117 -143q70 -105 70 -263q0 -197 -71.5 -368.5t-195.5 -261.5t-286 -90q-163 0 -254 83l-110 -135zM201 408q0 -125 32 -197l605 739q-74 72 -197 72q-124 0 -223 -78.5 t-158 -225t-59 -310.5zM281 139q67 -73 202 -73q127 0 225.5 77.5t157 228t58.5 330.5q0 101 -35 179z" />
<glyph unicode="&#xf9;" horiz-adv-x="1143" d="M109 227q0 60 22 170l150 690h100l-152 -698q-22 -106 -22 -158q0 -74 47.5 -117.5t138.5 -43.5q110 0 207.5 65.5t164 187t99.5 279.5l105 485h98l-231 -1087h-80l28 205h-6q-167 -221 -403 -221q-131 0 -198.5 62t-67.5 181zM495 1548v21h115q46 -129 164 -303v-25h-66 q-50 52 -114 144.5t-99 162.5z" />
<glyph unicode="&#xfa;" horiz-adv-x="1143" d="M109 227q0 60 22 170l150 690h100l-152 -698q-22 -106 -22 -158q0 -74 47.5 -117.5t138.5 -43.5q110 0 207.5 65.5t164 187t99.5 279.5l105 485h98l-231 -1087h-80l28 205h-6q-167 -221 -403 -221q-131 0 -198.5 62t-67.5 181zM627 1241v21q66 51 150.5 142t129.5 165 h137v-23q-51 -66 -157.5 -158.5t-192.5 -146.5h-67z" />
<glyph unicode="&#xfb;" horiz-adv-x="1143" d="M109 227q0 60 22 170l150 690h100l-152 -698q-22 -106 -22 -158q0 -74 47.5 -117.5t138.5 -43.5q110 0 207.5 65.5t164 187t99.5 279.5l105 485h98l-231 -1087h-80l28 205h-6q-167 -221 -403 -221q-131 0 -198.5 62t-67.5 181zM443 1241v29q68 56 157.5 148.5 t127.5 150.5h64q23 -64 72.5 -152.5t92.5 -146.5v-29h-49q-70 60 -161 207q-55 -57 -125 -114.5t-125 -92.5h-54z" />
<glyph unicode="&#xfc;" horiz-adv-x="1143" d="M109 227q0 60 22 170l150 690h100l-152 -698q-22 -106 -22 -158q0 -74 47.5 -117.5t138.5 -43.5q110 0 207.5 65.5t164 187t99.5 279.5l105 485h98l-231 -1087h-80l28 205h-6q-167 -221 -403 -221q-131 0 -198.5 62t-67.5 181zM483 1366q0 49 20.5 78t56.5 29 q54 0 54 -64q0 -48 -21 -77t-55 -29q-55 0 -55 63zM827 1366q0 49 20.5 78t56.5 29q54 0 54 -64q0 -48 -21 -77t-55 -29q-55 0 -55 63z" />
<glyph unicode="&#xfd;" horiz-adv-x="920" d="M-217 -379q71 -27 137 -27q80 0 147 49.5t130 164.5t100 184l-174 1095h100l82 -548q51 -351 55 -449h11q43 105 186 367l348 630h103l-713 -1290q-72 -127 -122.5 -178t-114 -81t-146.5 -30q-68 0 -129 21v92zM505 1241v21q66 51 150.5 142t129.5 165h137v-23 q-51 -66 -157.5 -158.5t-192.5 -146.5h-67z" />
<glyph unicode="&#xfe;" horiz-adv-x="1163" d="M-33 -492l434 2048h99q-114 -535 -164 -751h6q93 156 199 229.5t231 73.5q133 0 206 -92.5t73 -282.5q0 -195 -72 -371t-197.5 -277t-283.5 -101q-230 0 -279 219h-4q-13 -72 -149 -695h-99zM266 346q0 -125 61.5 -200.5t168.5 -75.5q124 0 225 84t164 243.5t63 325.5 q0 295 -200 295q-86 0 -172.5 -57.5t-162.5 -169.5t-111.5 -238t-35.5 -207z" />
<glyph unicode="&#xff;" horiz-adv-x="920" d="M-217 -379q71 -27 137 -27q80 0 147 49.5t130 164.5t100 184l-174 1095h100l82 -548q51 -351 55 -449h11q43 105 186 367l348 630h103l-713 -1290q-72 -127 -122.5 -178t-114 -81t-146.5 -30q-68 0 -129 21v92zM354 1366q0 49 20.5 78t56.5 29q54 0 54 -64q0 -48 -21 -77 t-55 -29q-55 0 -55 63zM698 1366q0 49 20.5 78t56.5 29q54 0 54 -64q0 -48 -21 -77t-55 -29q-55 0 -55 63z" />
<glyph unicode="&#x152;" horiz-adv-x="1767" d="M172 559q0 263 96 482t262 330.5t381 111.5q130 0 240 -21h688l-20 -94h-625l-117 -553h590l-20 -94h-588l-135 -627h626l-20 -94h-666q-25 -6 -77.5 -13t-94.5 -7q-251 0 -385.5 149.5t-134.5 429.5zM276 573q0 -245 109 -373t320 -128q68 0 116 12l271 1290 q-110 15 -189 15q-182 0 -321.5 -98.5t-222.5 -293.5t-83 -424z" />
<glyph unicode="&#x153;" horiz-adv-x="1720" d="M98 403q0 191 73 358t197 257t281 90q141 0 237 -74.5t126 -212.5q70 132 182.5 207.5t241.5 75.5q114 0 182 -61t68 -166q0 -181 -163.5 -276t-486.5 -95h-32q-7 -38 -7 -98q0 -165 74 -251.5t213 -86.5q133 0 277 73v-94q-140 -69 -299 -69q-135 0 -228 69t-125 201 q-65 -127 -179 -198.5t-257 -71.5q-184 0 -279.5 109.5t-95.5 313.5zM201 408q0 -342 282 -342q127 0 225.5 77.5t157 228t58.5 330.5q0 154 -73 237t-210 83q-124 0 -223 -78.5t-158 -225t-59 -310.5zM1018 594h49q516 0 516 270q0 70 -44.5 112t-115.5 42 q-131 0 -243 -115t-162 -309z" />
<glyph unicode="&#x178;" horiz-adv-x="965" d="M193 1462h100l201 -817l544 817h117l-631 -932l-108 -530h-105l119 545zM454 1704q0 49 20.5 78t56.5 29q54 0 54 -64q0 -48 -21 -77t-55 -29q-55 0 -55 63zM798 1704q0 49 20.5 78t56.5 29q54 0 54 -64q0 -48 -21 -77t-55 -29q-55 0 -55 63z" />
<glyph unicode="&#x2c6;" horiz-adv-x="1135" d="M444 1241v29q68 56 157.5 148.5t127.5 150.5h64q23 -64 72.5 -152.5t92.5 -146.5v-29h-49q-70 60 -161 207q-55 -57 -125 -114.5t-125 -92.5h-54z" />
<glyph unicode="&#x2dc;" horiz-adv-x="1135" d="M346 1243q19 108 71 166.5t134 58.5q41 0 73.5 -14t117.5 -72q52 -36 94 -36q43 0 71.5 30.5t46.5 100.5h76q-26 -118 -74.5 -173t-124.5 -55q-40 0 -77.5 19t-75.5 45q-34 23 -64.5 41t-68.5 18q-45 0 -74 -28.5t-51 -100.5h-74z" />
<glyph unicode="&#x2000;" horiz-adv-x="953" />
<glyph unicode="&#x2001;" horiz-adv-x="1907" />
<glyph unicode="&#x2002;" horiz-adv-x="953" />
<glyph unicode="&#x2003;" horiz-adv-x="1907" />
<glyph unicode="&#x2004;" horiz-adv-x="635" />
<glyph unicode="&#x2005;" horiz-adv-x="476" />
<glyph unicode="&#x2006;" horiz-adv-x="317" />
<glyph unicode="&#x2007;" horiz-adv-x="317" />
<glyph unicode="&#x2008;" horiz-adv-x="238" />
<glyph unicode="&#x2009;" horiz-adv-x="381" />
<glyph unicode="&#x200a;" horiz-adv-x="105" />
<glyph unicode="&#x2010;" horiz-adv-x="629" d="M82 502l18 90h457l-16 -90h-459z" />
<glyph unicode="&#x2011;" horiz-adv-x="629" d="M82 502l18 90h457l-16 -90h-459z" />
<glyph unicode="&#x2012;" horiz-adv-x="629" d="M82 502l18 90h457l-16 -90h-459z" />
<glyph unicode="&#x2013;" horiz-adv-x="983" d="M66 502l18 90h807l-17 -90h-808z" />
<glyph unicode="&#x2014;" horiz-adv-x="1966" d="M68 502l18 90h1788l-16 -90h-1790z" />
<glyph unicode="&#x2018;" horiz-adv-x="299" d="M129 983q41 100 116 231t161 248h73q-66 -106 -129.5 -242.5t-103.5 -258.5h-113z" />
<glyph unicode="&#x2019;" horiz-adv-x="299" d="M129 961q66 106 129.5 242.5t103.5 258.5h113l4 -22q-43 -105 -117.5 -235.5t-158.5 -243.5h-74z" />
<glyph unicode="&#x201a;" horiz-adv-x="451" d="M-100 -264q68 110 131.5 248t101.5 254h113l4 -23q-40 -97 -115.5 -230t-161.5 -249h-73z" />
<glyph unicode="&#x201c;" horiz-adv-x="631" d="M129 983q41 100 116 231t161 248h73q-66 -106 -129.5 -242.5t-103.5 -258.5h-113zM463 983q43 104 120 238.5t156 240.5h74q-66 -106 -129.5 -242.5t-103.5 -258.5h-113z" />
<glyph unicode="&#x201d;" horiz-adv-x="631" d="M129 961q66 106 129.5 242.5t103.5 258.5h113l4 -22q-43 -105 -117.5 -235.5t-158.5 -243.5h-74zM463 961q66 106 129.5 242.5t103.5 258.5h113l4 -22q-43 -105 -117.5 -235.5t-158.5 -243.5h-74z" />
<glyph unicode="&#x201e;" horiz-adv-x="776" d="M-119 -264q73 119 135.5 254.5t98.5 247.5h112l4 -23q-43 -105 -117.5 -235.5t-158.5 -243.5h-74zM215 -264q66 108 129 242.5t105 259.5h112l4 -23q-43 -105 -117.5 -235.5t-158.5 -243.5h-74z" />
<glyph unicode="&#x2022;" horiz-adv-x="793" d="M248 682q0 137 63 213t172 76q76 0 116 -39.5t40 -118.5q0 -125 -66 -207t-176 -82q-149 0 -149 158z" />
<glyph unicode="&#x2026;" horiz-adv-x="1489" d="M69 55q0 56 25 88.5t69 32.5q66 0 66 -72q0 -53 -25 -87.5t-67 -34.5q-68 0 -68 73zM569 55q0 56 25 88.5t69 32.5q66 0 66 -72q0 -53 -25 -87.5t-67 -34.5q-68 0 -68 73zM1071 55q0 56 25 88.5t69 32.5q66 0 66 -72q0 -53 -25 -87.5t-67 -34.5q-68 0 -68 73z" />
<glyph unicode="&#x202f;" horiz-adv-x="381" />
<glyph unicode="&#x2039;" horiz-adv-x="537" d="M86 541l2 26l363 365l57 -49l-318 -336l213 -385l-63 -39z" />
<glyph unicode="&#x203a;" horiz-adv-x="537" d="M37 172l317 336l-213 385l64 39l254 -418l-2 -27l-363 -364z" />
<glyph unicode="&#x205f;" horiz-adv-x="476" />
<glyph unicode="&#x20ac;" d="M80 541l16 82h172q5 101 35 217h-170l19 82h174q95 273 270 417t399 144q166 0 287 -90l-53 -82q-102 78 -238 78q-186 0 -330.5 -120.5t-226.5 -346.5h457l-21 -82h-460q-30 -98 -39 -217h442l-20 -82h-424q0 -243 89 -356t265 -113q115 0 252 57v-94q-129 -55 -270 -55 q-209 0 -325 139.5t-116 394.5v27h-184z" />
<glyph unicode="&#x2122;" horiz-adv-x="1534" d="M174 1384v78h522v-78h-219v-643h-86v643h-217zM772 741v721h125l221 -606l223 606h125v-721h-86v398l4 207h-6l-227 -605h-74l-221 609h-6l4 -201v-408h-82z" />
<glyph unicode="&#xe000;" horiz-adv-x="1085" d="M0 0v1085h1085v-1085h-1085z" />
</font>
</defs></svg> 