<?xml version="1.0" encoding="utf-8"?>
<!-- Generator: Adobe Illustrator 23.0.0, SVG Export Plug-In . SVG Version: 6.00 Build 0)  -->
<svg version="1.0" xmlns="http://www.w3.org/2000/svg" xmlns:xlink="http://www.w3.org/1999/xlink" x="0px" y="0px" width="24px"
	 height="24px" viewBox="0 0 24 24" enable-background="new 0 0 24 24" xml:space="preserve">
<g id="White">
</g>
<g id="Black">
	<g>
		<path d="M11.5,5.9L0.2,17.2c-0.3,0.3-0.3,0.7,0,1s0.7,0.3,1,0L12,7.3l10.8,10.8c0.3,0.3,0.7,0.3,1,0c0.1-0.1,0.2-0.3,0.2-0.5
			c0-0.2-0.1-0.3-0.2-0.5L12.5,5.9C12.2,5.6,11.8,5.6,11.5,5.9z"/>
	</g>
</g>
<g id="Color">
</g>
</svg>
