<?xml version="1.0" encoding="utf-8"?>
<!-- Generator: Adobe Illustrator 23.0.0, SVG Export Plug-In . SVG Version: 6.00 Build 0)  -->
<svg version="1.0" xmlns="http://www.w3.org/2000/svg" xmlns:xlink="http://www.w3.org/1999/xlink" x="0px" y="0px" width="24px"
	 height="24px" viewBox="0 0 24 24" enable-background="new 0 0 24 24" xml:space="preserve">
<g id="White">
</g>
<g id="Black">
</g>
<g id="Color">
	<g>
		<g>
			<path fill="#17A2B8" d="M15.6,4.2H4.4c-1,0-1.9,0.9-1.9,1.9v16c0,1,0.9,1.9,1.9,1.9h11.2c1,0,1.9-0.9,1.9-1.9v-16
				C17.4,5,16.6,4.2,15.6,4.2z M16.1,22.1c0,0.3-0.3,0.6-0.6,0.6H4.4c-0.3,0-0.6-0.3-0.6-0.6v-16c0-0.3,0.3-0.6,0.6-0.6h11.2
				c0.3,0,0.6,0.3,0.6,0.6V22.1z"/>
			<path fill="#17A2B8" d="M19.8,0H8.7c-1,0-1.9,0.9-1.9,1.9c0,0.4,0.3,0.7,0.7,0.7c0.4,0,0.7-0.3,0.7-0.7c0-0.3,0.3-0.6,0.6-0.6
				h11.2c0.3,0,0.6,0.3,0.6,0.6v16c0,0.3-0.3,0.6-0.6,0.6c-0.4,0-0.7,0.3-0.7,0.7c0,0.4,0.3,0.7,0.7,0.7c1,0,1.9-0.9,1.9-1.9v-16
				C21.7,0.9,20.9,0,19.8,0z"/>
		</g>
	</g>
</g>
</svg>
