<?xml version="1.0" encoding="utf-8"?>
<!-- Generator: Adobe Illustrator 23.0.0, SVG Export Plug-In . SVG Version: 6.00 Build 0)  -->
<svg version="1.0" xmlns="http://www.w3.org/2000/svg" xmlns:xlink="http://www.w3.org/1999/xlink" x="0px" y="0px" width="24px"
	 height="24px" viewBox="0 0 24 24" enable-background="new 0 0 24 24" xml:space="preserve">
<g id="White">
</g>
<g id="Black">
</g>
<g id="Color">
	<g>
		<path fill="#17A2B8" d="M22.4,1.6c-2.1-2.1-5.4-2.1-7.5,0L1.2,15.3C1.1,15.4,1,15.5,1,15.7l-1,7.5c0,0.2,0,0.4,0.2,0.6
			C0.3,23.9,0.5,24,0.7,24c0,0,0.1,0,0.1,0l4.5-0.6C5.7,23.3,6,23,5.9,22.6C5.9,22.2,5.5,22,5.1,22l-3.6,0.5l0.7-5.3l5.5,5.5
			C7.9,22.9,8,23,8.2,23c0.2,0,0.4-0.1,0.5-0.2L22.4,9c1-1,1.6-2.3,1.6-3.7S23.4,2.6,22.4,1.6z M15.2,3.2l2.3,2.3L5,18.1l-2.3-2.3
			L15.2,3.2z M8.2,21.3L6,19.1L18.5,6.5l2.3,2.3L8.2,21.3z M21.7,7.8l-5.5-5.5c0.7-0.6,1.6-0.9,2.5-0.9c1,0,2,0.4,2.8,1.1
			s1.1,1.7,1.1,2.8C22.6,6.2,22.3,7.1,21.7,7.8z"/>
	</g>
</g>
</svg>
