<?xml version="1.0" encoding="utf-8"?>
<!-- Generator: Adobe Illustrator 23.0.0, SVG Export Plug-In . SVG Version: 6.00 Build 0)  -->
<svg version="1.0" xmlns="http://www.w3.org/2000/svg" xmlns:xlink="http://www.w3.org/1999/xlink" x="0px" y="0px" width="24px"
	 height="24px" viewBox="0 0 24 24" enable-background="new 0 0 24 24" xml:space="preserve">
<g id="White">
</g>
<g id="Black">
</g>
<g id="Color">
	<g>
		<g>
			<path fill="#17A2B8" d="M22.9,12.3c-0.4,0-0.7,0.3-0.7,0.7v6c0,1.6-1.3,3-3,3H4.8c-1.6,0-3-1.3-3-3v-6.1c0-0.4-0.3-0.7-0.7-0.7
				s-0.7,0.3-0.7,0.7v6.1c0,2.4,1.9,4.3,4.3,4.3h14.5c2.4,0,4.3-1.9,4.3-4.3v-6C23.6,12.6,23.3,12.3,22.9,12.3z"/>
			<path fill="#17A2B8" d="M11.6,18c0.1,0.1,0.3,0.2,0.5,0.2c0.2,0,0.3-0.1,0.5-0.2l4.2-4.2c0.3-0.3,0.3-0.7,0-0.9s-0.7-0.3-0.9,0
				l-3.1,3.1V2.5c0-0.4-0.3-0.7-0.7-0.7s-0.7,0.3-0.7,0.7v13.4l-3.1-3.1c-0.3-0.3-0.7-0.3-0.9,0c-0.3,0.3-0.3,0.7,0,0.9L11.6,18z"/>
		</g>
	</g>
</g>
</svg>
