<?xml version="1.0" encoding="utf-8"?>
<!-- Generator: Adobe Illustrator 23.0.0, SVG Export Plug-In . SVG Version: 6.00 Build 0)  -->
<svg version="1.0" xmlns="http://www.w3.org/2000/svg" xmlns:xlink="http://www.w3.org/1999/xlink" x="0px" y="0px" width="24px"
	 height="24px" viewBox="0 0 24 24" enable-background="new 0 0 24 24" xml:space="preserve">
<g id="White">
	<g>
		<path fill="#FFFFFF" d="M0.7,0.1c-0.2,0-0.4,0.1-0.5,0.2c-0.3,0.3-0.3,0.7,0,1L10.9,12L0.2,22.6c-0.3,0.3-0.3,0.7,0,1
			c0.3,0.3,0.7,0.3,1,0L12,12.9l10.8,10.8c0.3,0.3,0.7,0.3,1,0c0.1-0.1,0.2-0.3,0.2-0.5c0-0.2-0.1-0.4-0.2-0.5L13.1,12L23.8,1.4
			C23.9,1.2,24,1,24,0.8c0-0.2-0.1-0.4-0.2-0.5c-0.3-0.3-0.7-0.3-1,0L12,11.1L1.2,0.3C1.1,0.2,0.9,0.1,0.7,0.1z"/>
	</g>
</g>
<g id="Black">
</g>
<g id="Color">
</g>
</svg>
