<?xml version="1.0" encoding="utf-8"?>
<!-- Generator: Adobe Illustrator 23.0.0, SVG Export Plug-In . SVG Version: 6.00 Build 0)  -->
<svg version="1.0" xmlns="http://www.w3.org/2000/svg" xmlns:xlink="http://www.w3.org/1999/xlink" x="0px" y="0px" width="24px"
	 height="24px" viewBox="0 0 24 24" enable-background="new 0 0 24 24" xml:space="preserve">
<g id="White">
</g>
<g id="Black">
	<g>
		<g>
			<path d="M17.2,7.1H17V6.4c0-1.4-1.1-2.5-2.5-2.5h-5C8.1,3.8,7,5,7,6.4v0.7H6.8c-1.4,0-2.5,1.1-2.5,2.5v3.8c0,1.4,1.1,2.5,2.5,2.5
				H7v2.8c0,0.7,0.6,1.4,1.4,1.4h7.3c0.7,0,1.4-0.6,1.4-1.4V16h0.2c1.4,0,2.5-1.1,2.5-2.5V9.6C19.8,8.2,18.6,7.1,17.2,7.1z
				 M15.8,14.1v4.8c0,0.1-0.1,0.1-0.1,0.1H8.3c-0.1,0-0.1-0.1-0.1-0.1v-4.8H15.8z M8.2,7.1V6.4c0-0.7,0.6-1.3,1.3-1.3h5
				c0.7,0,1.3,0.6,1.3,1.3v0.7H8.2z M17,14.1h0.4c0.3,0,0.6-0.3,0.6-0.6c0-0.3-0.3-0.6-0.6-0.6H6.5c-0.3,0-0.6,0.3-0.6,0.6
				c0,0.3,0.3,0.6,0.6,0.6H7v0.7H6.8c-0.7,0-1.3-0.6-1.3-1.3V9.6c0-0.7,0.6-1.3,1.3-1.3h10.5c0.7,0,1.3,0.6,1.3,1.3v3.8
				c0,0.7-0.6,1.3-1.3,1.3H17V14.1z"/>
			<path d="M16.2,9.9h-0.9c-0.3,0-0.6,0.3-0.6,0.6c0,0.3,0.3,0.6,0.6,0.6h0.9c0.3,0,0.6-0.3,0.6-0.6C16.9,10.1,16.6,9.9,16.2,9.9z"
				/>
		</g>
	</g>
</g>
<g id="Color">
</g>
</svg>
