<?xml version="1.0" encoding="utf-8"?>
<!-- Generator: Adobe Illustrator 23.0.0, SVG Export Plug-In . SVG Version: 6.00 Build 0)  -->
<svg version="1.0" xmlns="http://www.w3.org/2000/svg" xmlns:xlink="http://www.w3.org/1999/xlink" x="0px" y="0px" width="24px"
	 height="24px" viewBox="0 0 24 24" enable-background="new 0 0 24 24" xml:space="preserve">
<g id="White">
	<g>
		<g>
			<path fill="#FFFFFF" d="M21.3,2.9H3.1c-1.6,0-2.9,1.3-2.9,2.9v12.4c0,1.6,1.3,2.9,2.9,2.9h18.1c1.6,0,2.9-1.3,2.9-2.9V5.8
				C24.2,4.2,22.9,2.9,21.3,2.9z M22.9,18.2c0,0.9-0.7,1.6-1.6,1.6H3.1c-0.9,0-1.6-0.7-1.6-1.6V5.8c0-0.9,0.7-1.6,1.6-1.6h18.1
				c0.9,0,1.6,0.7,1.6,1.6L22.9,18.2L22.9,18.2z"/>
			<path fill="#FFFFFF" d="M15.3,11.8l5.9-5.3c0.3-0.2,0.3-0.7,0-0.9c-0.2-0.3-0.7-0.3-0.9,0l-8.1,7.3l-1.6-1.4c0,0,0,0,0,0
				c0,0-0.1-0.1-0.1-0.1L4.1,5.6C3.8,5.3,3.4,5.4,3.1,5.6C2.9,5.9,2.9,6.3,3.2,6.6l5.9,5.3l-5.9,5.5c-0.3,0.3-0.3,0.7,0,0.9
				c0.1,0.1,0.3,0.2,0.5,0.2c0.2,0,0.3-0.1,0.5-0.2l6-5.6l1.6,1.5c0.1,0.1,0.3,0.2,0.4,0.2s0.3-0.1,0.4-0.2l1.7-1.5l6,5.7
				c0.1,0.1,0.3,0.2,0.5,0.2c0.2,0,0.4-0.1,0.5-0.2c0.3-0.3,0.2-0.7,0-0.9L15.3,11.8z"/>
		</g>
	</g>
</g>
<g id="Black">
</g>
<g id="Color">
</g>
</svg>
