<?xml version="1.0" encoding="utf-8"?>
<!-- Generator: Adobe Illustrator 23.0.2, SVG Export Plug-In . SVG Version: 6.00 Build 0)  -->
<svg version="1.0" xmlns="http://www.w3.org/2000/svg" xmlns:xlink="http://www.w3.org/1999/xlink" x="0px" y="0px" width="24px"
	 height="24px" viewBox="0 0 24 24" enable-background="new 0 0 24 24" xml:space="preserve">
<g id="White">
</g>
<g id="Black">
	<g>
		<g>
			<path fill="#3D4852" d="M12,0C6.7,0,2.4,4.3,2.4,9.6c0,0.6,0.1,1.2,0.2,1.8c0,0,0,0.1,0.1,0.3C2.8,12.4,3,13,3.3,13.6
				c1,2.4,3.3,6.2,8.3,10.2c0.1,0.1,0.3,0.2,0.4,0.2s0.3-0.1,0.4-0.2c5-4,7.3-7.8,8.3-10.2c0.3-0.6,0.5-1.2,0.6-1.9
				c0-0.2,0.1-0.3,0.1-0.3c0.1-0.6,0.2-1.2,0.2-1.8C21.6,4.3,17.3,0,12,0z M20.1,11.2C20.1,11.2,20.1,11.2,20.1,11.2
				c0,0.1,0,0.1-0.1,0.2c0,0,0,0,0,0c-0.1,0.6-0.3,1.1-0.6,1.6c0,0,0,0,0,0c-0.9,2.2-3,5.6-7.5,9.3c-4.5-3.7-6.6-7.1-7.5-9.3
				c0,0,0,0,0,0c-0.2-0.5-0.4-1.1-0.6-1.6c0,0,0,0,0,0c0-0.1,0-0.2,0-0.2c0,0,0,0,0,0c-0.1-0.5-0.2-1-0.2-1.6c0-4.6,3.7-8.3,8.3-8.3
				s8.3,3.7,8.3,8.3C20.3,10.1,20.2,10.7,20.1,11.2z"/>
			<path fill="#3D4852" d="M12,3.6c-3.4,0-6.1,2.7-6.1,6.1s2.7,6.1,6.1,6.1s6.1-2.7,6.1-6.1S15.4,3.6,12,3.6z M12,14.5
				c-2.6,0-4.7-2.1-4.7-4.7S9.4,5,12,5s4.7,2.1,4.7,4.7S14.6,14.5,12,14.5z"/>
		</g>
	</g>
</g>
<g id="Color">
</g>
</svg>
