<?xml version="1.0" encoding="utf-8"?>
<!-- Generator: Adobe Illustrator 23.0.2, SVG Export Plug-In . SVG Version: 6.00 Build 0)  -->
<svg version="1.0" xmlns="http://www.w3.org/2000/svg" xmlns:xlink="http://www.w3.org/1999/xlink" x="0px" y="0px" width="24px"
	 height="24px" viewBox="0 0 24 24" enable-background="new 0 0 24 24" xml:space="preserve">
<g id="White">
</g>
<g id="Black">
</g>
<g id="Color">
	<g>
		<path fill="#3490DC" d="M14.2,23c0.9-0.7,1.4-1.8,1.4-3.4v-3.7h5.2c1.8,0,3.3-1.5,3.3-3.3v-0.1c0,0,0-0.1,0-0.1l-1.4-8.6
			c-0.3-2.1-1.7-3.3-4-3.3H8.5c-1.8,0-3.3,1.5-3.3,3.3v9.6c0,0.3-0.2,0.5-0.5,0.5H1.8c-0.3,0-0.5-0.2-0.5-0.5V3.2
			c0-0.3,0.2-0.5,0.5-0.5h1.6C3.8,2.6,4,2.4,4,2S3.8,1.4,3.4,1.4H1.8c-1,0-1.7,0.8-1.7,1.7v10.2c0,1,0.8,1.7,1.7,1.7h2.8
			c0.7,0,1.3-0.4,1.5-1c0,0,0.1,0,0.1,0.1c0.2,0,4,1.2,4,4.5v4.2c0,0.3,0.2,0.5,0.4,0.6C10.8,23.4,12.8,24,14.2,23z M6.6,13
			c-0.1,0-0.2,0-0.3,0V3.8c0-1.2,1-2.1,2.1-2.1h3.3h7c1.7,0,2.6,0.7,2.8,2.2l1.4,8.6v0.1c0,1.2-1,2.1-2.1,2.1H15
			c-0.3,0-0.6,0.3-0.6,0.6v4.3c0,1.2-0.3,2-0.9,2.4c-0.6,0.5-1.5,0.4-2,0.3v-3.7C11.5,14.4,6.8,13.1,6.6,13z"/>
	</g>
</g>
</svg>
