<?xml version="1.0" encoding="utf-8"?>
<!-- Generator: Adobe Illustrator 23.0.2, SVG Export Plug-In . SVG Version: 6.00 Build 0)  -->
<svg version="1.0" xmlns="http://www.w3.org/2000/svg" xmlns:xlink="http://www.w3.org/1999/xlink" x="0px" y="0px" width="24px"
	 height="24px" viewBox="0 0 24 24" enable-background="new 0 0 24 24" xml:space="preserve">
<g id="White">
	<g>
		<path fill="#FFFFFF" d="M12,16.7L1.2,5.9c-0.3-0.3-0.7-0.3-1,0s-0.3,0.7,0,1l11.3,11.3c0.3,0.3,0.7,0.3,1,0L23.8,6.8
			C23.9,6.7,24,6.5,24,6.3S23.9,6,23.8,5.9c-0.3-0.3-0.7-0.3-1,0L12,16.7z"/>
	</g>
</g>
<g id="Black">
</g>
<g id="Color">
</g>
</svg>
