<?xml version="1.0" encoding="utf-8"?>
<!-- Generator: Adobe Illustrator 23.0.2, SVG Export Plug-In . SVG Version: 6.00 Build 0)  -->
<svg version="1.0" xmlns="http://www.w3.org/2000/svg" xmlns:xlink="http://www.w3.org/1999/xlink" x="0px" y="0px" width="24px"
	 height="24px" viewBox="0 0 24 24" enable-background="new 0 0 24 24" xml:space="preserve">
<g id="White">
</g>
<g id="Black">
	<g>
		<path fill="#3D4852" d="M18.5,12.7H5.5c-0.4,0-0.7-0.3-0.7-0.7s0.3-0.7,0.7-0.7h12.9c0.4,0,0.7,0.3,0.7,0.7S18.8,12.7,18.5,12.7z"
			/>
	</g>
</g>
<g id="Color">
</g>
</svg>
