<?xml version="1.0" encoding="utf-8"?>
<!-- Generator: Adobe Illustrator 23.0.2, SVG Export Plug-In . SVG Version: 6.00 Build 0)  -->
<svg version="1.0" xmlns="http://www.w3.org/2000/svg" xmlns:xlink="http://www.w3.org/1999/xlink" x="0px" y="0px" width="24px"
	 height="24px" viewBox="0 0 24 24" enable-background="new 0 0 24 24" xml:space="preserve">
<g id="White">
</g>
<g id="Black">
</g>
<g id="Color">
	<g>
		<path fill="#3490DC" d="M23.3,12.7H0.7C0.3,12.7,0,12.4,0,12s0.3-0.7,0.7-0.7h22.6c0.4,0,0.7,0.3,0.7,0.7S23.7,12.7,23.3,12.7z"/>
	</g>
</g>
</svg>
