<?xml version="1.0" encoding="utf-8"?>
<!-- Generator: Adobe Illustrator 23.0.2, SVG Export Plug-In . SVG Version: 6.00 Build 0)  -->
<svg version="1.0" xmlns="http://www.w3.org/2000/svg" xmlns:xlink="http://www.w3.org/1999/xlink" x="0px" y="0px" width="24px"
	 height="24px" viewBox="0 0 24 24" enable-background="new 0 0 24 24" xml:space="preserve">
<g id="White">
	<g>
		<path fill="#FFFFFF" d="M23.7,0.1C23.6,0,23.5,0,23.3,0c-0.2,0-0.5,0.1-0.6,0.3L9.7,21.6l-0.4,0.7l-0.6-0.6l-7.5-7.5
			C1,14,0.9,13.9,0.7,13.9S0.3,14,0.2,14.1C0.1,14.3,0,14.4,0,14.6c0,0.2,0.1,0.3,0.2,0.5l8.7,8.7C9,23.9,9.2,24,9.4,24
			c0,0,0.1,0,0.1,0c0.2,0,0.4-0.1,0.5-0.3L23.9,1C24.1,0.7,24,0.3,23.7,0.1z"/>
		<path fill="#FFFFFF" d="M23.9,1L10,23.7C9.9,23.9,9.7,24,9.5,24c0,0-0.1,0-0.1,0c-0.2,0-0.4-0.1-0.5-0.2l-8.7-8.7
			C0.1,15,0,14.8,0,14.6c0-0.2,0.1-0.3,0.2-0.5c0.1-0.1,0.3-0.2,0.5-0.2S1,14,1.2,14.1l7.5,7.5l0.6,0.6l0.4-0.7L22.7,0.3
			C22.9,0.1,23.1,0,23.3,0c0.1,0,0.2,0,0.4,0.1C24,0.3,24.1,0.7,23.9,1z"/>
	</g>
</g>
<g id="Black">
</g>
<g id="Color">
</g>
</svg>
